Khizar/vcd/abc.vcd
$date
	Tue Aug 22 15:47:21 2023
$end
$version
	GTKWave Analyzer v3.3.107 (w)1999-2020 BSI
$end
$timescale
	1 s
$end
$scope module riscv_tb $end
$scope module core $end
$var wire 32 0 b_id[31:0] $end
$var wire 32 < b_ex[31:0] $end
$var wire 32 * b[31:0] $end
$var wire 1 5 alusrc_id $end
$var wire 1 , alusrc $end
$var wire 32 B alures_wb[31:0] $end
$var wire 32 > alures_ex[31:0] $end
$var wire 32 7 alures[31:0] $end
$var wire 2 6 aluop_id[1:0] $end
$var wire 32 2 alu_in2[31:0] $end
$var wire 32 1 alu_in1[31:0] $end
$var wire 32 / a_id[31:0] $end
$var wire 32 ) a[31:0] $end
$scope module hdetect $end
$var reg 1 G enable_control $end
$var reg 1 H enable_if $end
$var reg 1 I enable_pc $end
$upscope $end
$upscope $end
$var reg 1 " rst $end
$var reg 1 # clk $end
$scope module core $end
$var wire 1 : pcsrc $end
$var wire 1 9 zero_ex $end
$var wire 1 8 zero $end
$var wire 1 E regwrite_wb $end
$var wire 32 ; sumB_ex[31:0] $end
$var wire 32 3 sumB[31:0] $end
$var wire 32 % sumA[31:0] $end
$var wire 32 F readdata_wb[31:0] $end
$var wire 32 A readdata[31:0] $end
$var wire 5 C rd_wb[4:0] $end
$var wire 32 ' pc_if[31:0] $end
$var wire 32 - pc_id[31:0] $end
$var wire 32 . immediate_id[31:0] $end
$var wire 32 $ pc[31:0] $end
$var wire 32 4 mux_out[31:0] $end
$var wire 1 @ memwrite_ex $end
$var wire 1 D memtoreg_wb $end
$var wire 1 ? memread_ex $end
$var wire 32 ( ins_if[31:0] $end
$var wire 32 & ins[31:0] $end
$var wire 32 + immediate[31:0] $end
$var wire 2 = forwardA[1:0] $end
$upscope $end
$upscope $end
$enddefinitions $end
#0
$dumpvars
b0 .
0E
0:
b0 4
05
b0 0
b0 <
bx $
b0 7
1I
b0 (
0D
x"
0@
0?
b0 6
0#
b0 1
b0 2
b0 +
bx &
0,
18
09
b0 =
b0 -
b0 )
b0 B
b0 ;
b0 *
bx %
b0 /
b0 3
1H
b0 >
b0 F
b0 A
b0 '
1G
b0 C
$end
#1
19
b0 $
1"
bx (
1#
b10011 &
b100 %
bx )
bx *
bx '
#2
0#
#3
1#
b0 '
b100 $
bx 0
bx 4
bx 7
b10011 (
x8
bx 2
bx 1
0"
1,
b0 *
b1000 %
bx -
b0 )
bx /
bx 3
#4
0#
#5
1#
b0 3
b0 0
b100 '
bx <
15
b1000 $
x9
b0 1
b0 4
b0 7
b0 2
18
b0 /
bx ;
b0 -
b1100 %
bx >
#6
0#
#7
1#
b0 >
b100 3
b0 <
b1000 '
bx C
19
b1100 $
b10000 %
bx B
b100 -
b0 ;
#8
0#
#9
1#
b100 ;
1E
b1000 3
b0 C
b1100 '
b1000 -
b10000 $
b101000000000010100010011 &
b0 B
b10100 %
#10
0#
#11
1#
b11000 %
b1000 ;
b1100 3
b101000000000010100010011 (
b1010 +
b1100 -
b10000 '
bx *
b10011 &
b10100 $
#12
0#
#13
1#
b11000 $
b10011 (
b1010 2
b1010 .
bx 0
b11010 3
b11100 %
b1010 7
b1100 ;
b1010 4
b10000 -
b0 +
08
b0 *
b10100 '
#14
0#
#15
1#
b11000 '
b11010 ;
b0 2
09
b11100 $
bx <
b1010 >
b0 7
b0 0
b0 .
b100000 %
b10100 3
b10100 -
b0 4
18
#16
0#
#17
1#
b100100 %
b100000 $
b10100 ;
b11100 '
19
b1010 C
b0 >
b0 <
b11000 3
b1010 B
b11000 -
#18
0#
#19
1#
b11100 -
b100000 '
b101000 %
b11000 ;
b100100 $
b0 C
b0 B
b111000000000011110010011 &
b11100 3
#20
0#
#21
1#
b100000 3
b101000 $
b101100 %
b111000000000011110010011 (
b100100 '
b100000 -
b11100 ;
b10011 &
bx *
b1110 +
#22
0#
#23
1#
b0 +
b100100 -
b10011 (
b110010 3
08
b110000 %
b101100 $
b1110 2
b101000 '
b1110 .
bx 0
b1110 7
b0 *
b100000 ;
b1110 4
#24
0#
#25
1#
b0 4
b0 0
b110100 %
b101000 -
b1110 >
18
b101000 3
b0 .
b110000 $
09
b101100 '
b0 2
b110010 ;
b0 7
bx <
#26
0#
#27
1#
b0 <
b110000 '
b0 >
b101100 -
b111000 %
19
b101100 3
b110100 $
b101000 ;
b1111 C
b1110 B
#28
0#
#29
1#
b0 B
b110000 3
b110100 '
b110000 -
b111100 %
b0 C
b111000 $
b101100 ;
b1000000101001111000010110110011 &
#30
0#
#31
1#
b10011 &
b110100 -
b1000000101001111000010110110011 (
b111000 '
b110100 3
b110000 ;
b1000000 %
0,
b1010 *
b111100 $
b1110 )
#32
0#
#33
1#
b0 )
b111100 '
b1010 0
b1010 4
05
b10011 (
b10 6
08
b111000 -
b1110 1
b1000000 $
b1000100 %
b111000 3
b110100 ;
b100 7
b1010 2
b0 *
1,
b1110 /
#34
0#
#35
1#
b0 /
b111100 -
b0 0
b100 >
b1000000 '
b1010 <
18
15
09
b0 4
b0 6
b111000 ;
b0 1
b111100 3
b1000100 $
b1001000 %
b0 2
b0 7
#36
0#
#37
1#
b0 >
b1000000 -
b100 B
19
b1000100 '
b0 <
b1000000 3
b111100 ;
b1001100 %
b1001000 $
b1011 C
#38
0#
#39
1#
b0 C
b1001000 '
b101101010100011000110011 &
b0 B
b1000100 -
b1001100 $
b1010000 %
b1000100 3
b1000000 ;
#40
0#
#41
1#
b1000100 ;
b1010 )
b10011 &
b1001100 '
b101101010100011000110011 (
b1001000 3
0,
b1010100 %
b1001000 -
b100 *
b1010000 $
#42
0#
#43
1#
b1010100 $
b1010000 '
b100 4
b1110 7
b1010 /
b100 0
b1001000 ;
08
b0 )
05
b0 *
b10011 (
b100 2
b10 6
b1010 1
b1001100 -
1,
b1001100 3
b1011000 %
#44
0#
#45
1#
b1011100 %
b0 7
b1010100 '
b1011000 $
b0 4
b1110 >
18
b0 /
09
b1001100 ;
b0 0
b1010000 3
b0 2
b100 <
15
b0 1
b0 6
b1010000 -
#46
0#
#47
1#
b1010100 -
b1010000 ;
b1011100 $
b1110 B
b1100000 %
b1011000 '
b1100 C
19
b0 >
b1010100 3
b0 <
#48
0#
#49
1#
b1100100 %
b1010100 ;
b1011000 -
b0 B
b1100000 $
b0 C
b1011100 '
b1000000101001011000011010110011 &
b1011000 3
#50
0#
#51
1#
b1011100 3
b1100000 '
b1011100 -
b100 )
b1011000 ;
b1101000 %
b1100100 $
b10011 &
b1000000101001011000011010110011 (
b1010 *
0,
#52
0#
#53
1#
1,
b1101100 %
b0 )
b1100000 3
b1100000 -
b1100100 '
b11111111111111111111111111111010 7
b1011100 ;
b1010 4
b100 /
08
b0 *
b1010 0
b1101000 $
b1010 2
b10 6
b10011 (
b100 1
05
#54
0#
#55
1#
15
b0 /
b1100100 -
09
b1010 <
b1100100 3
b1110000 %
b0 4
b1101000 '
b1100000 ;
b0 7
b0 1
b1101100 $
b0 0
18
b0 2
b11111111111111111111111111111010 >
b0 6
#56
0#
#57
1#
b1100100 ;
b0 <
19
b1101000 -
b1101100 '
b1101000 3
b11111111111111111111111111111010 B
b1101 C
b1110100 %
b0 >
b1110000 $
#58
0#
#59
1#
b1110100 $
b0 C
b1101000 ;
b0 B
b1110000 '
b1101100 -
b1101100 3
b1111000 %
b110101011110011100110011 &
#60
0#
#61
1#
b10011 &
b1110000 -
0,
b1111000 $
b100 )
b1110100 '
b1101100 ;
b1111100 %
b1110000 3
b11111111111111111111111111111010 *
b110101011110011100110011 (
#62
0#
#63
1#
b10011 (
b1111000 '
1,
b100 /
b10 6
05
b1110100 -
b0 )
b1111100 $
b11111111111111111111111111111010 4
b0 *
b10000000 %
b1110000 ;
b11111111111111111111111111111110 7
b100 1
b1110100 3
b11111111111111111111111111111010 2
b11111111111111111111111111111010 0
08
#64
0#
#65
1#
18
b10000000 $
b0 6
b1111100 '
b0 /
b11111111111111111111111111111010 <
15
09
b1111000 -
b0 0
b1110100 ;
b11111111111111111111111111111110 >
b10000100 %
b0 4
b0 2
b0 1
b0 7
b1111000 3
#66
0#
#67
1#
b1111100 3
19
b10000000 '
b10000100 $
b1110 C
b0 <
b11111111111111111111111111111110 B
b0 >
b1111100 -
b1111000 ;
b10001000 %
#68
0#
#69
1#
b10001100 %
b10000000 3
b110101010111011110110011 &
b0 C
b10001000 $
b10000100 '
b1111100 ;
b0 B
b10000000 -
#70
0#
#71
1#
b10000100 -
b10001100 $
0,
b110101010111011110110011 (
b10010000 %
b1010 )
b10011 &
b10000100 3
b10001000 '
b11111111111111111111111111111010 *
b10000000 ;
#72
0#
#73
1#
b10000100 ;
1,
b10001000 -
08
b10010000 $
b10 6
b0 )
05
b1010 /
b10010100 %
b10011 (
b0 *
b10001000 3
b1010 7
b11111111111111111111111111111010 0
b10001100 '
b1010 1
b11111111111111111111111111111010 4
b11111111111111111111111111111010 2
#74
0#
#75
1#
b0 2
b10011000 %
18
09
b10001000 ;
b10001100 -
b11111111111111111111111111111010 <
b0 /
b0 6
b10010100 $
15
b0 4
b10001100 3
b1010 >
b0 1
b0 0
b0 7
b10010000 '
#76
0#
#77
1#
b10010100 '
b10011000 $
b10001100 ;
b10011100 %
19
b0 <
b1111 C
b10010000 -
b1010 B
b0 >
b10010000 3
#78
0#
#79
1#
b10010100 3
b0 C
b10010000 ;
b10011000 '
b1000000110101110000100000110011 &
b10011100 $
b10100000 %
b0 B
b10010100 -
#80
0#
#81
1#
b10011000 -
b10100000 $
b10011100 '
b10011000 3
b10010100 ;
0,
b10011 &
b11111111111111111111111111111110 )
b1000000110101110000100000110011 (
b11111111111111111111111111111010 *
b10100100 %
#82
0#
#83
1#
b10101000 %
b10011100 3
b10011100 -
b11111111111111111111111111111010 2
b10100000 '
b10100100 $
08
1,
b10 6
b10011000 ;
b11111111111111111111111111111110 /
b0 *
b0 )
b100 7
05
b11111111111111111111111111111010 4
b10011 (
b11111111111111111111111111111010 0
b11111111111111111111111111111110 1
#84
0#
#85
1#
b0 1
b10011100 ;
b10100100 '
b10101100 %
b0 2
b10100000 3
b10100000 -
b0 6
b10101000 $
b11111111111111111111111111111010 <
09
18
b0 0
b0 7
b0 /
15
b100 >
b0 4
#86
0#
#87
1#
19
b10000 C
b10110000 %
b10100000 ;
b10101000 '
b0 <
b10100100 3
b10100100 -
b10101100 $
b0 >
b100 B
#88
0#
#89
1#
b0 B
b10101000 -
bx &
b10110100 %
b0 C
b10101000 3
b10101100 '
b10100100 ;
b10110000 $
#90
0#
#91
1#
b10110100 $
b10110000 '
b10101100 -
b10101100 3
b10111000 %
0,
b10101000 ;
bx )
bx *
bx (
#92
0#
#93
1#
b10111100 %
bx 2
bx 4
bx 1
b10111000 $
b10110000 3
b10110100 '
b10110000 -
b10101100 ;
x8
bx 0
05
bx 7
bx /
#94
0#
#95
1#
b10111000 '
b11000000 %
x9
b10110100 3
b10111100 $
bx <
b10110000 ;
b10110100 -
bx >
#96
0#
#97
1#
b11000000 $
b10111100 '
bx B
b10111000 3
0E
bx C
b11000100 %
b10111000 -
b10110100 ;
#98
0#
#99
1#
b10111000 ;
b11000100 $
b11000000 '
b10111100 3
b10111100 -
b11001000 %
#100
0#
#101
1#
b11001100 %
b11000100 '
b11001000 $
b10111100 ;
b11000000 -
b11000000 3
#102
0#
#103
1#
b11000100 3
b11001100 $
b11001000 '
b11010000 %
b11000100 -
b11000000 ;
#104
0#
#105
1#
b11000100 ;
b11001100 '
b11010000 $
b11001000 3
b11001000 -
b11010100 %
#106
0#
#107
1#
b11011000 %
b11010100 $
b11010000 '
b11001000 ;
b11001100 -
b11001100 3
#108
0#
#109
1#
b11010000 3
b11010100 '
b11011000 $
b11011100 %
b11010000 -
b11001100 ;
#110
0#
#111
1#
b11010000 ;
b11011100 $
b11011000 '
b11010100 3
b11010100 -
b11100000 %
#112
0#
#113
1#
b11100100 %
b11011100 '
b11100000 $
b11010100 ;
b11011000 -
b11011000 3
#114
0#
#115
1#
b11011100 3
b11100100 $
b11100000 '
b11101000 %
b11011100 -
b11011000 ;
#116
0#
#117
1#
b11011100 ;
b11100100 '
b11101000 $
b11100000 3
b11100000 -
b11101100 %
#118
0#
#119
1#
b11110000 %
b11101100 $
b11101000 '
b11100000 ;
b11100100 -
b11100100 3
#120
0#
#121
1#
b11101000 3
b11101100 '
b11110000 $
b11110100 %
b11101000 -
b11100100 ;
#122
0#
#123
1#
b11101000 ;
b11110100 $
b11110000 '
b11101100 3
b11101100 -
b11111000 %
#124
0#
#125
1#
b11111100 %
b11110100 '
b11111000 $
b11101100 ;
b11110000 -
b11110000 3
#126
0#
#127
1#
b11110100 3
b11111100 $
b11111000 '
b100000000 %
b11110100 -
b11110000 ;
#128
0#
#129
1#
b11110100 ;
b11111100 '
b100000000 $
b11111000 3
b11111000 -
b100000100 %
#130
0#
#131
1#
b100001000 %
b100000100 $
b100000000 '
b11111000 ;
b11111100 -
b11111100 3
#132
0#
#133
1#
b100000000 3
b100000100 '
b100001000 $
b100001100 %
b100000000 -
b11111100 ;
#134
0#
#135
1#
b100000000 ;
b100001100 $
b100001000 '
b100000100 3
b100000100 -
b100010000 %
#136
0#
#137
1#
b100010100 %
b100001100 '
b100010000 $
b100000100 ;
b100001000 -
b100001000 3
#138
0#
#139
1#
b100001100 3
b100010100 $
b100010000 '
b100011000 %
b100001100 -
b100001000 ;
#140
0#
#141
1#
b100001100 ;
b100010100 '
b100011000 $
b100010000 3
b100010000 -
b100011100 %
#142
0#
#143
1#
b100100000 %
b100011100 $
b100011000 '
b100010000 ;
b100010100 -
b100010100 3
#144
0#
#145
1#
b100011000 3
b100011100 '
b100100000 $
b100100100 %
b100011000 -
b100010100 ;
#146
0#
#147
1#
b100011000 ;
b100100100 $
b100100000 '
b100011100 3
b100011100 -
b100101000 %
#148
0#
#149
1#
b100101100 %
b100100100 '
b100101000 $
b100011100 ;
b100100000 -
b100100000 3
#150
0#
#151
1#
b100100100 3
b100101100 $
b100101000 '
b100110000 %
b100100100 -
b100100000 ;
#152
0#
#153
1#
b100100100 ;
b100101100 '
b100110000 $
b100101000 3
b100101000 -
b100110100 %
