Khizar/vcd/riscv_pipeline.vcd
$date
	Fri Sep 22 18:58:09 2023
$end
$version
	Icarus Verilog
$end
$timescale
	1s
$end
$scope module riscv_tb $end
$var reg 1 ! clk $end
$var reg 1 " rst $end
$scope module core $end
$var wire 1 ! clk $end
$var wire 32 # four [31:0] $end
$var wire 1 $ overflow $end
$var wire 1 % pcsrc $end
$var wire 1 " rst $end
$var wire 1 & zero_ex $end
$var wire 1 ' zero $end
$var wire 32 ( writedata [31:0] $end
$var wire 32 ) sumB_in2 [31:0] $end
$var wire 32 * sumB_ex [31:0] $end
$var wire 32 + sumB [31:0] $end
$var wire 32 , sumA [31:0] $end
$var wire 1 - signal_pc_new $end
$var wire 5 . rs2_id [4:0] $end
$var wire 5 / rs1_id [4:0] $end
$var wire 1 0 regwrite_wb $end
$var wire 1 1 regwrite_id $end
$var wire 1 2 regwrite_ex $end
$var wire 1 3 regwrite_cn $end
$var wire 1 4 regwrite $end
$var wire 32 5 readdata_wb [31:0] $end
$var wire 32 6 readdata [31:0] $end
$var wire 5 7 rd_wb [4:0] $end
$var wire 5 8 rd_id [4:0] $end
$var wire 5 9 rd_ex [4:0] $end
$var wire 32 : pc_if [31:0] $end
$var wire 32 ; pc_id [31:0] $end
$var wire 32 < pc [31:0] $end
$var wire 7 = opcode_id [6:0] $end
$var wire 32 > newpc [31:0] $end
$var wire 1 ? memwrite_id $end
$var wire 1 @ memwrite_ex $end
$var wire 1 A memwrite_cn $end
$var wire 1 B memwrite $end
$var wire 1 C memtoreg_wb $end
$var wire 1 D memtoreg_id $end
$var wire 1 E memtoreg_ex $end
$var wire 1 F memtoreg $end
$var wire 1 G memread_id $end
$var wire 1 H memread_ex $end
$var wire 1 I memread $end
$var wire 1 J jump_id $end
$var wire 1 K jump_ex $end
$var wire 1 L jump $end
$var wire 32 M ins_if [31:0] $end
$var wire 32 N ins [31:0] $end
$var wire 32 O immediate_id [31:0] $end
$var wire 32 P immediate [31:0] $end
$var wire 1 Q func7_id $end
$var wire 3 R func3_id [2:0] $end
$var wire 3 S func3_ex [2:0] $end
$var wire 2 T forwardB [1:0] $end
$var wire 2 U forwardA [1:0] $end
$var wire 1 V enable_pc $end
$var wire 1 W enable_if $end
$var wire 1 X enable_control $end
$var wire 1 Y branch_id $end
$var wire 1 Z branch_ex $end
$var wire 1 [ branch $end
$var wire 32 \ b_id [31:0] $end
$var wire 32 ] b_ex [31:0] $end
$var wire 32 ^ b [31:0] $end
$var wire 1 _ alusrc_id $end
$var wire 1 ` alusrc $end
$var wire 32 a alures_wb [31:0] $end
$var wire 32 b alures_ex [31:0] $end
$var wire 32 c alures [31:0] $end
$var wire 2 d aluop_id [1:0] $end
$var wire 2 e aluop [1:0] $end
$var wire 4 f aluctl [3:0] $end
$var wire 32 g alu_in2_enhanced [31:0] $end
$var wire 32 h alu_in2 [31:0] $end
$var wire 32 i alu_in1_enhanced [31:0] $end
$var wire 32 j alu_in1 [31:0] $end
$var wire 32 k alu_2_bef [31:0] $end
$var wire 32 l a_id [31:0] $end
$var wire 32 m a [31:0] $end
$scope module adder $end
$var wire 32 n in2 [31:0] $end
$var wire 32 o out [31:0] $end
$var wire 32 p in1 [31:0] $end
$upscope $end
$scope module adder2 $end
$var wire 32 q out [31:0] $end
$var wire 32 r in2 [31:0] $end
$var wire 32 s in1 [31:0] $end
$upscope $end
$scope module alu $end
$var wire 1 $ overflow $end
$var wire 1 ' zero $end
$var wire 32 t b [31:0] $end
$var wire 4 u aluctl [3:0] $end
$var wire 32 v a [31:0] $end
$var reg 32 w out [31:0] $end
$upscope $end
$scope module alucon $end
$var wire 1 J jump $end
$var wire 1 Q func7 $end
$var wire 3 x func3 [2:0] $end
$var wire 2 y aluop [1:0] $end
$var reg 4 z aluctl [3:0] $end
$upscope $end
$scope module datamem $end
$var wire 1 ! clk $end
$var wire 32 { writedata [31:0] $end
$var wire 32 | readdata [31:0] $end
$var wire 1 @ memwrite $end
$var wire 1 H memread $end
$var wire 3 } func3_ex [2:0] $end
$var wire 32 ~ address [31:0] $end
$upscope $end
$scope module ex1 $end
$var wire 32 !" alures [31:0] $end
$var wire 1 ! clk $end
$var wire 1 % pcsrc $end
$var wire 32 "" sumB [31:0] $end
$var wire 1 ' zero $end
$var wire 1 1 regwrite_id $end
$var wire 5 #" rd_id [4:0] $end
$var wire 1 ? memwrite_id $end
$var wire 1 D memtoreg_id $end
$var wire 1 G memread_id $end
$var wire 1 J jump_id $end
$var wire 3 $" func3_id [2:0] $end
$var wire 1 Y branch_id $end
$var wire 32 %" b_id [31:0] $end
$var reg 32 &" alures_ex [31:0] $end
$var reg 32 '" b_ex [31:0] $end
$var reg 1 Z branch_ex $end
$var reg 3 (" func3_ex [2:0] $end
$var reg 1 K jump_ex $end
$var reg 1 H memread_ex $end
$var reg 1 E memtoreg_ex $end
$var reg 1 @ memwrite_ex $end
$var reg 5 )" rd_ex [4:0] $end
$var reg 1 2 regwrite_ex $end
$var reg 32 *" sumB_ex [31:0] $end
$var reg 1 & zero_ex $end
$upscope $end
$scope module fwdAmux $end
$var wire 32 +" in2 [31:0] $end
$var wire 2 ," s [1:0] $end
$var wire 32 -" out [31:0] $end
$var wire 32 ." in3 [31:0] $end
$var wire 32 /" in1 [31:0] $end
$upscope $end
$scope module fwdBmux $end
$var wire 32 0" in2 [31:0] $end
$var wire 2 1" s [1:0] $end
$var wire 32 2" out [31:0] $end
$var wire 32 3" in3 [31:0] $end
$var wire 32 4" in1 [31:0] $end
$upscope $end
$scope module fwdunit $end
$var wire 5 5" rd_ex [4:0] $end
$var wire 1 2 regwrite_ex $end
$var wire 5 6" rs2_id [4:0] $end
$var wire 5 7" rs1_id [4:0] $end
$var wire 1 0 regwrite_wb $end
$var wire 5 8" rd_wb [4:0] $end
$var reg 2 9" forwardA [1:0] $end
$var reg 2 :" forwardB [1:0] $end
$upscope $end
$scope module hdetect $end
$var wire 5 ;" rs1_if [4:0] $end
$var wire 5 <" rs2_if [4:0] $end
$var wire 5 =" rd_id [4:0] $end
$var wire 1 G memread_id $end
$var reg 1 X enable_control $end
$var reg 1 W enable_if $end
$var reg 1 V enable_pc $end
$upscope $end
$scope module id1 $end
$var wire 1 ! clk $end
$var wire 3 >" func3 [2:0] $end
$var wire 1 ?" func7 $end
$var wire 7 @" opcode_if [6:0] $end
$var wire 1 % pcsrc $end
$var wire 5 A" rd [4:0] $end
$var wire 5 B" rs1_if [4:0] $end
$var wire 5 C" rs2_if [4:0] $end
$var wire 1 3 regwrite_if $end
$var wire 32 D" pc_if [31:0] $end
$var wire 1 A memwrite_if $end
$var wire 1 F memtoreg_if $end
$var wire 1 I memread_if $end
$var wire 1 L jump $end
$var wire 32 E" immediate [31:0] $end
$var wire 1 [ branch_if $end
$var wire 32 F" b [31:0] $end
$var wire 1 ` alusrc_if $end
$var wire 2 G" aluop_if [1:0] $end
$var wire 32 H" a [31:0] $end
$var reg 32 I" a_id [31:0] $end
$var reg 2 J" aluop_id [1:0] $end
$var reg 1 _ alusrc_id $end
$var reg 32 K" b_id [31:0] $end
$var reg 1 Y branch_id $end
$var reg 3 L" func3_id [2:0] $end
$var reg 1 Q func7_id $end
$var reg 32 M" immediate_id [31:0] $end
$var reg 1 J jump_id $end
$var reg 1 G memread_id $end
$var reg 1 D memtoreg_id $end
$var reg 1 ? memwrite_id $end
$var reg 7 N" opcode_id [6:0] $end
$var reg 32 O" pc_id [31:0] $end
$var reg 5 P" rd_id [4:0] $end
$var reg 1 1 regwrite_id $end
$var reg 5 Q" rs1_id [4:0] $end
$var reg 5 R" rs2_id [4:0] $end
$upscope $end
$scope module if1 $end
$var wire 1 ! clk $end
$var wire 1 W enable_if $end
$var wire 1 % pcsrc $end
$var wire 32 S" pc [31:0] $end
$var wire 32 T" ins [31:0] $end
$var reg 32 U" ins_if [31:0] $end
$var reg 32 V" pc_if [31:0] $end
$upscope $end
$scope module immgen $end
$var wire 32 W" instruction [31:0] $end
$var parameter 7 X" I $end
$var parameter 7 Y" I_LD $end
$var parameter 7 Z" J $end
$var parameter 7 [" S $end
$var parameter 7 \" SB $end
$var reg 32 ]" result [31:0] $end
$upscope $end
$scope module insmem $end
$var wire 32 ^" pc [31:0] $end
$var wire 32 _" instruction [31:0] $end
$upscope $end
$scope module maincon $end
$var wire 1 `" enable_hazard_control $end
$var wire 7 a" opcode [6:0] $end
$var parameter 7 b" I $end
$var parameter 7 c" I_LD $end
$var parameter 7 d" J $end
$var parameter 7 e" JR $end
$var parameter 7 f" R $end
$var parameter 7 g" S $end
$var parameter 7 h" SB $end
$var reg 2 i" aluop [1:0] $end
$var reg 1 ` alusrc $end
$var reg 1 [ branch $end
$var reg 1 L jump $end
$var reg 1 I memread $end
$var reg 1 F memtoreg $end
$var reg 1 B memwrite $end
$var reg 1 4 regwrite $end
$upscope $end
$scope module mux1 $end
$var wire 32 j" in1 [31:0] $end
$var wire 32 k" in2 [31:0] $end
$var wire 1 % s $end
$var wire 32 l" out [31:0] $end
$upscope $end
$scope module mux3 $end
$var wire 1 C s $end
$var wire 32 m" out [31:0] $end
$var wire 32 n" in2 [31:0] $end
$var wire 32 o" in1 [31:0] $end
$upscope $end
$scope module mux4 $end
$var wire 1 p" in1 $end
$var wire 1 4 in2 $end
$var wire 1 X s $end
$var wire 1 3 out $end
$upscope $end
$scope module mux5 $end
$var wire 1 q" in1 $end
$var wire 1 B in2 $end
$var wire 1 X s $end
$var wire 1 A out $end
$upscope $end
$scope module mux6 $end
$var wire 32 r" in1 [31:0] $end
$var wire 32 s" in2 [31:0] $end
$var wire 1 _ s $end
$var wire 32 t" out [31:0] $end
$upscope $end
$scope module mux7 $end
$var wire 32 u" in1 [31:0] $end
$var wire 32 v" in2 [31:0] $end
$var wire 1 J s $end
$var wire 32 w" out [31:0] $end
$upscope $end
$scope module mux8 $end
$var wire 32 x" in1 [31:0] $end
$var wire 32 y" in2 [31:0] $end
$var wire 1 J s $end
$var wire 32 z" out [31:0] $end
$upscope $end
$scope module mux9 $end
$var wire 32 {" in1 [31:0] $end
$var wire 32 |" in2 [31:0] $end
$var wire 1 - s $end
$var wire 32 }" out [31:0] $end
$upscope $end
$scope module pcmod $end
$var wire 1 ! clk $end
$var wire 1 V enable $end
$var wire 32 ~" in [31:0] $end
$var wire 1 " rst $end
$var reg 32 !# out [31:0] $end
$upscope $end
$scope module regfile $end
$var wire 1 ! clk $end
$var wire 5 "# rs1 [4:0] $end
$var wire 5 ## rs2 [4:0] $end
$var wire 32 $# writedata [31:0] $end
$var wire 1 %# x1 $end
$var wire 1 &# x2 $end
$var wire 1 0 regwrite $end
$var wire 32 '# readdata2 [31:0] $end
$var wire 32 (# readdata1 [31:0] $end
$var wire 5 )# rd [4:0] $end
$upscope $end
$scope module wb1 $end
$var wire 32 *# alures_ex [31:0] $end
$var wire 1 ! clk $end
$var wire 1 E memtoreg_ex $end
$var wire 5 +# rd_ex [4:0] $end
$var wire 32 ,# readdata [31:0] $end
$var wire 1 2 regwrite_ex $end
$var reg 32 -# alures_wb [31:0] $end
$var reg 1 C memtoreg_wb $end
$var reg 5 .# rd_wb [4:0] $end
$var reg 32 /# readdata_wb [31:0] $end
$var reg 1 0 regwrite_wb $end
$upscope $end
$upscope $end
$upscope $end
$enddefinitions $end
$comment Show the parameter values. $end
$dumpall
b1100011 h"
b100011 g"
b110011 f"
b1100111 e"
b1101111 d"
b11 c"
b10011 b"
b1100011 \"
b100011 ["
b1101111 Z"
b11 Y"
b10011 X"
$end
#0
$dumpvars
b0 /#
b0 .#
b0 -#
b0 ,#
b0 +#
b0 *#
b0 )#
b0 (#
b0 '#
0&#
0%#
b0 $#
b0 ##
b0 "#
bx !#
bx ~"
b0 }"
b0 |"
b0 {"
b0 z"
b100 y"
b0 x"
b0 w"
b0 v"
b0 u"
b0 t"
b0 s"
b0 r"
0q"
0p"
b0 o"
b0 n"
b0 m"
bx l"
b0 k"
bx j"
b0 i"
b0 a"
z`"
bx _"
bx ^"
b0 ]"
b0 W"
b0 V"
b0 U"
bx T"
bx S"
b0 R"
b0 Q"
b0 P"
b0 O"
b0 N"
b0 M"
b0 L"
b0 K"
b0 J"
b0 I"
b0 H"
b0 G"
b0 F"
b0 E"
b0 D"
b0 C"
b0 B"
b0 A"
b0 @"
0?"
b0 >"
b0 ="
b0 <"
b0 ;"
b0 :"
b0 9"
b0 8"
b0 7"
b0 6"
b0 5"
b0 4"
b0 3"
b0 2"
b0 1"
b0 0"
b0 /"
b0 ."
b0 -"
b0 ,"
b0 +"
b0 *"
b0 )"
b0 ("
b0 '"
b0 &"
b0 %"
b0 $"
b0 #"
b0 ""
b0 !"
b0 ~
b0 }
b0 |
b0 {
b10 z
b0 y
b0 x
b0 w
b0 v
b10 u
b0 t
b0 s
b0 r
b0 q
bx p
bx o
b100 n
b0 m
b0 l
b0 k
b0 j
b0 i
b0 h
b0 g
b10 f
b0 e
b0 d
b0 c
b0 b
b0 a
0`
0_
b0 ^
b0 ]
b0 \
0[
0Z
0Y
1X
1W
1V
b0 U
b0 T
b0 S
b0 R
0Q
b0 P
b0 O
bx N
b0 M
0L
0K
0J
0I
0H
0G
0F
0E
0D
0C
0B
0A
0@
0?
bx >
b0 =
bx <
b0 ;
b0 :
b0 9
b0 8
b0 7
b0 6
b0 5
04
03
02
01
00
b0 /
b0 .
0-
bx ,
b0 +
b0 *
b0 )
b0 (
1'
0&
0%
z$
b100 #
x"
0!
$end
#1
bx ^
bx F"
bx '#
bx m
bx H"
bx (#
b100 >
b100 l"
b100 ~"
bx C"
bx B"
bx @"
bx A"
bx >"
x?"
bx a"
bx ##
bx "#
bx <"
bx ;"
b10011 N
b10011 T"
b10011 _"
b100 ,
b100 o
b100 j"
b0 <
b0 p
b0 S"
b0 ^"
b0 !#
bx M
bx U"
bx W"
bx :
bx D"
bx V"
1&
1"
1!
#2
0!
#3
13
x'
bx c
bx w
bx !"
1`
14
bx g
bx t
bx z"
bx h
bx t"
bx x"
bx i
bx v
bx w"
bx k
bx %"
bx 2"
bx r"
bx j
bx -"
bx u"
b0 ^
b0 F"
b0 '#
b0 m
b0 H"
b0 (#
bx +
bx q
bx ""
bx )
bx r
bx }"
b0 C"
b0 B"
b10011 @"
b0 A"
b0 >"
0?"
b10011 a"
b0 ##
b0 "#
b0 <"
b0 ;"
b1000 >
b1000 l"
b1000 ~"
x-
bx =
bx N"
bx .
bx 6"
bx R"
bx /
bx 7"
bx Q"
xQ
bx R
bx x
bx $"
bx L"
bx 8
bx #"
bx ="
bx P"
bx \
bx 4"
bx K"
bx l
bx /"
bx I"
bx |"
bx ;
bx O"
bx v"
bx {"
b10011 M
b10011 U"
b10011 W"
b0 :
b0 D"
b0 V"
b1000 ,
b1000 o
b1000 j"
b100 <
b100 p
b100 S"
b100 ^"
b100 !#
1!
0"
#4
0!
#5
1'
b0 c
b0 w
b0 !"
b0 i
b0 v
b0 w"
b0 k
b0 %"
b0 2"
b0 r"
b0 j
b0 -"
b0 u"
b0 g
b0 t
b0 z"
b1100 >
b1100 l"
b1100 ~"
b0 +
b0 q
b0 ""
b0 )
b0 r
b0 }"
b0 h
b0 t"
b0 x"
b1100 ,
b1100 o
b1100 j"
b1000 <
b1000 p
b1000 S"
b1000 ^"
b1000 !#
b100 :
b100 D"
b100 V"
0-
b10011 =
b10011 N"
b0 .
b0 6"
b0 R"
b0 /
b0 7"
b0 Q"
11
0Q
b0 R
b0 x
b0 $"
b0 L"
b0 8
b0 #"
b0 ="
b0 P"
b0 \
b0 4"
b0 K"
b0 l
b0 /"
b0 I"
b0 |"
b0 ;
b0 O"
b0 v"
b0 {"
1_
bx S
bx }
bx ("
bx 9
bx )"
bx 5"
bx +#
bx ]
bx {
bx '"
bx b
bx ~
bx &"
bx +"
bx 0"
bx *#
bx *
bx *"
bx k"
x&
1!
#6
0!
#7
bx (
bx ."
bx 3"
bx m"
bx $#
b100 +
b100 q
b100 ""
b100 )
b100 r
b100 }"
b10000 >
b10000 l"
b10000 ~"
bx 7
bx 8"
bx )#
bx .#
bx a
bx o"
bx -#
b0 S
b0 }
b0 ("
12
b0 9
b0 )"
b0 5"
b0 +#
b0 ]
b0 {
b0 '"
b0 b
b0 ~
b0 &"
b0 +"
b0 0"
b0 *#
b0 *
b0 *"
b0 k"
1&
b100 ;
b100 O"
b100 v"
b100 {"
b1000 :
b1000 D"
b1000 V"
b10000 ,
b10000 o
b10000 j"
b1100 <
b1100 p
b1100 S"
b1100 ^"
b1100 !#
1!
#8
0!
#9
b10100 >
b10100 l"
b10100 ~"
b1000 +
b1000 q
b1000 ""
b1000 )
b1000 r
b1000 }"
b0 (
b0 ."
b0 3"
b0 m"
b0 $#
b1111000000000011010010011 N
b1111000000000011010010011 T"
b1111000000000011010010011 _"
b10100 ,
b10100 o
b10100 j"
b10000 <
b10000 p
b10000 S"
b10000 ^"
b10000 !#
b1100 :
b1100 D"
b1100 V"
b1000 ;
b1000 O"
b1000 v"
b1000 {"
b100 *
b100 *"
b100 k"
10
b0 7
b0 8"
b0 )#
b0 .#
b0 a
b0 o"
b0 -#
1!
#10
0!
#11
b11110 P
b11110 E"
b11110 ]"
bx ^
bx F"
bx '#
b1100 +
b1100 q
b1100 ""
b1100 )
b1100 r
b1100 }"
b11110 C"
b1101 A"
b11110 ##
b11110 <"
b11000 >
b11000 l"
b11000 ~"
b1000 *
b1000 *"
b1000 k"
b1100 ;
b1100 O"
b1100 v"
b1100 {"
b1111000000000011010010011 M
b1111000000000011010010011 U"
b1111000000000011010010011 W"
b10000 :
b10000 D"
b10000 V"
b101000000000011000010011 N
b101000000000011000010011 T"
b101000000000011000010011 _"
b11000 ,
b11000 o
b11000 j"
b10100 <
b10100 p
b10100 S"
b10100 ^"
b10100 !#
1!
#12
0!
#13
0'
b11110 c
b11110 w
b11110 !"
b1010 P
b1010 E"
b1010 ]"
b11110 g
b11110 t
b11110 z"
bx k
bx %"
bx 2"
bx r"
b11100 >
b11100 l"
b11100 ~"
b1010 C"
b1100 A"
b1010 ##
b1010 <"
b11110 h
b11110 t"
b11110 x"
b10000 )
b10000 r
b10000 }"
b100000000010110010011 N
b100000000010110010011 T"
b100000000010110010011 _"
b11100 ,
b11100 o
b11100 j"
b11000 <
b11000 p
b11000 S"
b11000 ^"
b11000 !#
b101000000000011000010011 M
b101000000000011000010011 U"
b101000000000011000010011 W"
b10100 :
b10100 D"
b10100 V"
b11110 .
b11110 6"
b11110 R"
b1101 8
b1101 #"
b1101 ="
b1101 P"
b101110 +
b101110 q
b101110 ""
b11110 O
b11110 s
b11110 M"
b11110 s"
bx \
bx 4"
bx K"
b10000 ;
b10000 O"
b10000 v"
b10000 {"
b1100 *
b1100 *"
b1100 k"
1!
#14
0!
#15
b1010 c
b1010 w
b1010 !"
b1 P
b1 E"
b1 ]"
b1010 g
b1010 t
b1010 z"
b1010 h
b1010 t"
b1010 x"
b10100 )
b10100 r
b10100 }"
b1 C"
b1011 A"
b1 ##
b1 <"
b100000 >
b100000 l"
b100000 ~"
b1101 9
b1101 )"
b1101 5"
b1101 +#
bx ]
bx {
bx '"
b11110 b
b11110 ~
b11110 &"
b11110 +"
b11110 0"
b11110 *#
b101110 *
b101110 *"
b101110 k"
0&
b1010 .
b1010 6"
b1010 R"
b1100 8
b1100 #"
b1100 ="
b1100 P"
b11110 +
b11110 q
b11110 ""
b1010 O
b1010 s
b1010 M"
b1010 s"
b10100 ;
b10100 O"
b10100 v"
b10100 {"
b100000000010110010011 M
b100000000010110010011 U"
b100000000010110010011 W"
b11000 :
b11000 D"
b11000 V"
b1010000000000000011101111 N
b1010000000000000011101111 T"
b1010000000000000011101111 _"
b100000 ,
b100000 o
b100000 j"
b11100 <
b11100 p
b11100 S"
b11100 ^"
b11100 !#
1!
#16
0!
#17
b1 c
b1 w
b1 !"
b1 e
b1 G"
b1 i"
1L
b10100 P
b10100 E"
b10100 ]"
b1 g
b1 t
b1 z"
b100100 >
b100100 l"
b100100 ~"
b10100 C"
b1101111 @"
b1 A"
b1101111 a"
b10100 ##
b10100 <"
b1 h
b1 t"
b1 x"
b11000 )
b11000 r
b11000 }"
b11110 (
b11110 ."
b11110 3"
b11110 m"
b11110 $#
b111000000000011100010011 N
b111000000000011100010011 T"
b111000000000011100010011 _"
b100100 ,
b100100 o
b100100 j"
b100000 <
b100000 p
b100000 S"
b100000 ^"
b100000 !#
b1010000000000000011101111 M
b1010000000000000011101111 U"
b1010000000000000011101111 W"
b11100 :
b11100 D"
b11100 V"
b1 .
b1 6"
b1 R"
b1011 8
b1011 #"
b1011 ="
b1011 P"
b11001 +
b11001 q
b11001 ""
b1 O
b1 s
b1 M"
b1 s"
b11000 ;
b11000 O"
b11000 v"
b11000 {"
b1100 9
b1100 )"
b1100 5"
b1100 +#
b1010 b
b1010 ~
b1010 &"
b1010 +"
b1010 0"
b1010 *#
b11110 *
b11110 *"
b11110 k"
b1101 7
b1101 8"
b1101 )#
b1101 .#
b11110 a
b11110 o"
b11110 -#
1!
#18
0!
#19
b100000 c
b100000 w
b100000 !"
b0 e
b0 G"
b0 i"
0L
b1110 P
b1110 E"
b1110 ]"
b1010 (
b1010 ."
b1010 3"
b1010 m"
b1010 $#
b11100 i
b11100 v
b11100 w"
b100 g
b100 t
b100 z"
b10100 h
b10100 t"
b10100 x"
b11100 )
b11100 r
b11100 }"
b1110 C"
b10011 @"
b1110 A"
b10011 a"
b1110 ##
b1110 <"
b101000 >
b101000 l"
b101000 ~"
b1100 7
b1100 8"
b1100 )#
b1100 .#
b1010 a
b1010 o"
b1010 -#
b1011 9
b1011 )"
b1011 5"
b1011 +#
b1 b
b1 ~
b1 &"
b1 +"
b1 0"
b1 *#
b11001 *
b11001 *"
b11001 k"
b1101111 =
b1101111 N"
1J
b10100 .
b10100 6"
b10100 R"
b1 8
b1 #"
b1 ="
b1 P"
b110000 +
b110000 q
b110000 ""
b10100 O
b10100 s
b10100 M"
b10100 s"
b11100 ;
b11100 O"
b11100 v"
b11100 {"
b1 d
b1 y
b1 J"
b111000000000011100010011 M
b111000000000011100010011 U"
b111000000000011100010011 W"
b100000 :
b100000 D"
b100000 V"
b111100000000011110010011 N
b111100000000011110010011 T"
b111100000000011110010011 _"
b101000 ,
b101000 o
b101000 j"
b100100 <
b100100 p
b100100 S"
b100100 ^"
b100100 !#
1!
#20
0!
#21
b1110 c
b1110 w
b1110 !"
b1111 P
b1111 E"
b1111 ]"
b110000 >
b110000 l"
b110000 ~"
b1111 C"
b1111 A"
b1111 ##
b1111 <"
b1110 g
b1110 t
b1110 z"
b1110 h
b1110 t"
b1110 x"
b0 i
b0 v
b0 w"
b100000 )
b100000 r
b100000 }"
1%
b1 (
b1 ."
b1 3"
b1 m"
b1 $#
b1000000000000100000010011 N
b1000000000000100000010011 T"
b1000000000000100000010011 _"
b101100 ,
b101100 o
b101100 j"
b101000 <
b101000 p
b101000 S"
b101000 ^"
b101000 !#
b111100000000011110010011 M
b111100000000011110010011 U"
b111100000000011110010011 W"
b100100 :
b100100 D"
b100100 V"
b10011 =
b10011 N"
0J
b1110 .
b1110 6"
b1110 R"
b1110 8
b1110 #"
b1110 ="
b1110 P"
b101110 +
b101110 q
b101110 ""
b1110 O
b1110 s
b1110 M"
b1110 s"
b100000 ;
b100000 O"
b100000 v"
b100000 {"
b0 d
b0 y
b0 J"
1K
b1 9
b1 )"
b1 5"
b1 +#
b100000 b
b100000 ~
b100000 &"
b100000 +"
b100000 0"
b100000 *#
b110000 *
b110000 *"
b110000 k"
b1011 7
b1011 8"
b1011 )#
b1011 .#
b1 a
b1 o"
b1 -#
1!
#22
0!
#23
03
1'
b0 c
b0 w
b0 !"
0`
04
b0 P
b0 E"
b0 ]"
b0 k
b0 %"
b0 2"
b0 r"
b0 g
b0 t
b0 z"
b0 ^
b0 F"
b0 '#
b100000 (
b100000 ."
b100000 3"
b100000 m"
b100000 $#
0%
b110100 >
b110100 l"
b110100 ~"
b0 )
b0 r
b0 }"
b0 h
b0 t"
b0 x"
b0 C"
b0 @"
b0 A"
b0 a"
b0 ##
b0 <"
b1 7
b1 8"
b1 )#
b1 .#
b100000 a
b100000 o"
b100000 -#
0K
02
b0 9
b0 )"
b0 5"
b0 +#
b0 ]
b0 {
b0 '"
b0 b
b0 ~
b0 &"
b0 +"
b0 0"
b0 *#
b0 *
b0 *"
b0 k"
b0 =
b0 N"
b0 .
b0 6"
b0 R"
01
b0 8
b0 #"
b0 ="
b0 P"
b0 +
b0 q
b0 ""
b0 O
b0 s
b0 M"
b0 s"
b0 \
b0 4"
b0 K"
b0 ;
b0 O"
b0 v"
b0 {"
0_
b0 M
b0 U"
b0 W"
b0 :
b0 D"
b0 V"
b101011000010110010011 N
b101011000010110010011 T"
b101011000010110010011 _"
b110100 ,
b110100 o
b110100 j"
b110000 <
b110000 p
b110000 S"
b110000 ^"
b110000 !#
1!
#24
0!
#25
13
1`
14
b1 P
b1 E"
b1 ]"
b100000 ^
b100000 F"
b100000 '#
b1 m
b1 H"
b1 (#
b111000 >
b111000 l"
b111000 ~"
b1 C"
b1011 B"
b10011 @"
b1011 A"
b10011 a"
b1 ##
b1011 "#
b1 <"
b1011 ;"
b0 (
b0 ."
b0 3"
b0 m"
b0 $#
b11111110110001011001111011100011 N
b11111110110001011001111011100011 T"
b11111110110001011001111011100011 _"
b111000 ,
b111000 o
b111000 j"
b110100 <
b110100 p
b110100 S"
b110100 ^"
b110100 !#
b101011000010110010011 M
b101011000010110010011 U"
b101011000010110010011 W"
b110000 :
b110000 D"
b110000 V"
1&
00
b0 7
b0 8"
b0 )#
b0 .#
b0 a
b0 o"
b0 -#
1!
#26
0!
#27
03
0'
b10 c
b10 w
b10 !"
b1 e
b1 G"
b1 i"
0`
04
1[
b11111111111111111111111111111100 P
b11111111111111111111111111111100 E"
b11111111111111111111111111111100 ]"
b1 i
b1 v
b1 w"
b100000 k
b100000 %"
b100000 2"
b100000 r"
b1 j
b1 -"
b1 u"
b1 g
b1 t
b1 z"
b1010 ^
b1010 F"
b1010 '#
b110000 )
b110000 r
b110000 }"
b1 h
b1 t"
b1 x"
b1100 C"
b1100011 @"
b11101 A"
b1 >"
1?"
b1100011 a"
b1100 ##
b1100 <"
b111100 >
b111100 l"
b111100 ~"
b10011 =
b10011 N"
b1 .
b1 6"
b1 R"
b1011 /
b1011 7"
b1011 Q"
11
b1011 8
b1011 #"
b1011 ="
b1011 P"
b110001 +
b110001 q
b110001 ""
b1 O
b1 s
b1 M"
b1 s"
b100000 \
b100000 4"
b100000 K"
b1 l
b1 /"
b1 I"
b1 |"
b110000 ;
b110000 O"
b110000 v"
b110000 {"
1_
b11111110110001011001111011100011 M
b11111110110001011001111011100011 U"
b11111110110001011001111011100011 W"
b110100 :
b110100 D"
b110100 V"
b11111110100111111111000011101111 N
b11111110100111111111000011101111 T"
b11111110100111111111000011101111 _"
b111100 ,
b111100 o
b111100 j"
b111000 <
b111000 p
b111000 S"
b111000 ^"
b111000 !#
1!
#28
0!
#29
1'
b10 i
b10 v
b10 w"
b10 j
b10 -"
b10 u"
13
b0 c
b0 w
b0 !"
1`
14
0[
1L
b11111111111111111111111111101000 P
b11111111111111111111111111101000 E"
b11111111111111111111111111101000 ]"
b1000 f
b1000 u
b1000 z
b1 U
b1 ,"
b1 9"
bx ^
bx F"
bx '#
bx m
bx H"
bx (#
b1010 k
b1010 %"
b1010 2"
b1010 r"
b1010 g
b1010 t
b1010 z"
b1000000 >
b1000000 l"
b1000000 ~"
b1001 C"
b11111 B"
b1101111 @"
b1 A"
b111 >"
b1101111 a"
b1001 ##
b11111 "#
b1001 <"
b11111 ;"
b110100 )
b110100 r
b110100 }"
b1010 h
b1010 t"
b1010 x"
b101001100000011000010011 N
b101001100000011000010011 T"
b101001100000011000010011 _"
b1000000 ,
b1000000 o
b1000000 j"
b111100 <
b111100 p
b111100 S"
b111100 ^"
b111100 !#
b11111110100111111111000011101111 M
b11111110100111111111000011101111 U"
b11111110100111111111000011101111 W"
b111000 :
b111000 D"
b111000 V"
b1100011 =
b1100011 N"
b1100 .
b1100 6"
b1100 R"
01
1Q
b1 R
b1 x
b1 $"
b1 L"
b11101 8
b11101 #"
b11101 ="
b11101 P"
b110000 +
b110000 q
b110000 ""
b11111111111111111111111111111100 O
b11111111111111111111111111111100 s
b11111111111111111111111111111100 M"
b11111111111111111111111111111100 s"
b1010 \
b1010 4"
b1010 K"
b110100 ;
b110100 O"
b110100 v"
b110100 {"
b1 d
b1 y
b1 J"
0_
1Y
12
b1011 9
b1011 )"
b1011 5"
b1011 +#
b100000 ]
b100000 {
b100000 '"
b10 b
b10 ~
b10 &"
b10 +"
b10 0"
b10 *#
b110001 *
b110001 *"
b110001 k"
0&
1!
#30
0!
