Khizar/vcd/riscv_pipeline.vcd
$date
	Sat Sep 23 16:54:51 2023
$end
$version
	Icarus Verilog
$end
$timescale
	1s
$end
$scope module riscv_tb $end
$var reg 1 ! clk $end
$var reg 1 " rst $end
$scope module core $end
$var wire 1 ! clk $end
$var wire 32 # four [31:0] $end
$var wire 1 $ overflow $end
$var wire 1 % pcsrc $end
$var wire 1 " rst $end
$var wire 1 & zero_ex $end
$var wire 1 ' zero $end
$var wire 32 ( writedata [31:0] $end
$var wire 32 ) sumB_in2 [31:0] $end
$var wire 32 * sumB_ex [31:0] $end
$var wire 32 + sumB [31:0] $end
$var wire 32 , sumA [31:0] $end
$var wire 1 - signal_pc_new $end
$var wire 5 . rs2_id [4:0] $end
$var wire 5 / rs1_id [4:0] $end
$var wire 1 0 regwrite_wb $end
$var wire 1 1 regwrite_id $end
$var wire 1 2 regwrite_ex $end
$var wire 1 3 regwrite_cn $end
$var wire 1 4 regwrite $end
$var wire 32 5 readdata_wb [31:0] $end
$var wire 32 6 readdata [31:0] $end
$var wire 5 7 rd_wb [4:0] $end
$var wire 5 8 rd_id [4:0] $end
$var wire 5 9 rd_ex [4:0] $end
$var wire 32 : pc_if [31:0] $end
$var wire 32 ; pc_id [31:0] $end
$var wire 32 < pc [31:0] $end
$var wire 7 = opcode_id [6:0] $end
$var wire 32 > newpc [31:0] $end
$var wire 1 ? memwrite_id $end
$var wire 1 @ memwrite_ex $end
$var wire 1 A memwrite_cn $end
$var wire 1 B memwrite $end
$var wire 1 C memtoreg_wb $end
$var wire 1 D memtoreg_id $end
$var wire 1 E memtoreg_ex $end
$var wire 1 F memtoreg $end
$var wire 1 G memread_id $end
$var wire 1 H memread_ex $end
$var wire 1 I memread $end
$var wire 1 J jump_id $end
$var wire 1 K jump_ex $end
$var wire 1 L jump $end
$var wire 32 M ins_if [31:0] $end
$var wire 32 N ins [31:0] $end
$var wire 32 O immediate_id [31:0] $end
$var wire 32 P immediate [31:0] $end
$var wire 1 Q func7_id $end
$var wire 3 R func3_id [2:0] $end
$var wire 3 S func3_ex [2:0] $end
$var wire 2 T forwardB [1:0] $end
$var wire 2 U forwardA [1:0] $end
$var wire 1 V enable_pc $end
$var wire 1 W enable_if $end
$var wire 1 X enable_control $end
$var wire 1 Y branch_id $end
$var wire 1 Z branch_ex $end
$var wire 1 [ branch $end
$var wire 32 \ b_id [31:0] $end
$var wire 32 ] b_ex [31:0] $end
$var wire 32 ^ b [31:0] $end
$var wire 1 _ alusrc_id $end
$var wire 1 ` alusrc $end
$var wire 32 a alures_wb [31:0] $end
$var wire 32 b alures_ex [31:0] $end
$var wire 32 c alures [31:0] $end
$var wire 2 d aluop_id [1:0] $end
$var wire 2 e aluop [1:0] $end
$var wire 4 f aluctl [3:0] $end
$var wire 32 g alu_or_mem_ex [31:0] $end
$var wire 32 h alu_in2_enhanced [31:0] $end
$var wire 32 i alu_in2 [31:0] $end
$var wire 32 j alu_in1_enhanced [31:0] $end
$var wire 32 k alu_in1 [31:0] $end
$var wire 32 l alu_2_bef [31:0] $end
$var wire 32 m a_id [31:0] $end
$var wire 32 n a [31:0] $end
$scope module adder $end
$var wire 32 o in2 [31:0] $end
$var wire 32 p out [31:0] $end
$var wire 32 q in1 [31:0] $end
$upscope $end
$scope module adder2 $end
$var wire 32 r out [31:0] $end
$var wire 32 s in2 [31:0] $end
$var wire 32 t in1 [31:0] $end
$upscope $end
$scope module alu $end
$var wire 1 $ overflow $end
$var wire 1 ' zero $end
$var wire 32 u b [31:0] $end
$var wire 4 v aluctl [3:0] $end
$var wire 32 w a [31:0] $end
$var reg 32 x out [31:0] $end
$upscope $end
$scope module alucon $end
$var wire 1 J jump $end
$var wire 1 Q func7 $end
$var wire 3 y func3 [2:0] $end
$var wire 2 z aluop [1:0] $end
$var reg 4 { aluctl [3:0] $end
$upscope $end
$scope module datamem $end
$var wire 1 ! clk $end
$var wire 32 | writedata [31:0] $end
$var wire 32 } readdata [31:0] $end
$var wire 1 @ memwrite $end
$var wire 1 H memread $end
$var wire 3 ~ func3_ex [2:0] $end
$var wire 32 !" address [31:0] $end
$upscope $end
$scope module ex1 $end
$var wire 32 "" alures [31:0] $end
$var wire 1 ! clk $end
$var wire 1 % pcsrc $end
$var wire 32 #" sumB [31:0] $end
$var wire 1 ' zero $end
$var wire 1 1 regwrite_id $end
$var wire 5 $" rd_id [4:0] $end
$var wire 1 ? memwrite_id $end
$var wire 1 D memtoreg_id $end
$var wire 1 G memread_id $end
$var wire 1 J jump_id $end
$var wire 3 %" func3_id [2:0] $end
$var wire 1 Y branch_id $end
$var wire 32 &" b_id [31:0] $end
$var reg 32 '" alures_ex [31:0] $end
$var reg 32 (" b_ex [31:0] $end
$var reg 1 Z branch_ex $end
$var reg 3 )" func3_ex [2:0] $end
$var reg 1 K jump_ex $end
$var reg 1 H memread_ex $end
$var reg 1 E memtoreg_ex $end
$var reg 1 @ memwrite_ex $end
$var reg 5 *" rd_ex [4:0] $end
$var reg 1 2 regwrite_ex $end
$var reg 32 +" sumB_ex [31:0] $end
$var reg 1 & zero_ex $end
$upscope $end
$scope module fwdAmux $end
$var wire 2 ," s [1:0] $end
$var wire 32 -" out [31:0] $end
$var wire 32 ." in3 [31:0] $end
$var wire 32 /" in2 [31:0] $end
$var wire 32 0" in1 [31:0] $end
$upscope $end
$scope module fwdBmux $end
$var wire 2 1" s [1:0] $end
$var wire 32 2" out [31:0] $end
$var wire 32 3" in3 [31:0] $end
$var wire 32 4" in2 [31:0] $end
$var wire 32 5" in1 [31:0] $end
$upscope $end
$scope module fwdunit $end
$var wire 5 6" rd_ex [4:0] $end
$var wire 1 2 regwrite_ex $end
$var wire 5 7" rs2_id [4:0] $end
$var wire 5 8" rs1_id [4:0] $end
$var wire 1 0 regwrite_wb $end
$var wire 5 9" rd_wb [4:0] $end
$var reg 2 :" forwardA [1:0] $end
$var reg 2 ;" forwardB [1:0] $end
$upscope $end
$scope module hdetect $end
$var wire 1 K jump_ex $end
$var wire 5 <" rs1_if [4:0] $end
$var wire 5 =" rs2_if [4:0] $end
$var wire 5 >" rd_id [4:0] $end
$var wire 1 G memread_id $end
$var reg 1 X enable_control $end
$var reg 1 W enable_if $end
$var reg 1 V enable_pc $end
$upscope $end
$scope module id1 $end
$var wire 1 ! clk $end
$var wire 3 ?" func3 [2:0] $end
$var wire 1 @" func7 $end
$var wire 7 A" opcode_if [6:0] $end
$var wire 1 % pcsrc $end
$var wire 5 B" rd [4:0] $end
$var wire 5 C" rs1_if [4:0] $end
$var wire 5 D" rs2_if [4:0] $end
$var wire 1 3 regwrite_if $end
$var wire 32 E" pc_if [31:0] $end
$var wire 1 A memwrite_if $end
$var wire 1 F memtoreg_if $end
$var wire 1 I memread_if $end
$var wire 1 L jump $end
$var wire 32 F" immediate [31:0] $end
$var wire 1 [ branch_if $end
$var wire 32 G" b [31:0] $end
$var wire 1 ` alusrc_if $end
$var wire 2 H" aluop_if [1:0] $end
$var wire 32 I" a [31:0] $end
$var reg 32 J" a_id [31:0] $end
$var reg 2 K" aluop_id [1:0] $end
$var reg 1 _ alusrc_id $end
$var reg 32 L" b_id [31:0] $end
$var reg 1 Y branch_id $end
$var reg 3 M" func3_id [2:0] $end
$var reg 1 Q func7_id $end
$var reg 32 N" immediate_id [31:0] $end
$var reg 1 J jump_id $end
$var reg 1 G memread_id $end
$var reg 1 D memtoreg_id $end
$var reg 1 ? memwrite_id $end
$var reg 7 O" opcode_id [6:0] $end
$var reg 32 P" pc_id [31:0] $end
$var reg 5 Q" rd_id [4:0] $end
$var reg 1 1 regwrite_id $end
$var reg 5 R" rs1_id [4:0] $end
$var reg 5 S" rs2_id [4:0] $end
$upscope $end
$scope module if1 $end
$var wire 1 ! clk $end
$var wire 1 W enable_if $end
$var wire 1 % pcsrc $end
$var wire 32 T" pc [31:0] $end
$var wire 32 U" ins [31:0] $end
$var reg 32 V" ins_if [31:0] $end
$var reg 32 W" pc_if [31:0] $end
$upscope $end
$scope module immgen $end
$var wire 32 X" instruction [31:0] $end
$var parameter 7 Y" I $end
$var parameter 7 Z" I_LD $end
$var parameter 7 [" J $end
$var parameter 7 \" JR $end
$var parameter 7 ]" S $end
$var parameter 7 ^" SB $end
$var reg 32 _" result [31:0] $end
$upscope $end
$scope module insmem $end
$var wire 32 `" pc [31:0] $end
$var wire 32 a" instruction [31:0] $end
$upscope $end
$scope module maincon $end
$var wire 1 b" enable_hazard_control $end
$var wire 7 c" opcode [6:0] $end
$var parameter 7 d" I $end
$var parameter 7 e" I_LD $end
$var parameter 7 f" J $end
$var parameter 7 g" JR $end
$var parameter 7 h" R $end
$var parameter 7 i" S $end
$var parameter 7 j" SB $end
$var reg 2 k" aluop [1:0] $end
$var reg 1 ` alusrc $end
$var reg 1 [ branch $end
$var reg 1 L jump $end
$var reg 1 I memread $end
$var reg 1 F memtoreg $end
$var reg 1 B memwrite $end
$var reg 1 4 regwrite $end
$upscope $end
$scope module mux1 $end
$var wire 32 l" in1 [31:0] $end
$var wire 32 m" in2 [31:0] $end
$var wire 1 % s $end
$var wire 32 n" out [31:0] $end
$upscope $end
$scope module mux10 $end
$var wire 32 o" in1 [31:0] $end
$var wire 32 p" in2 [31:0] $end
$var wire 1 H s $end
$var wire 32 q" out [31:0] $end
$upscope $end
$scope module mux3 $end
$var wire 1 C s $end
$var wire 32 r" out [31:0] $end
$var wire 32 s" in2 [31:0] $end
$var wire 32 t" in1 [31:0] $end
$upscope $end
$scope module mux4 $end
$var wire 1 u" in1 $end
$var wire 1 4 in2 $end
$var wire 1 X s $end
$var wire 1 3 out $end
$upscope $end
$scope module mux5 $end
$var wire 1 v" in1 $end
$var wire 1 B in2 $end
$var wire 1 X s $end
$var wire 1 A out $end
$upscope $end
$scope module mux6 $end
$var wire 32 w" in1 [31:0] $end
$var wire 32 x" in2 [31:0] $end
$var wire 1 _ s $end
$var wire 32 y" out [31:0] $end
$upscope $end
$scope module mux7 $end
$var wire 32 z" in1 [31:0] $end
$var wire 32 {" in2 [31:0] $end
$var wire 1 J s $end
$var wire 32 |" out [31:0] $end
$upscope $end
$scope module mux8 $end
$var wire 32 }" in1 [31:0] $end
$var wire 32 ~" in2 [31:0] $end
$var wire 1 J s $end
$var wire 32 !# out [31:0] $end
$upscope $end
$scope module mux9 $end
$var wire 32 "# in1 [31:0] $end
$var wire 32 ## in2 [31:0] $end
$var wire 1 - s $end
$var wire 32 $# out [31:0] $end
$upscope $end
$scope module pcmod $end
$var wire 1 ! clk $end
$var wire 1 V enable $end
$var wire 32 %# in [31:0] $end
$var wire 1 " rst $end
$var reg 32 &# out [31:0] $end
$upscope $end
$scope module regfile $end
$var wire 1 ! clk $end
$var wire 5 '# rs1 [4:0] $end
$var wire 5 (# rs2 [4:0] $end
$var wire 32 )# writedata [31:0] $end
$var wire 1 *# x1 $end
$var wire 1 +# x2 $end
$var wire 1 0 regwrite $end
$var wire 32 ,# readdata2 [31:0] $end
$var wire 32 -# readdata1 [31:0] $end
$var wire 5 .# rd [4:0] $end
$upscope $end
$scope module wb1 $end
$var wire 32 /# alures_ex [31:0] $end
$var wire 1 ! clk $end
$var wire 1 E memtoreg_ex $end
$var wire 5 0# rd_ex [4:0] $end
$var wire 32 1# readdata [31:0] $end
$var wire 1 2 regwrite_ex $end
$var reg 32 2# alures_wb [31:0] $end
$var reg 1 C memtoreg_wb $end
$var reg 5 3# rd_wb [4:0] $end
$var reg 32 4# readdata_wb [31:0] $end
$var reg 1 0 regwrite_wb $end
$upscope $end
$upscope $end
$upscope $end
$enddefinitions $end
$comment Show the parameter values. $end
$dumpall
b1100011 j"
b100011 i"
b110011 h"
b1100111 g"
b1101111 f"
b11 e"
b10011 d"
b1100011 ^"
b100011 ]"
b1100111 \"
b1101111 ["
b11 Z"
b10011 Y"
$end
#0
$dumpvars
b0 4#
b0 3#
b0 2#
b0 1#
b0 0#
b0 /#
b0 .#
b0 -#
b0 ,#
0+#
0*#
b0 )#
b0 (#
b0 '#
bx &#
bx %#
b0 $#
b0 ##
b0 "#
b0 !#
b100 ~"
b0 }"
b0 |"
b0 {"
b0 z"
b0 y"
b0 x"
b0 w"
0v"
0u"
b0 t"
b0 s"
b0 r"
b0 q"
b0 p"
b0 o"
bx n"
b0 m"
bx l"
b0 k"
b0 c"
zb"
bx a"
bx `"
b0 _"
b0 X"
b0 W"
b0 V"
bx U"
bx T"
b0 S"
b0 R"
b0 Q"
b0 P"
b0 O"
b0 N"
b0 M"
b0 L"
b0 K"
b0 J"
b0 I"
b0 H"
b0 G"
b0 F"
b0 E"
b0 D"
b0 C"
b0 B"
b0 A"
0@"
b0 ?"
b0 >"
b0 ="
b0 <"
b0 ;"
b0 :"
b0 9"
b0 8"
b0 7"
b0 6"
b0 5"
b0 4"
b0 3"
b0 2"
b0 1"
b0 0"
b0 /"
b0 ."
b0 -"
b0 ,"
b0 +"
b0 *"
b0 )"
b0 ("
b0 '"
b0 &"
b0 %"
b0 $"
b0 #"
b0 ""
b0 !"
b0 ~
b0 }
b0 |
b10 {
b0 z
b0 y
b0 x
b0 w
b10 v
b0 u
b0 t
b0 s
b0 r
bx q
bx p
b100 o
b0 n
b0 m
b0 l
b0 k
b0 j
b0 i
b0 h
b0 g
b10 f
b0 e
b0 d
b0 c
b0 b
b0 a
0`
0_
b0 ^
b0 ]
b0 \
0[
0Z
0Y
1X
1W
1V
b0 U
b0 T
b0 S
b0 R
0Q
b0 P
b0 O
bx N
b0 M
0L
0K
0J
0I
0H
0G
0F
0E
0D
0C
0B
0A
0@
0?
bx >
b0 =
bx <
b0 ;
b0 :
b0 9
b0 8
b0 7
b0 6
b0 5
04
03
02
01
00
b0 /
b0 .
0-
bx ,
b0 +
b0 *
b0 )
b0 (
1'
0&
0%
z$
b100 #
x"
0!
$end
#1
bx ^
bx G"
bx ,#
bx n
bx I"
bx -#
b100 >
b100 n"
b100 %#
bx D"
bx C"
bx A"
bx B"
bx ?"
x@"
bx c"
bx (#
bx '#
bx ="
bx <"
b10000000000000000000110010011 N
b10000000000000000000110010011 U"
b10000000000000000000110010011 a"
b100 ,
b100 p
b100 l"
b0 <
b0 q
b0 T"
b0 `"
b0 &#
bx M
bx V"
bx X"
bx :
bx E"
bx W"
1&
1"
1!
#2
0!
#3
13
x'
bx c
bx x
bx ""
1`
14
b100000000 P
b100000000 F"
b100000000 _"
bx h
bx u
bx !#
bx i
bx y"
bx }"
bx j
bx w
bx |"
bx l
bx &"
bx 2"
bx w"
bx k
bx -"
bx z"
b0 ^
b0 G"
b0 ,#
b0 n
b0 I"
b0 -#
bx +
bx r
bx #"
bx )
bx s
bx $#
b0 D"
b0 C"
b10011 A"
b11 B"
b0 ?"
0@"
b10011 c"
b0 (#
b0 '#
b0 ="
b0 <"
b1000 >
b1000 n"
b1000 %#
x-
bx =
bx O"
bx .
bx 7"
bx S"
bx /
bx 8"
bx R"
xQ
bx R
bx y
bx %"
bx M"
bx 8
bx $"
bx >"
bx Q"
bx \
bx 5"
bx L"
bx m
bx 0"
bx J"
bx ##
bx ;
bx P"
bx {"
bx "#
b10000000000000000000110010011 M
b10000000000000000000110010011 V"
b10000000000000000000110010011 X"
b0 :
b0 E"
b0 W"
b1010000000000001000010011 N
b1010000000000001000010011 U"
b1010000000000001000010011 a"
b1000 ,
b1000 p
b1000 l"
b100 <
b100 q
b100 T"
b100 `"
b100 &#
1!
0"
#4
0!
#5
0'
b100000000 c
b100000000 x
b100000000 ""
b10100 P
b10100 F"
b10100 _"
b0 j
b0 w
b0 |"
bx ^
bx G"
bx ,#
b0 l
b0 &"
b0 2"
b0 w"
b0 k
b0 -"
b0 z"
b100000000 h
b100000000 u
b100000000 !#
b1100 >
b1100 n"
b1100 %#
b10100 D"
b100 B"
b10100 (#
b10100 ="
b100000000 +
b100000000 r
b100000000 #"
b0 )
b0 s
b0 $#
b100000000 i
b100000000 y"
b100000000 }"
bx g
bx /"
bx 4"
bx q"
b10010011 N
b10010011 U"
b10010011 a"
b1100 ,
b1100 p
b1100 l"
b1000 <
b1000 q
b1000 T"
b1000 `"
b1000 &#
b1010000000000001000010011 M
b1010000000000001000010011 V"
b1010000000000001000010011 X"
b100 :
b100 E"
b100 W"
0-
b10011 =
b10011 O"
b0 .
b0 7"
b0 S"
b0 /
b0 8"
b0 R"
11
0Q
b0 R
b0 y
b0 %"
b0 M"
b11 8
b11 $"
b11 >"
b11 Q"
b100000000 O
b100000000 t
b100000000 N"
b100000000 x"
b0 \
b0 5"
b0 L"
b0 m
b0 0"
b0 J"
b0 ##
b0 ;
b0 P"
b0 {"
b0 "#
1_
bx S
bx ~
bx )"
bx 9
bx *"
bx 6"
bx 0#
bx ]
bx |
bx ("
bx b
bx !"
bx '"
bx o"
bx /#
bx *
bx +"
bx m"
x&
1!
#6
0!
#7
b10100 c
b10100 x
b10100 ""
b0 P
b0 F"
b0 _"
b10100 h
b10100 u
b10100 !#
bx l
bx &"
bx 2"
bx w"
b0 ^
b0 G"
b0 ,#
bx (
bx ."
bx 3"
bx r"
bx )#
b100000000 g
b100000000 /"
b100000000 4"
b100000000 q"
b10100 i
b10100 y"
b10100 }"
b100 )
b100 s
b100 $#
b0 D"
b1 B"
b0 (#
b0 ="
b10000 >
b10000 n"
b10000 %#
bx 7
bx 9"
bx .#
bx 3#
bx a
bx t"
bx 2#
b0 S
b0 ~
b0 )"
12
b11 9
b11 *"
b11 6"
b11 0#
b0 ]
b0 |
b0 ("
b100000000 b
b100000000 !"
b100000000 '"
b100000000 o"
b100000000 /#
b100000000 *
b100000000 +"
b100000000 m"
0&
b10100 .
b10100 7"
b10100 S"
b100 8
b100 $"
b100 >"
b100 Q"
b11000 +
b11000 r
b11000 #"
b10100 O
b10100 t
b10100 N"
b10100 x"
bx \
bx 5"
bx L"
b100 ;
b100 P"
b100 {"
b100 "#
b10010011 M
b10010011 V"
b10010011 X"
b1000 :
b1000 E"
b1000 W"
b10000001000110001100011 N
b10000001000110001100011 U"
b10000001000110001100011 a"
b10000 ,
b10000 p
b10000 l"
b1100 <
b1100 q
b1100 T"
b1100 `"
b1100 &#
1!
#8
0!
#9
03
1'
b0 c
b0 x
b0 ""
b1 e
b1 H"
b1 k"
0`
04
1[
b11000 P
b11000 F"
b11000 _"
bx ^
bx G"
bx ,#
bx n
bx I"
bx -#
b0 h
b0 u
b0 !#
b0 l
b0 &"
b0 2"
b0 w"
b10100 >
b10100 n"
b10100 %#
b100 D"
b1 C"
b1100011 A"
b11000 B"
b1100011 c"
b100 (#
b1 '#
b100 ="
b1 <"
b0 i
b0 y"
b0 }"
b1000 )
b1000 s
b1000 $#
b10100 g
b10100 /"
b10100 4"
b10100 q"
b100000000 (
b100000000 ."
b100000000 3"
b100000000 r"
b100000000 )#
b1000001001000100010011 N
b1000001001000100010011 U"
b1000001001000100010011 a"
b10100 ,
b10100 p
b10100 l"
b10000 <
b10000 q
b10000 T"
b10000 `"
b10000 &#
b10000001000110001100011 M
b10000001000110001100011 V"
b10000001000110001100011 X"
b1100 :
b1100 E"
b1100 W"
b0 .
b0 7"
b0 S"
b1 8
b1 $"
b1 >"
b1 Q"
b1000 +
b1000 r
b1000 #"
b0 O
b0 t
b0 N"
b0 x"
b0 \
b0 5"
b0 L"
b1000 ;
b1000 P"
b1000 {"
b1000 "#
b100 9
b100 *"
b100 6"
b100 0#
bx ]
bx |
bx ("
b10100 b
b10100 !"
b10100 '"
b10100 o"
b10100 /#
b11000 *
b11000 +"
b11000 m"
10
b11 7
b11 9"
b11 .#
b11 3#
b100000000 a
b100000000 t"
b100000000 2#
1!
#10
0!
#11
13
0'
b11111111111111111111111111101100 c
b11111111111111111111111111101100 x
b11111111111111111111111111101100 ""
b0 e
b0 H"
b0 k"
1`
14
0[
b10 T
b10 1"
b10 ;"
b1 U
b1 ,"
b1 :"
b110 f
b110 v
b110 {
b10 P
b10 F"
b10 _"
b10100 h
b10100 u
b10100 !#
b10100 i
b10100 y"
b10100 }"
b0 j
b0 w
b0 |"
b10100 l
b10100 &"
b10100 2"
b10100 w"
b0 k
b0 -"
b0 z"
b10100 (
b10100 ."
b10100 3"
b10100 r"
b10100 )#
b0 g
b0 /"
b0 4"
b0 q"
b1100 )
b1100 s
b1100 $#
b10 D"
b10011 A"
b10 B"
b1 ?"
b10011 c"
b10 (#
b10 ="
b11000 >
b11000 n"
b11000 %#
b100 7
b100 9"
b100 .#
b100 3#
b10100 a
b10100 t"
b10100 2#
b1 9
b1 *"
b1 6"
b1 0#
b0 ]
b0 |
b0 ("
b0 b
b0 !"
b0 '"
b0 o"
b0 /#
b1000 *
b1000 +"
b1000 m"
1&
b1100011 =
b1100011 O"
b100 .
b100 7"
b100 S"
b1 /
b1 8"
b1 R"
01
b11000 8
b11000 $"
b11000 >"
b11000 Q"
b100100 +
b100100 r
b100100 #"
b11000 O
b11000 t
b11000 N"
b11000 x"
bx \
bx 5"
bx L"
bx m
bx 0"
bx J"
bx ##
b1100 ;
b1100 P"
b1100 {"
b1100 "#
b1 d
b1 z
b1 K"
0_
1Y
b1000001001000100010011 M
b1000001001000100010011 V"
b1000001001000100010011 X"
b10000 :
b10000 E"
b10000 W"
b1100010000000100110011 N
b1100010000000100110011 U"
b1100010000000100110011 a"
b11000 ,
b11000 p
b11000 l"
b10100 <
b10100 q
b10100 T"
b10100 `"
b10100 &#
1!
#12
0!
#13
1'
b0 c
b0 x
b0 ""
b10 e
b10 H"
b10 k"
0`
b0 P
b0 F"
b0 _"
b11 f
b11 v
b11 {
b0 T
b0 1"
b0 ;"
b10 U
b10 ,"
b10 :"
b0 j
b0 w
b0 |"
b0 k
b0 -"
b0 z"
bx n
bx I"
bx -#
bx l
bx &"
bx 2"
bx w"
b100000000 ^
b100000000 G"
b100000000 ,#
b10 h
b10 u
b10 !#
0*#
b11100 >
b11100 n"
b11100 %#
b11 D"
b10 C"
b110011 A"
b0 ?"
b110011 c"
b11 (#
b10 '#
b11 ="
b10 <"
b10000 )
b10000 s
b10000 $#
b10 i
b10 y"
b10 }"
b11111111111111111111111111101100 g
b11111111111111111111111111101100 /"
b11111111111111111111111111101100 4"
b11111111111111111111111111101100 q"
b0 (
b0 ."
b0 3"
b0 r"
b0 )#
b100010010000000100011 N
b100010010000000100011 U"
b100010010000000100011 a"
b11100 ,
b11100 p
b11100 l"
b11000 <
b11000 q
b11000 T"
b11000 `"
b11000 &#
b1100010000000100110011 M
b1100010000000100110011 V"
b1100010000000100110011 X"
b10100 :
b10100 E"
b10100 W"
b10011 =
b10011 O"
b10 .
b10 7"
b10 S"
11
b1 R
b1 y
b1 %"
b1 M"
b10 8
b10 $"
b10 >"
b10 Q"
b10010 +
b10010 r
b10010 #"
b10 O
b10 t
b10 N"
b10 x"
b10000 ;
b10000 P"
b10000 {"
b10000 "#
b0 d
b0 z
b0 K"
1_
0Y
02
b11000 9
b11000 *"
b11000 6"
b11000 0#
b10100 ]
b10100 |
b10100 ("
b11111111111111111111111111101100 b
b11111111111111111111111111101100 !"
b11111111111111111111111111101100 '"
b11111111111111111111111111101100 o"
b11111111111111111111111111101100 /#
b100100 *
b100100 +"
b100100 m"
1Z
0&
b1 7
b1 9"
b1 .#
b1 3#
b0 a
b0 t"
b0 2#
1!
#14
0!
#15
03
1A
0'
b100000000 c
b100000000 x
b100000000 ""
b11 e
b11 H"
b11 k"
1`
04
1B
b1 U
b1 ,"
b1 :"
b10 f
b10 v
b10 {
b0 j
b0 w
b0 |"
b0 k
b0 -"
b0 z"
b100000000 l
b100000000 &"
b100000000 2"
b100000000 w"
b100000000 h
b100000000 u
b100000000 !#
b0 ^
b0 G"
b0 ,#
b11111111111111111111111111101100 (
b11111111111111111111111111101100 ."
b11111111111111111111111111101100 3"
b11111111111111111111111111101100 r"
b11111111111111111111111111101100 )#
b0 g
b0 /"
b0 4"
b0 q"
b10100 )
b10100 s
b10100 $#
b100000000 i
b100000000 y"
b100000000 }"
b1 D"
b100011 A"
b0 B"
b10 ?"
b100011 c"
b1 (#
b1 ="
b100000 >
b100000 n"
b100000 %#
00
b11000 7
b11000 9"
b11000 .#
b11000 3#
b11111111111111111111111111101100 a
b11111111111111111111111111101100 t"
b11111111111111111111111111101100 2#
b1 S
b1 ~
b1 )"
12
b10 9
b10 *"
b10 6"
b10 0#
bx ]
bx |
bx ("
b0 b
b0 !"
b0 '"
b0 o"
b0 /#
b10010 *
b10010 +"
b10010 m"
0Z
1&
b110011 =
b110011 O"
b11 .
b11 7"
b11 S"
b10 /
b10 8"
b10 R"
b0 R
b0 y
b0 %"
b0 M"
b10100 +
b10100 r
b10100 #"
b0 O
b0 t
b0 N"
b0 x"
b100000000 \
b100000000 5"
b100000000 L"
b10100 ;
b10100 P"
b10100 {"
b10100 "#
b10 d
b10 z
b10 K"
0_
b100010010000000100011 M
b100010010000000100011 V"
b100010010000000100011 X"
b11000 :
b11000 E"
b11000 W"
b100001000000010010011 N
b100001000000010010011 U"
b100001000000010010011 a"
b100000 ,
b100000 p
b100000 l"
b11100 <
b11100 q
b11100 T"
b11100 `"
b11100 &#
1!
#16
0!
#17
13
0A
0'
b100000000 c
b100000000 x
b100000000 ""
b0 e
b0 H"
b0 k"
14
0B
b1 P
b1 F"
b1 _"
b100000000 j
b100000000 w
b100000000 |"
b100000000 k
b100000000 -"
b100000000 z"
b0 l
b0 &"
b0 2"
b0 w"
b0 h
b0 u
b0 !#
b0 n
b0 I"
b0 -#
b100100 >
b100100 n"
b100100 %#
b1 C"
b10011 A"
b1 B"
b0 ?"
b10011 c"
b1 '#
b1 <"
b11000 +
b11000 r
b11000 #"
b11000 )
b11000 s
b11000 $#
b0 i
b0 y"
b0 }"
b100000000 g
b100000000 /"
b100000000 4"
b100000000 q"
0*#
b0 (
b0 ."
b0 3"
b0 r"
b0 )#
b11111110110111111111000001101111 N
b11111110110111111111000001101111 U"
b11111110110111111111000001101111 a"
b100100 ,
b100100 p
b100100 l"
b100000 <
b100000 q
b100000 T"
b100000 `"
b100000 &#
b100001000000010010011 M
b100001000000010010011 V"
b100001000000010010011 X"
b11100 :
b11100 E"
b11100 W"
b100011 =
b100011 O"
b1 .
b1 7"
b1 S"
01
b10 R
b10 y
b10 %"
b10 M"
b0 8
b0 $"
b0 >"
b0 Q"
b0 \
b0 5"
b0 L"
b11000 ;
b11000 P"
b11000 {"
b11000 "#
b11 d
b11 z
b11 K"
1_
1?
b0 S
b0 ~
b0 )"
b100000000 ]
b100000000 |
b100000000 ("
b100000000 b
b100000000 !"
b100000000 '"
b100000000 o"
b100000000 /#
b10100 *
b10100 +"
b10100 m"
0&
10
b10 7
b10 9"
b10 .#
b10 3#
b0 a
b0 t"
b0 2#
1!
#18
0!
#19
b0 j
b0 w
b0 |"
b0 k
b0 -"
b0 z"
b1 c
b1 x
b1 ""
b1 e
b1 H"
b1 k"
1L
b0 U
b0 ,"
b0 :"
b11111111111111111111111111101100 P
b11111111111111111111111111101100 F"
b11111111111111111111111111101100 _"
b1 h
b1 u
b1 !#
bx ^
bx G"
bx ,#
bx n
bx I"
bx -#
b100000000 (
b100000000 ."
b100000000 3"
b100000000 r"
b100000000 )#
b1 i
b1 y"
b1 }"
b11100 )
b11100 s
b11100 $#
b1101 D"
b11111 C"
b1101111 A"
b0 B"
b111 ?"
1@"
b1101111 c"
b1101 (#
b11111 '#
b1101 ="
b11111 <"
b101000 >
b101000 n"
b101000 %#
b100000000 a
b100000000 t"
b100000000 2#
b10 S
b10 ~
b10 )"
02
b0 9
b0 *"
b0 6"
b0 0#
b0 ]
b0 |
b0 ("
b11000 *
b11000 +"
b11000 m"
1@
b10011 =
b10011 O"
b1 /
b1 8"
b1 R"
11
b0 R
b0 y
b0 %"
b0 M"
b1 8
b1 $"
b1 >"
b1 Q"
b11101 +
b11101 r
b11101 #"
b1 O
b1 t
b1 N"
b1 x"
b0 m
b0 0"
b0 J"
b0 ##
b11100 ;
b11100 P"
b11100 {"
b11100 "#
b0 d
b0 z
b0 K"
0?
b11111110110111111111000001101111 M
b11111110110111111111000001101111 V"
b11111110110111111111000001101111 X"
b100000 :
b100000 E"
b100000 W"
b1100010011 N
b1100010011 U"
b1100010011 a"
b101000 ,
b101000 p
b101000 l"
b100100 <
b100100 q
b100100 T"
b100100 `"
b100100 &#
1!
#20
0!
