Khizar/vcd/riscv_pipeline.vcd
$date
	Thu Aug  3 02:11:27 2023
$end
$version
	Icarus Verilog
$end
$timescale
	1s
$end
$scope module riscv_tb $end
$var reg 1 ! clk $end
$var reg 1 " rst $end
$scope module core $end
$var wire 1 ! clk $end
$var wire 1 # overflow $end
$var wire 1 $ pcsrc $end
$var wire 1 " rst $end
$var wire 1 % zero_ex $end
$var wire 1 & zero $end
$var wire 32 ' writedata [31:0] $end
$var wire 32 ( sumB_ex [31:0] $end
$var wire 32 ) sumB [31:0] $end
$var wire 32 * sumA [31:0] $end
$var wire 1 + regwrite_wb $end
$var wire 1 , regwrite_id $end
$var wire 1 - regwrite_ex $end
$var wire 1 . regwrite $end
$var wire 32 / readdata_wb [31:0] $end
$var wire 32 0 readdata [31:0] $end
$var wire 5 1 rd_wb [4:0] $end
$var wire 5 2 rd_id [4:0] $end
$var wire 5 3 rd_ex [4:0] $end
$var wire 32 4 pc_if [31:0] $end
$var wire 32 5 pc_id [31:0] $end
$var wire 32 6 pc [31:0] $end
$var wire 32 7 newpc [31:0] $end
$var wire 32 8 mux_out [31:0] $end
$var wire 1 9 memwrite_id $end
$var wire 1 : memwrite_ex $end
$var wire 1 ; memwrite $end
$var wire 1 < memtoreg_wb $end
$var wire 1 = memtoreg_id $end
$var wire 1 > memtoreg_ex $end
$var wire 1 ? memtoreg $end
$var wire 1 @ memread_id $end
$var wire 1 A memread_ex $end
$var wire 1 B memread $end
$var wire 32 C ins_if [31:0] $end
$var wire 32 D ins [31:0] $end
$var wire 32 E immediate_id [31:0] $end
$var wire 32 F immediate [31:0] $end
$var wire 1 G func7_id $end
$var wire 3 H func3_id [2:0] $end
$var wire 1 I branch_id $end
$var wire 1 J branch_ex $end
$var wire 1 K branch $end
$var wire 32 L b_id [31:0] $end
$var wire 32 M b_ex [31:0] $end
$var wire 32 N b [31:0] $end
$var wire 1 O alusrc_id $end
$var wire 1 P alusrc $end
$var wire 32 Q alures_wb [31:0] $end
$var wire 32 R alures_ex [31:0] $end
$var wire 32 S alures [31:0] $end
$var wire 2 T aluop_id [1:0] $end
$var wire 2 U aluop [1:0] $end
$var wire 4 V aluctl [3:0] $end
$var wire 32 W a_id [31:0] $end
$var wire 32 X a [31:0] $end
$scope module adder $end
$var wire 32 Y in2 [31:0] $end
$var wire 32 Z out [31:0] $end
$var wire 32 [ in1 [31:0] $end
$upscope $end
$scope module adder2 $end
$var wire 32 \ out [31:0] $end
$var wire 32 ] in2 [31:0] $end
$var wire 32 ^ in1 [31:0] $end
$upscope $end
$scope module alu $end
$var wire 1 # overflow $end
$var wire 1 & zero $end
$var wire 32 _ b [31:0] $end
$var wire 4 ` aluctl [3:0] $end
$var wire 32 a a [31:0] $end
$var reg 32 b out [31:0] $end
$upscope $end
$scope module alucon $end
$var wire 1 G func7 $end
$var wire 3 c func3 [2:0] $end
$var wire 2 d aluop [1:0] $end
$var reg 4 e aluctl [3:0] $end
$upscope $end
$scope module datamem $end
$var wire 1 ! clk $end
$var wire 32 f writedata [31:0] $end
$var wire 32 g readdata [31:0] $end
$var wire 1 : memwrite $end
$var wire 1 A memread $end
$var wire 32 h address [31:0] $end
$upscope $end
$scope module ex1 $end
$var wire 32 i alures [31:0] $end
$var wire 1 ! clk $end
$var wire 32 j sumB [31:0] $end
$var wire 1 & zero $end
$var wire 1 , regwrite_id $end
$var wire 5 k rd_id [4:0] $end
$var wire 1 9 memwrite_id $end
$var wire 1 = memtoreg_id $end
$var wire 1 @ memread_id $end
$var wire 1 I branch_id $end
$var wire 32 l b_id [31:0] $end
$var reg 32 m alures_ex [31:0] $end
$var reg 32 n b_ex [31:0] $end
$var reg 1 J branch_ex $end
$var reg 1 A memread_ex $end
$var reg 1 > memtoreg_ex $end
$var reg 1 : memwrite_ex $end
$var reg 5 o rd_ex [4:0] $end
$var reg 1 - regwrite_ex $end
$var reg 32 p sumB_ex [31:0] $end
$var reg 1 % zero_ex $end
$upscope $end
$scope module id1 $end
$var wire 1 ! clk $end
$var wire 3 q func3 [2:0] $end
$var wire 1 r func7 $end
$var wire 5 s rd [4:0] $end
$var wire 1 . regwrite_if $end
$var wire 32 t pc_if [31:0] $end
$var wire 1 ; memwrite_if $end
$var wire 1 ? memtoreg_if $end
$var wire 1 B memread_if $end
$var wire 32 u immediate [31:0] $end
$var wire 1 K branch_if $end
$var wire 32 v b [31:0] $end
$var wire 1 P alusrc_if $end
$var wire 2 w aluop_if [1:0] $end
$var wire 32 x a [31:0] $end
$var reg 32 y a_id [31:0] $end
$var reg 2 z aluop_id [1:0] $end
$var reg 1 O alusrc_id $end
$var reg 32 { b_id [31:0] $end
$var reg 1 I branch_id $end
$var reg 3 | func3_id [2:0] $end
$var reg 1 G func7_id $end
$var reg 32 } immediate_id [31:0] $end
$var reg 1 @ memread_id $end
$var reg 1 = memtoreg_id $end
$var reg 1 9 memwrite_id $end
$var reg 32 ~ pc_id [31:0] $end
$var reg 5 !" rd_id [4:0] $end
$var reg 1 , regwrite_id $end
$upscope $end
$scope module if1 $end
$var wire 1 ! clk $end
$var wire 32 "" pc [31:0] $end
$var wire 32 #" ins [31:0] $end
$var reg 32 $" ins_if [31:0] $end
$var reg 32 %" pc_if [31:0] $end
$upscope $end
$scope module immgen $end
$var wire 32 &" instruction [31:0] $end
$var parameter 7 '" I $end
$var parameter 7 (" I_LD $end
$var parameter 7 )" S $end
$var parameter 7 *" SB $end
$var reg 32 +" result [31:0] $end
$upscope $end
$scope module insmem $end
$var wire 32 ," pc [31:0] $end
$var wire 32 -" instruction [31:0] $end
$upscope $end
$scope module maincon $end
$var wire 7 ." opcode [6:0] $end
$var parameter 7 /" I $end
$var parameter 7 0" I_LD $end
$var parameter 7 1" R $end
$var parameter 7 2" S $end
$var parameter 7 3" SB $end
$var reg 2 4" aluop [1:0] $end
$var reg 1 P alusrc $end
$var reg 1 K branch $end
$var reg 1 B memread $end
$var reg 1 ? memtoreg $end
$var reg 1 ; memwrite $end
$var reg 1 . regwrite $end
$upscope $end
$scope module mux1 $end
$var wire 32 5" in1 [31:0] $end
$var wire 32 6" in2 [31:0] $end
$var wire 1 $ s $end
$var wire 32 7" out [31:0] $end
$upscope $end
$scope module mux2 $end
$var wire 32 8" in1 [31:0] $end
$var wire 32 9" in2 [31:0] $end
$var wire 1 O s $end
$var wire 32 :" out [31:0] $end
$upscope $end
$scope module mux3 $end
$var wire 1 < s $end
$var wire 32 ;" out [31:0] $end
$var wire 32 <" in2 [31:0] $end
$var wire 32 =" in1 [31:0] $end
$upscope $end
$scope module pcmod $end
$var wire 1 ! clk $end
$var wire 32 >" in [31:0] $end
$var wire 1 " rst $end
$var reg 32 ?" out [31:0] $end
$upscope $end
$scope module regfile $end
$var wire 1 ! clk $end
$var wire 32 @" readdata1 [31:0] $end
$var wire 32 A" readdata2 [31:0] $end
$var wire 5 B" rs1 [4:0] $end
$var wire 5 C" rs2 [4:0] $end
$var wire 32 D" writedata [31:0] $end
$var wire 1 + regwrite $end
$var wire 5 E" rd [4:0] $end
$upscope $end
$scope module wb1 $end
$var wire 32 F" alures_ex [31:0] $end
$var wire 1 ! clk $end
$var wire 1 > memtoreg_ex $end
$var wire 5 G" rd_ex [4:0] $end
$var wire 32 H" readdata [31:0] $end
$var wire 1 - regwrite_ex $end
$var reg 32 I" alures_wb [31:0] $end
$var reg 1 < memtoreg_wb $end
$var reg 5 J" rd_wb [4:0] $end
$var reg 32 K" readdata_wb [31:0] $end
$var reg 1 + regwrite_wb $end
$upscope $end
$upscope $end
$upscope $end
$enddefinitions $end
$comment Show the parameter values. $end
$dumpall
b1100011 3"
b100011 2"
b110011 1"
b11 0"
b10011 /"
b1100011 *"
b100011 )"
b11 ("
b10011 '"
$end
#0
$dumpvars
b0 K"
b0 J"
b0 I"
b0 H"
b0 G"
b0 F"
b0 E"
b0 D"
b0 C"
b0 B"
b0 A"
b0 @"
bx ?"
bx >"
b0 ="
b0 <"
b0 ;"
b0 :"
b0 9"
b0 8"
bx 7"
b0 6"
bx 5"
b0 4"
b0 ."
bx -"
bx ,"
b0 +"
b0 &"
b0 %"
b0 $"
bx #"
bx ""
b0 !"
b0 ~
b0 }
b0 |
b0 {
b0 z
b0 y
b0 x
b0 w
b0 v
b0 u
b0 t
b0 s
0r
b0 q
b0 p
b0 o
b0 n
b0 m
b0 l
b0 k
b0 j
b0 i
b0 h
b0 g
b0 f
b10 e
b0 d
b0 c
b0 b
b0 a
b10 `
b0 _
b0 ^
b0 ]
b0 \
bx [
bx Z
b100 Y
b0 X
b0 W
b10 V
b0 U
b0 T
b0 S
b0 R
b0 Q
0P
0O
b0 N
b0 M
b0 L
0K
0J
0I
b0 H
0G
b0 F
b0 E
bx D
b0 C
0B
0A
0@
0?
0>
0=
0<
0;
0:
09
b0 8
bx 7
bx 6
b0 5
b0 4
b0 3
b0 2
b0 1
b0 0
b0 /
0.
0-
0,
0+
bx *
b0 )
b0 (
b0 '
1&
0%
0$
z#
x"
0!
$end
#1
b100 7
b100 7"
b100 >"
bx s
bx q
xr
bx N
bx v
bx A"
bx C"
bx X
bx x
bx @"
bx B"
bx ."
b10011 D
b10011 #"
b10011 -"
b100 *
b100 Z
b100 5"
b0 6
b0 [
b0 ""
b0 ,"
b0 ?"
bx C
bx $"
bx &"
bx 4
bx t
bx %"
1%
1"
1!
#2
0!
#3
1P
1.
x&
bx S
bx b
bx i
bx 8
bx _
bx :"
b0 s
b0 q
0r
b0 N
b0 v
b0 A"
b0 C"
b0 X
b0 x
b0 @"
b0 B"
b10011 ."
xG
bx H
bx c
bx |
bx 2
bx k
bx !"
bx L
bx l
bx {
bx 8"
bx W
bx a
bx y
bx )
bx \
bx j
bx 5
bx ]
bx ~
b10011 C
b10011 $"
b10011 &"
b0 4
b0 t
b0 %"
1!
#4
0!
#5
1&
b0 S
b0 b
b0 i
b0 8
b0 _
b0 :"
1,
0G
b0 H
b0 c
b0 |
b0 2
b0 k
b0 !"
b0 L
b0 l
b0 {
b0 8"
b0 W
b0 a
b0 y
b0 )
b0 \
b0 j
b0 5
b0 ]
b0 ~
1O
bx 3
bx o
bx G"
bx M
bx f
bx n
bx R
bx h
bx m
bx F"
bx (
bx p
bx 6"
x%
1!
#6
0!
#7
bx '
bx ;"
bx D"
bx 1
bx E"
bx J"
bx Q
bx ="
bx I"
1-
b0 3
b0 o
b0 G"
b0 M
b0 f
b0 n
b0 R
b0 h
b0 m
b0 F"
b0 (
b0 p
b0 6"
1%
1!
#8
0!
#9
b0 '
b0 ;"
b0 D"
1+
b0 1
b0 E"
b0 J"
b0 Q
b0 ="
b0 I"
1!
#10
0!
#11
1!
#12
0!
#13
1!
#14
0!
#15
1!
#16
0!
0"
#17
b1000 7
b1000 7"
b1000 >"
b1000 *
b1000 Z
b1000 5"
b100 6
b100 [
b100 ""
b100 ,"
b100 ?"
1!
#18
0!
#19
b1100 7
b1100 7"
b1100 >"
b100 4
b100 t
b100 %"
b1100 *
b1100 Z
b1100 5"
b1000 6
b1000 [
b1000 ""
b1000 ,"
b1000 ?"
1!
#20
0!
#21
b10000 7
b10000 7"
b10000 >"
b10000 *
b10000 Z
b10000 5"
b1100 6
b1100 [
b1100 ""
b1100 ,"
b1100 ?"
b1000 4
b1000 t
b1000 %"
b100 )
b100 \
b100 j
b100 5
b100 ]
b100 ~
1!
#22
0!
#23
b10100 7
b10100 7"
b10100 >"
b100 (
b100 p
b100 6"
b1000 )
b1000 \
b1000 j
b1000 5
b1000 ]
b1000 ~
b1100 4
b1100 t
b1100 %"
b100000000010100010011 D
b100000000010100010011 #"
b100000000010100010011 -"
b10100 *
b10100 Z
b10100 5"
b10000 6
b10000 [
b10000 ""
b10000 ,"
b10000 ?"
1!
#24
0!
#25
b1 F
b1 u
b1 +"
b11000 7
b11000 7"
b11000 >"
b1010 s
bx N
bx v
bx A"
b1 C"
b10011 D
b10011 #"
b10011 -"
b11000 *
b11000 Z
b11000 5"
b10100 6
b10100 [
b10100 ""
b10100 ,"
b10100 ?"
b100000000010100010011 C
b100000000010100010011 $"
b100000000010100010011 &"
b10000 4
b10000 t
b10000 %"
b1100 )
b1100 \
b1100 j
b1100 5
b1100 ]
b1100 ~
b1000 (
b1000 p
b1000 6"
1!
#26
0!
#27
0&
b1 S
b1 b
b1 i
b0 F
b0 u
b0 +"
b1 8
b1 _
b1 :"
b0 s
b0 N
b0 v
b0 A"
b0 C"
b11100 7
b11100 7"
b11100 >"
b1100 (
b1100 p
b1100 6"
b1010 2
b1010 k
b1010 !"
b1 E
b1 ^
b1 }
b1 9"
bx L
bx l
bx {
bx 8"
b10001 )
b10001 \
b10001 j
b10000 5
b10000 ]
b10000 ~
b10011 C
b10011 $"
b10011 &"
b10100 4
b10100 t
b10100 %"
b11100 *
b11100 Z
b11100 5"
b11000 6
b11000 [
b11000 ""
b11000 ,"
b11000 ?"
1!
#28
0!
#29
1&
b0 S
b0 b
b0 i
b100000 7
b100000 7"
b100000 >"
b0 8
b0 _
b0 :"
b100000 *
b100000 Z
b100000 5"
b11100 6
b11100 [
b11100 ""
b11100 ,"
b11100 ?"
b11000 4
b11000 t
b11000 %"
b0 2
b0 k
b0 !"
b0 E
b0 ^
b0 }
b0 9"
b0 L
b0 l
b0 {
b0 8"
b10100 )
b10100 \
b10100 j
b10100 5
b10100 ]
b10100 ~
b1010 3
b1010 o
b1010 G"
bx M
bx f
bx n
b1 R
b1 h
b1 m
b1 F"
b10001 (
b10001 p
b10001 6"
0%
1!
#30
0!
#31
b1 '
b1 ;"
b1 D"
b100100 7
b100100 7"
b100100 >"
b1010 1
b1010 E"
b1010 J"
b1 Q
b1 ="
b1 I"
b0 3
b0 o
b0 G"
b0 M
b0 f
b0 n
b0 R
b0 h
b0 m
b0 F"
b10100 (
b10100 p
b10100 6"
1%
b11000 )
b11000 \
b11000 j
b11000 5
b11000 ]
b11000 ~
b11100 4
b11100 t
b11100 %"
b100100 *
b100100 Z
b100100 5"
b100000 6
b100000 [
b100000 ""
b100000 ,"
b100000 ?"
1!
#32
0!
#33
b101000 7
b101000 7"
b101000 >"
b0 '
b0 ;"
b0 D"
b101010000010110010011 D
b101010000010110010011 #"
b101010000010110010011 -"
b101000 *
b101000 Z
b101000 5"
b100100 6
b100100 [
b100100 ""
b100100 ,"
b100100 ?"
b100000 4
b100000 t
b100000 %"
b11100 )
b11100 \
b11100 j
b11100 5
b11100 ]
b11100 ~
b11000 (
b11000 p
b11000 6"
b0 1
b0 E"
b0 J"
b0 Q
b0 ="
b0 I"
1!
#34
0!
#35
b1 F
b1 u
b1 +"
b1011 s
bx N
bx v
bx A"
b1 C"
b1 X
b1 x
b1 @"
b1010 B"
b101100 7
b101100 7"
b101100 >"
b11100 (
b11100 p
b11100 6"
b100000 )
b100000 \
b100000 j
b100000 5
b100000 ]
b100000 ~
b101010000010110010011 C
b101010000010110010011 $"
b101010000010110010011 &"
b100100 4
b100100 t
b100100 %"
b10011 D
b10011 #"
b10011 -"
b101100 *
b101100 Z
b101100 5"
b101000 6
b101000 [
b101000 ""
b101000 ,"
b101000 ?"
1!
#36
0!
#37
b0 F
b0 u
b0 +"
0&
b10 S
b10 b
b10 i
b110000 7
b110000 7"
b110000 >"
b0 s
b0 N
b0 v
b0 A"
b0 C"
b0 X
b0 x
b0 @"
b0 B"
b1 8
b1 _
b1 :"
b110000 *
b110000 Z
b110000 5"
b101100 6
b101100 [
b101100 ""
b101100 ,"
b101100 ?"
b10011 C
b10011 $"
b10011 &"
b101000 4
b101000 t
b101000 %"
b1011 2
b1011 k
b1011 !"
b1 E
b1 ^
b1 }
b1 9"
bx L
bx l
bx {
bx 8"
b1 W
b1 a
b1 y
b100101 )
b100101 \
b100101 j
b100100 5
b100100 ]
b100100 ~
b100000 (
b100000 p
b100000 6"
1!
#38
0!
#39
1&
b0 S
b0 b
b0 i
b0 8
b0 _
b0 :"
b110100 7
b110100 7"
b110100 >"
b1011 3
b1011 o
b1011 G"
bx M
bx f
bx n
b10 R
b10 h
b10 m
b10 F"
b100101 (
b100101 p
b100101 6"
0%
b0 2
b0 k
b0 !"
b0 E
b0 ^
b0 }
b0 9"
b0 L
b0 l
b0 {
b0 8"
b0 W
b0 a
b0 y
b101000 )
b101000 \
b101000 j
b101000 5
b101000 ]
b101000 ~
b101100 4
b101100 t
b101100 %"
b110100 *
b110100 Z
b110100 5"
b110000 6
b110000 [
b110000 ""
b110000 ,"
b110000 ?"
1!
#40
0!
#41
b111000 7
b111000 7"
b111000 >"
b10 '
b10 ;"
b10 D"
b111000 *
b111000 Z
b111000 5"
b110100 6
b110100 [
b110100 ""
b110100 ,"
b110100 ?"
b110000 4
b110000 t
b110000 %"
b101100 )
b101100 \
b101100 j
b101100 5
b101100 ]
b101100 ~
b0 3
b0 o
b0 G"
b0 M
b0 f
b0 n
b0 R
b0 h
b0 m
b0 F"
b101000 (
b101000 p
b101000 6"
1%
b1011 1
b1011 E"
b1011 J"
b10 Q
b10 ="
b10 I"
1!
#42
0!
#43
b0 '
b0 ;"
b0 D"
b111100 7
b111100 7"
b111100 >"
b0 1
b0 E"
b0 J"
b0 Q
b0 ="
b0 I"
b101100 (
b101100 p
b101100 6"
b110000 )
b110000 \
b110000 j
b110000 5
b110000 ]
b110000 ~
b110100 4
b110100 t
b110100 %"
b1100101101010000010001100011 D
b1100101101010000010001100011 #"
b1100101101010000010001100011 -"
b111100 *
b111100 Z
b111100 5"
b111000 6
b111000 [
b111000 ""
b111000 ,"
b111000 ?"
1!
#44
0!
#45
b1 U
b1 w
b1 4"
0P
0.
1K
b11001000 F
b11001000 u
b11001000 +"
b1000000 7
b1000000 7"
b1000000 >"
b1000 s
b10 N
b10 v
b10 A"
b1011 C"
b1 X
b1 x
b1 @"
b1010 B"
b1100011 ."
b10011 D
b10011 #"
b10011 -"
b1000000 *
b1000000 Z
b1000000 5"
b111100 6
b111100 [
b111100 ""
b111100 ,"
b111100 ?"
b1100101101010000010001100011 C
b1100101101010000010001100011 $"
b1100101101010000010001100011 &"
b111000 4
b111000 t
b111000 %"
b110100 )
b110100 \
b110100 j
b110100 5
b110100 ]
b110100 ~
b110000 (
b110000 p
b110000 6"
1!
#46
0!
#47
b0 U
b0 w
b0 4"
1P
1.
0K
0&
b11111111111111111111111111111111 S
b11111111111111111111111111111111 b
b11111111111111111111111111111111 i
b110 V
b110 `
b110 e
b0 F
b0 u
b0 +"
b10 8
b10 _
b10 :"
b0 s
b0 N
b0 v
b0 A"
b0 C"
b0 X
b0 x
b0 @"
b0 B"
b10011 ."
b1000100 7
b1000100 7"
b1000100 >"
b110100 (
b110100 p
b110100 6"
0,
b1000 2
b1000 k
b1000 !"
b11001000 E
b11001000 ^
b11001000 }
b11001000 9"
b10 L
b10 l
b10 {
b10 8"
b1 W
b1 a
b1 y
b100000000 )
b100000000 \
b100000000 j
b111000 5
b111000 ]
b111000 ~
b1 T
b1 d
b1 z
0O
1I
b10011 C
b10011 $"
b10011 &"
b111100 4
b111100 t
b111100 %"
b1000100 *
b1000100 Z
b1000100 5"
b1000000 6
b1000000 [
b1000000 ""
b1000000 ,"
b1000000 ?"
1!
#48
0!
#49
1&
b0 S
b0 b
b0 i
b10 V
b10 `
b10 e
b1001000 7
b1001000 7"
b1001000 >"
b0 8
b0 _
b0 :"
b1001000 *
b1001000 Z
b1001000 5"
b1000100 6
b1000100 [
b1000100 ""
b1000100 ,"
b1000100 ?"
b1000000 4
b1000000 t
b1000000 %"
1,
b0 2
b0 k
b0 !"
b0 E
b0 ^
b0 }
b0 9"
b0 L
b0 l
b0 {
b0 8"
b0 W
b0 a
b0 y
b111100 )
b111100 \
b111100 j
b111100 5
b111100 ]
b111100 ~
b0 T
b0 d
b0 z
1O
0I
0-
b1000 3
b1000 o
b1000 G"
b10 M
b10 f
b10 n
b11111111111111111111111111111111 R
b11111111111111111111111111111111 h
b11111111111111111111111111111111 m
b11111111111111111111111111111111 F"
b100000000 (
b100000000 p
b100000000 6"
1J
0%
1!
#50
0!
#51
b11111111111111111111111111111111 '
b11111111111111111111111111111111 ;"
b11111111111111111111111111111111 D"
b1001100 7
b1001100 7"
b1001100 >"
0+
b1000 1
b1000 E"
b1000 J"
b11111111111111111111111111111111 Q
b11111111111111111111111111111111 ="
b11111111111111111111111111111111 I"
1-
b0 3
b0 o
b0 G"
b0 M
b0 f
b0 n
b0 R
b0 h
b0 m
b0 F"
b111100 (
b111100 p
b111100 6"
0J
1%
b1000000 )
b1000000 \
b1000000 j
b1000000 5
b1000000 ]
b1000000 ~
b1000100 4
b1000100 t
b1000100 %"
b1001100 *
b1001100 Z
b1001100 5"
b1001000 6
b1001000 [
b1001000 ""
b1001000 ,"
b1001000 ?"
1!
#52
0!
#53
b1010000 7
b1010000 7"
b1010000 >"
b0 '
b0 ;"
b0 D"
b1001010000011000010011 D
b1001010000011000010011 #"
b1001010000011000010011 -"
b1010000 *
b1010000 Z
b1010000 5"
b1001100 6
b1001100 [
b1001100 ""
b1001100 ,"
b1001100 ?"
b1001000 4
b1001000 t
b1001000 %"
b1000100 )
b1000100 \
b1000100 j
b1000100 5
b1000100 ]
b1000100 ~
b1000000 (
b1000000 p
b1000000 6"
1+
b0 1
b0 E"
b0 J"
b0 Q
b0 ="
b0 I"
1!
#54
0!
#55
b10 F
b10 u
b10 +"
b1100 s
bx N
bx v
bx A"
b10 C"
b1 X
b1 x
b1 @"
b1010 B"
b1010100 7
b1010100 7"
b1010100 >"
b1000100 (
b1000100 p
b1000100 6"
b1001000 )
b1001000 \
b1001000 j
b1001000 5
b1001000 ]
b1001000 ~
b1001010000011000010011 C
b1001010000011000010011 $"
b1001010000011000010011 &"
b1001100 4
b1001100 t
b1001100 %"
b10011 D
b10011 #"
b10011 -"
b1010100 *
b1010100 Z
b1010100 5"
b1010000 6
b1010000 [
b1010000 ""
b1010000 ,"
b1010000 ?"
1!
#56
0!
#57
b0 F
b0 u
b0 +"
0&
b11 S
b11 b
b11 i
b1011000 7
b1011000 7"
b1011000 >"
b0 s
b0 N
b0 v
b0 A"
b0 C"
b0 X
b0 x
b0 @"
b0 B"
b10 8
b10 _
b10 :"
b1011000 *
b1011000 Z
b1011000 5"
b1010100 6
b1010100 [
b1010100 ""
b1010100 ,"
b1010100 ?"
b10011 C
b10011 $"
b10011 &"
b1010000 4
b1010000 t
b1010000 %"
b1100 2
b1100 k
b1100 !"
b10 E
b10 ^
b10 }
b10 9"
bx L
bx l
bx {
bx 8"
b1 W
b1 a
b1 y
b1001110 )
b1001110 \
b1001110 j
b1001100 5
b1001100 ]
b1001100 ~
b1001000 (
b1001000 p
b1001000 6"
1!
#58
0!
#59
1&
b0 S
b0 b
b0 i
b0 8
b0 _
b0 :"
b1011100 7
b1011100 7"
b1011100 >"
b1100 3
b1100 o
b1100 G"
bx M
bx f
bx n
b11 R
b11 h
b11 m
b11 F"
b1001110 (
b1001110 p
b1001110 6"
0%
b0 2
b0 k
b0 !"
b0 E
b0 ^
b0 }
b0 9"
b0 L
b0 l
b0 {
b0 8"
b0 W
b0 a
b0 y
b1010000 )
b1010000 \
b1010000 j
b1010000 5
b1010000 ]
b1010000 ~
b1010100 4
b1010100 t
b1010100 %"
b1011100 *
b1011100 Z
b1011100 5"
b1011000 6
b1011000 [
b1011000 ""
b1011000 ,"
b1011000 ?"
1!
#60
0!
#61
b1100000 7
b1100000 7"
b1100000 >"
b11 '
b11 ;"
b11 D"
b1100000 *
b1100000 Z
b1100000 5"
b1011100 6
b1011100 [
b1011100 ""
b1011100 ,"
b1011100 ?"
b1011000 4
b1011000 t
b1011000 %"
b1010100 )
b1010100 \
b1010100 j
b1010100 5
b1010100 ]
b1010100 ~
b0 3
b0 o
b0 G"
b0 M
b0 f
b0 n
b0 R
b0 h
b0 m
b0 F"
b1010000 (
b1010000 p
b1010000 6"
1%
b1100 1
b1100 E"
b1100 J"
b11 Q
b11 ="
b11 I"
1!
#62
0!
#63
b0 '
b0 ;"
b0 D"
b1100100 7
b1100100 7"
b1100100 >"
b0 1
b0 E"
b0 J"
b0 Q
b0 ="
b0 I"
b1010100 (
b1010100 p
b1010100 6"
b1011000 )
b1011000 \
b1011000 j
b1011000 5
b1011000 ]
b1011000 ~
b1011100 4
b1011100 t
b1011100 %"
b101000000010000000100011 D
b101000000010000000100011 #"
b101000000010000000100011 -"
b1100100 *
b1100100 Z
b1100100 5"
b1100000 6
b1100000 [
b1100000 ""
b1100000 ,"
b1100000 ?"
1!
#64
0!
#65
0.
1;
b1101000 7
b1101000 7"
b1101000 >"
b10 q
b1 N
b1 v
b1 A"
b1010 C"
b100011 ."
b10011 D
b10011 #"
b10011 -"
b1101000 *
b1101000 Z
b1101000 5"
b1100100 6
b1100100 [
b1100100 ""
b1100100 ,"
b1100100 ?"
b101000000010000000100011 C
b101000000010000000100011 $"
b101000000010000000100011 &"
b1100000 4
b1100000 t
b1100000 %"
b1011100 )
b1011100 \
b1011100 j
b1011100 5
b1011100 ]
b1011100 ~
b1011000 (
b1011000 p
b1011000 6"
1!
#66
0!
#67
1.
0;
b0 q
b0 N
b0 v
b0 A"
b0 C"
b10011 ."
b1101100 7
b1101100 7"
b1101100 >"
b1011100 (
b1011100 p
b1011100 6"
0,
b10 H
b10 c
b10 |
b1 L
b1 l
b1 {
b1 8"
b1100000 )
b1100000 \
b1100000 j
b1100000 5
b1100000 ]
b1100000 ~
19
b10011 C
b10011 $"
b10011 &"
b1100100 4
b1100100 t
b1100100 %"
b1101100 *
b1101100 Z
b1101100 5"
b1101000 6
b1101000 [
b1101000 ""
b1101000 ,"
b1101000 ?"
1!
#68
0!
#69
b1110000 7
b1110000 7"
b1110000 >"
b1110000 *
b1110000 Z
b1110000 5"
b1101100 6
b1101100 [
b1101100 ""
b1101100 ,"
b1101100 ?"
b1101000 4
b1101000 t
b1101000 %"
1,
b0 H
b0 c
b0 |
b0 L
b0 l
b0 {
b0 8"
b1100100 )
b1100100 \
b1100100 j
b1100100 5
b1100100 ]
b1100100 ~
09
0-
b1 M
b1 f
b1 n
b1100000 (
b1100000 p
b1100000 6"
1:
1!
#70
0!
#71
b1110100 7
b1110100 7"
b1110100 >"
0+
1-
b0 M
b0 f
b0 n
b1100100 (
b1100100 p
b1100100 6"
0:
b1101000 )
b1101000 \
b1101000 j
b1101000 5
b1101000 ]
b1101000 ~
b1101100 4
b1101100 t
b1101100 %"
b1110100 *
b1110100 Z
b1110100 5"
b1110000 6
b1110000 [
b1110000 ""
b1110000 ,"
b1110000 ?"
1!
#72
0!
#73
b1111000 7
b1111000 7"
b1111000 >"
b1101010000011010010011 D
b1101010000011010010011 #"
b1101010000011010010011 -"
b1111000 *
b1111000 Z
b1111000 5"
b1110100 6
b1110100 [
b1110100 ""
b1110100 ,"
b1110100 ?"
b1110000 4
b1110000 t
b1110000 %"
b1101100 )
b1101100 \
b1101100 j
b1101100 5
b1101100 ]
b1101100 ~
b1101000 (
b1101000 p
b1101000 6"
1+
1!
#74
0!
#75
b11 F
b11 u
b11 +"
b1101 s
bx N
bx v
bx A"
b11 C"
b1 X
b1 x
b1 @"
b1010 B"
b1111100 7
b1111100 7"
b1111100 >"
b1101100 (
b1101100 p
b1101100 6"
b1110000 )
b1110000 \
b1110000 j
b1110000 5
b1110000 ]
b1110000 ~
b1101010000011010010011 C
b1101010000011010010011 $"
b1101010000011010010011 &"
b1110100 4
b1110100 t
b1110100 %"
b10011 D
b10011 #"
b10011 -"
b1111100 *
b1111100 Z
b1111100 5"
b1111000 6
b1111000 [
b1111000 ""
b1111000 ,"
b1111000 ?"
1!
#76
0!
#77
b0 F
b0 u
b0 +"
0&
b100 S
b100 b
b100 i
b10000000 7
b10000000 7"
b10000000 >"
b0 s
b0 N
b0 v
b0 A"
b0 C"
b0 X
b0 x
b0 @"
b0 B"
b11 8
b11 _
b11 :"
b10000000 *
b10000000 Z
b10000000 5"
b1111100 6
b1111100 [
b1111100 ""
b1111100 ,"
b1111100 ?"
b10011 C
b10011 $"
b10011 &"
b1111000 4
b1111000 t
b1111000 %"
b1101 2
b1101 k
b1101 !"
b11 E
b11 ^
b11 }
b11 9"
bx L
bx l
bx {
bx 8"
b1 W
b1 a
b1 y
b1110111 )
b1110111 \
b1110111 j
b1110100 5
b1110100 ]
b1110100 ~
b1110000 (
b1110000 p
b1110000 6"
1!
#78
0!
#79
1&
b0 S
b0 b
b0 i
b0 8
b0 _
b0 :"
b10000100 7
b10000100 7"
b10000100 >"
b1101 3
b1101 o
b1101 G"
bx M
bx f
bx n
b100 R
b100 h
b100 m
b100 F"
b1110111 (
b1110111 p
b1110111 6"
0%
b0 2
b0 k
b0 !"
b0 E
b0 ^
b0 }
b0 9"
b0 L
b0 l
b0 {
b0 8"
b0 W
b0 a
b0 y
b1111000 )
b1111000 \
b1111000 j
b1111000 5
b1111000 ]
b1111000 ~
b1111100 4
b1111100 t
b1111100 %"
b10000100 *
b10000100 Z
b10000100 5"
b10000000 6
b10000000 [
b10000000 ""
b10000000 ,"
b10000000 ?"
1!
#80
0!
#81
b10001000 7
b10001000 7"
b10001000 >"
b100 '
b100 ;"
b100 D"
b10001000 *
b10001000 Z
b10001000 5"
b10000100 6
b10000100 [
b10000100 ""
b10000100 ,"
b10000100 ?"
b10000000 4
b10000000 t
b10000000 %"
b1111100 )
b1111100 \
b1111100 j
b1111100 5
b1111100 ]
b1111100 ~
b0 3
b0 o
b0 G"
b0 M
b0 f
b0 n
b0 R
b0 h
b0 m
b0 F"
b1111000 (
b1111000 p
b1111000 6"
1%
b1101 1
b1101 E"
b1101 J"
b100 Q
b100 ="
b100 I"
1!
#82
0!
