Khizar/vcd/riscv_pipeline.vcd
$date
	Fri Aug  4 15:21:05 2023
$end
$version
	Icarus Verilog
$end
$timescale
	1s
$end
$scope module riscv_tb $end
$var reg 1 ! clk $end
$var reg 1 " rst $end
$scope module core $end
$var wire 1 ! clk $end
$var wire 1 # overflow $end
$var wire 1 $ pcsrc $end
$var wire 1 " rst $end
$var wire 1 % zero_ex $end
$var wire 1 & zero $end
$var wire 32 ' writedata [31:0] $end
$var wire 32 ( sumB_ex [31:0] $end
$var wire 32 ) sumB [31:0] $end
$var wire 32 * sumA [31:0] $end
$var wire 5 + rs2_id [4:0] $end
$var wire 5 , rs1_id [4:0] $end
$var wire 1 - regwrite_wb $end
$var wire 1 . regwrite_id $end
$var wire 1 / regwrite_ex $end
$var wire 1 0 regwrite $end
$var wire 32 1 readdata_wb [31:0] $end
$var wire 32 2 readdata [31:0] $end
$var wire 5 3 rd_wb [4:0] $end
$var wire 5 4 rd_id [4:0] $end
$var wire 5 5 rd_ex [4:0] $end
$var wire 32 6 pc_if [31:0] $end
$var wire 32 7 pc_id [31:0] $end
$var wire 32 8 pc [31:0] $end
$var wire 32 9 newpc [31:0] $end
$var wire 32 : mux_out [31:0] $end
$var wire 1 ; memwrite_id $end
$var wire 1 < memwrite_ex $end
$var wire 1 = memwrite $end
$var wire 1 > memtoreg_wb $end
$var wire 1 ? memtoreg_id $end
$var wire 1 @ memtoreg_ex $end
$var wire 1 A memtoreg $end
$var wire 1 B memread_id $end
$var wire 1 C memread_ex $end
$var wire 1 D memread $end
$var wire 32 E ins_if [31:0] $end
$var wire 32 F ins [31:0] $end
$var wire 32 G immediate_id [31:0] $end
$var wire 32 H immediate [31:0] $end
$var wire 1 I func7_id $end
$var wire 3 J func3_id [2:0] $end
$var wire 2 K forwardB [1:0] $end
$var wire 2 L forwardA [1:0] $end
$var wire 1 M branch_id $end
$var wire 1 N branch_ex $end
$var wire 1 O branch $end
$var wire 32 P b_id [31:0] $end
$var wire 32 Q b_ex [31:0] $end
$var wire 32 R b [31:0] $end
$var wire 1 S alusrc_id $end
$var wire 1 T alusrc $end
$var wire 32 U alures_wb [31:0] $end
$var wire 32 V alures_ex [31:0] $end
$var wire 32 W alures [31:0] $end
$var wire 2 X aluop_id [1:0] $end
$var wire 2 Y aluop [1:0] $end
$var wire 4 Z aluctl [3:0] $end
$var wire 32 [ alu_in2 [31:0] $end
$var wire 32 \ alu_in1 [31:0] $end
$var wire 32 ] a_id [31:0] $end
$var wire 32 ^ a [31:0] $end
$scope module adder $end
$var wire 32 _ in2 [31:0] $end
$var wire 32 ` out [31:0] $end
$var wire 32 a in1 [31:0] $end
$upscope $end
$scope module adder2 $end
$var wire 32 b out [31:0] $end
$var wire 32 c in2 [31:0] $end
$var wire 32 d in1 [31:0] $end
$upscope $end
$scope module alu $end
$var wire 1 # overflow $end
$var wire 1 & zero $end
$var wire 32 e b [31:0] $end
$var wire 4 f aluctl [3:0] $end
$var wire 32 g a [31:0] $end
$var reg 32 h out [31:0] $end
$upscope $end
$scope module alucon $end
$var wire 1 I func7 $end
$var wire 3 i func3 [2:0] $end
$var wire 2 j aluop [1:0] $end
$var reg 4 k aluctl [3:0] $end
$upscope $end
$scope module datamem $end
$var wire 1 ! clk $end
$var wire 32 l writedata [31:0] $end
$var wire 32 m readdata [31:0] $end
$var wire 1 < memwrite $end
$var wire 1 C memread $end
$var wire 32 n address [31:0] $end
$upscope $end
$scope module ex1 $end
$var wire 32 o alures [31:0] $end
$var wire 1 ! clk $end
$var wire 32 p sumB [31:0] $end
$var wire 1 & zero $end
$var wire 1 . regwrite_id $end
$var wire 5 q rd_id [4:0] $end
$var wire 1 ; memwrite_id $end
$var wire 1 ? memtoreg_id $end
$var wire 1 B memread_id $end
$var wire 1 M branch_id $end
$var wire 32 r b_id [31:0] $end
$var reg 32 s alures_ex [31:0] $end
$var reg 32 t b_ex [31:0] $end
$var reg 1 N branch_ex $end
$var reg 1 C memread_ex $end
$var reg 1 @ memtoreg_ex $end
$var reg 1 < memwrite_ex $end
$var reg 5 u rd_ex [4:0] $end
$var reg 1 / regwrite_ex $end
$var reg 32 v sumB_ex [31:0] $end
$var reg 1 % zero_ex $end
$upscope $end
$scope module fwdAmux $end
$var wire 32 w in2 [31:0] $end
$var wire 2 x s [1:0] $end
$var wire 32 y out [31:0] $end
$var wire 32 z in3 [31:0] $end
$var wire 32 { in1 [31:0] $end
$upscope $end
$scope module fwdBmux $end
$var wire 32 | in2 [31:0] $end
$var wire 2 } s [1:0] $end
$var wire 32 ~ out [31:0] $end
$var wire 32 !" in3 [31:0] $end
$var wire 32 "" in1 [31:0] $end
$upscope $end
$scope module fwdunit $end
$var wire 5 #" rd_ex [4:0] $end
$var wire 1 / regwrite_ex $end
$var wire 5 $" rs2_id [4:0] $end
$var wire 5 %" rs1_id [4:0] $end
$var wire 1 - regwrite_wb $end
$var wire 5 &" rd_wb [4:0] $end
$var reg 2 '" forwardA [1:0] $end
$var reg 2 (" forwardB [1:0] $end
$upscope $end
$scope module id1 $end
$var wire 1 ! clk $end
$var wire 3 )" func3 [2:0] $end
$var wire 1 *" func7 $end
$var wire 5 +" rd [4:0] $end
$var wire 5 ," rs1_if [4:0] $end
$var wire 5 -" rs2_if [4:0] $end
$var wire 1 0 regwrite_if $end
$var wire 32 ." pc_if [31:0] $end
$var wire 1 = memwrite_if $end
$var wire 1 A memtoreg_if $end
$var wire 1 D memread_if $end
$var wire 32 /" immediate [31:0] $end
$var wire 1 O branch_if $end
$var wire 32 0" b [31:0] $end
$var wire 1 T alusrc_if $end
$var wire 2 1" aluop_if [1:0] $end
$var wire 32 2" a [31:0] $end
$var reg 32 3" a_id [31:0] $end
$var reg 2 4" aluop_id [1:0] $end
$var reg 1 S alusrc_id $end
$var reg 32 5" b_id [31:0] $end
$var reg 1 M branch_id $end
$var reg 3 6" func3_id [2:0] $end
$var reg 1 I func7_id $end
$var reg 32 7" immediate_id [31:0] $end
$var reg 1 B memread_id $end
$var reg 1 ? memtoreg_id $end
$var reg 1 ; memwrite_id $end
$var reg 32 8" pc_id [31:0] $end
$var reg 5 9" rd_id [4:0] $end
$var reg 1 . regwrite_id $end
$var reg 5 :" rs1_id [4:0] $end
$var reg 5 ;" rs2_id [4:0] $end
$upscope $end
$scope module if1 $end
$var wire 1 ! clk $end
$var wire 32 <" pc [31:0] $end
$var wire 32 =" ins [31:0] $end
$var reg 32 >" ins_if [31:0] $end
$var reg 32 ?" pc_if [31:0] $end
$upscope $end
$scope module immgen $end
$var wire 32 @" instruction [31:0] $end
$var reg 32 A" result [31:0] $end
$upscope $end
$scope module insmem $end
$var wire 32 B" pc [31:0] $end
$var wire 32 C" instruction [31:0] $end
$upscope $end
$scope module maincon $end
$var wire 7 D" opcode [6:0] $end
$var reg 2 E" aluop [1:0] $end
$var reg 1 T alusrc $end
$var reg 1 O branch $end
$var reg 1 D memread $end
$var reg 1 A memtoreg $end
$var reg 1 = memwrite $end
$var reg 1 0 regwrite $end
$upscope $end
$scope module mux1 $end
$var wire 32 F" in1 [31:0] $end
$var wire 32 G" in2 [31:0] $end
$var wire 1 $ s $end
$var wire 32 H" out [31:0] $end
$upscope $end
$scope module mux2 $end
$var wire 32 I" in1 [31:0] $end
$var wire 32 J" in2 [31:0] $end
$var wire 1 S s $end
$var wire 32 K" out [31:0] $end
$upscope $end
$scope module mux3 $end
$var wire 1 > s $end
$var wire 32 L" out [31:0] $end
$var wire 32 M" in2 [31:0] $end
$var wire 32 N" in1 [31:0] $end
$upscope $end
$scope module pcmod $end
$var wire 1 ! clk $end
$var wire 32 O" in [31:0] $end
$var wire 1 " rst $end
$var reg 32 P" out [31:0] $end
$upscope $end
$scope module regfile $end
$var wire 1 ! clk $end
$var wire 32 Q" readdata1 [31:0] $end
$var wire 32 R" readdata2 [31:0] $end
$var wire 5 S" rs1 [4:0] $end
$var wire 5 T" rs2 [4:0] $end
$var wire 32 U" writedata [31:0] $end
$var wire 1 - regwrite $end
$var wire 5 V" rd [4:0] $end
$upscope $end
$scope module wb1 $end
$var wire 32 W" alures_ex [31:0] $end
$var wire 1 ! clk $end
$var wire 1 @ memtoreg_ex $end
$var wire 5 X" rd_ex [4:0] $end
$var wire 32 Y" readdata [31:0] $end
$var wire 1 / regwrite_ex $end
$var reg 32 Z" alures_wb [31:0] $end
$var reg 1 > memtoreg_wb $end
$var reg 5 [" rd_wb [4:0] $end
$var reg 32 \" readdata_wb [31:0] $end
$var reg 1 - regwrite_wb $end
$upscope $end
$upscope $end
$upscope $end
$enddefinitions $end
#0
$dumpvars
b0 \"
b0 ["
b0 Z"
b0 Y"
b0 X"
b0 W"
b0 V"
b0 U"
b0 T"
b0 S"
b0 R"
b0 Q"
bx P"
bx O"
b0 N"
b0 M"
b0 L"
b0 K"
b0 J"
b0 I"
bx H"
b0 G"
bx F"
b0 E"
b0 D"
bx C"
bx B"
b0 A"
b0 @"
b0 ?"
b0 >"
bx ="
bx <"
b0 ;"
b0 :"
b0 9"
b0 8"
b0 7"
b0 6"
b0 5"
b0 4"
b0 3"
b0 2"
b0 1"
b0 0"
b0 /"
b0 ."
b0 -"
b0 ,"
b0 +"
0*"
b0 )"
b0 ("
b0 '"
b0 &"
b0 %"
b0 $"
b0 #"
b0 ""
b0 !"
b0 ~
b0 }
b0 |
b0 {
b0 z
b0 y
b0 x
b0 w
b0 v
b0 u
b0 t
b0 s
b0 r
b0 q
b0 p
b0 o
b0 n
b0 m
b0 l
b10 k
b0 j
b0 i
b0 h
b0 g
b10 f
b0 e
b0 d
b0 c
b0 b
bx a
bx `
b100 _
b0 ^
b0 ]
b0 \
b0 [
b10 Z
b0 Y
b0 X
b0 W
b0 V
b0 U
0T
0S
b0 R
b0 Q
b0 P
0O
0N
0M
b0 L
b0 K
b0 J
0I
b0 H
b0 G
bx F
b0 E
0D
0C
0B
0A
0@
0?
0>
0=
0<
0;
b0 :
bx 9
bx 8
b0 7
b0 6
b0 5
b0 4
b0 3
b0 2
b0 1
00
0/
0.
0-
b0 ,
b0 +
bx *
b0 )
b0 (
b0 '
1&
0%
0$
z#
x"
0!
$end
#1
b100 9
b100 H"
b100 O"
bx -"
bx ,"
bx +"
bx )"
x*"
bx R
bx 0"
bx R"
bx T"
bx ^
bx 2"
bx Q"
bx S"
bx D"
b10011 F
b10011 ="
b10011 C"
b100 *
b100 `
b100 F"
b0 8
b0 a
b0 <"
b0 B"
b0 P"
bx E
bx >"
bx @"
bx 6
bx ."
bx ?"
1%
1"
1!
#2
0!
#3
x&
bx W
bx h
bx o
1T
10
bx [
bx e
bx ~
bx \
bx g
bx y
bx :
bx ""
bx K"
b0 -"
b0 ,"
b0 +"
b0 )"
0*"
b0 R
b0 0"
b0 R"
b0 T"
b0 ^
b0 2"
b0 Q"
b0 S"
b10011 D"
bx +
bx $"
bx ;"
bx ,
bx %"
bx :"
xI
bx J
bx i
bx 6"
bx 4
bx q
bx 9"
bx P
bx r
bx 5"
bx I"
bx ]
bx {
bx 3"
bx )
bx b
bx p
bx 7
bx c
bx 8"
b10011 E
b10011 >"
b10011 @"
b0 6
b0 ."
b0 ?"
1!
#4
0!
#5
1&
b0 W
b0 h
b0 o
b0 [
b0 e
b0 ~
b0 \
b0 g
b0 y
b0 :
b0 ""
b0 K"
b0 +
b0 $"
b0 ;"
b0 ,
b0 %"
b0 :"
1.
0I
b0 J
b0 i
b0 6"
b0 4
b0 q
b0 9"
b0 P
b0 r
b0 5"
b0 I"
b0 ]
b0 {
b0 3"
b0 )
b0 b
b0 p
b0 7
b0 c
b0 8"
1S
bx 5
bx u
bx #"
bx X"
bx Q
bx l
bx t
bx V
bx n
bx s
bx w
bx |
bx W"
bx (
bx v
bx G"
x%
1!
#6
0!
#7
bx '
bx z
bx !"
bx L"
bx U"
bx 3
bx &"
bx V"
bx ["
bx U
bx N"
bx Z"
1/
b0 5
b0 u
b0 #"
b0 X"
b0 Q
b0 l
b0 t
b0 V
b0 n
b0 s
b0 w
b0 |
b0 W"
b0 (
b0 v
b0 G"
1%
1!
#8
0!
#9
b0 '
b0 z
b0 !"
b0 L"
b0 U"
1-
b0 3
b0 &"
b0 V"
b0 ["
b0 U
b0 N"
b0 Z"
1!
#10
0!
#11
1!
#12
0!
#13
1!
#14
0!
#15
1!
#16
0!
0"
#17
b1000 9
b1000 H"
b1000 O"
b1000 *
b1000 `
b1000 F"
b100 8
b100 a
b100 <"
b100 B"
b100 P"
1!
#18
0!
#19
b1100 9
b1100 H"
b1100 O"
b100 6
b100 ."
b100 ?"
b1100 *
b1100 `
b1100 F"
b1000 8
b1000 a
b1000 <"
b1000 B"
b1000 P"
1!
#20
0!
#21
b10000 9
b10000 H"
b10000 O"
b10000 *
b10000 `
b10000 F"
b1100 8
b1100 a
b1100 <"
b1100 B"
b1100 P"
b1000 6
b1000 ."
b1000 ?"
b100 )
b100 b
b100 p
b100 7
b100 c
b100 8"
1!
#22
0!
#23
b10100 9
b10100 H"
b10100 O"
b100 (
b100 v
b100 G"
b1000 )
b1000 b
b1000 p
b1000 7
b1000 c
b1000 8"
b1100 6
b1100 ."
b1100 ?"
b100000000010100010011 F
b100000000010100010011 ="
b100000000010100010011 C"
b10100 *
b10100 `
b10100 F"
b10000 8
b10000 a
b10000 <"
b10000 B"
b10000 P"
1!
#24
0!
#25
b1 H
b1 /"
b1 A"
b11000 9
b11000 H"
b11000 O"
b1 -"
b1010 +"
bx R
bx 0"
bx R"
b1 T"
b101010000010110010011 F
b101010000010110010011 ="
b101010000010110010011 C"
b11000 *
b11000 `
b11000 F"
b10100 8
b10100 a
b10100 <"
b10100 B"
b10100 P"
b100000000010100010011 E
b100000000010100010011 >"
b100000000010100010011 @"
b10000 6
b10000 ."
b10000 ?"
b1100 )
b1100 b
b1100 p
b1100 7
b1100 c
b1100 8"
b1000 (
b1000 v
b1000 G"
1!
#26
0!
#27
0&
b1 W
b1 h
b1 o
b1 [
b1 e
b1 ~
b1 :
b1 ""
b1 K"
b1010 ,"
b1011 +"
bx ^
bx 2"
bx Q"
b1010 S"
b11100 9
b11100 H"
b11100 O"
b1100 (
b1100 v
b1100 G"
b1 +
b1 $"
b1 ;"
b1010 4
b1010 q
b1010 9"
b1 G
b1 d
b1 7"
b1 J"
bx P
bx r
bx 5"
bx I"
b10001 )
b10001 b
b10001 p
b10000 7
b10000 c
b10000 8"
b101010000010110010011 E
b101010000010110010011 >"
b101010000010110010011 @"
b10100 6
b10100 ."
b10100 ?"
b100101101010000010001100011 F
b100101101010000010001100011 ="
b100101101010000010001100011 C"
b11100 *
b11100 `
b11100 F"
b11000 8
b11000 a
b11000 <"
b11000 B"
b11000 P"
1!
#28
0!
#29
0&
b10 W
b10 h
b10 o
b1 Y
b1 1"
b1 E"
0T
00
1O
b1001000 H
b1001000 /"
b1001000 A"
b1 L
b1 x
b1 '"
b1 \
b1 g
b1 y
b100000 9
b100000 H"
b100000 O"
b1011 -"
b1000 +"
b1011 T"
b1100011 D"
b1001010000011000010011 F
b1001010000011000010011 ="
b1001010000011000010011 C"
b100000 *
b100000 `
b100000 F"
b11100 8
b11100 a
b11100 <"
b11100 B"
b11100 P"
b100101101010000010001100011 E
b100101101010000010001100011 >"
b100101101010000010001100011 @"
b11000 6
b11000 ."
b11000 ?"
b1010 ,
b1010 %"
b1010 :"
b1011 4
b1011 q
b1011 9"
bx ]
bx {
bx 3"
b10101 )
b10101 b
b10101 p
b10100 7
b10100 c
b10100 8"
b1010 5
b1010 u
b1010 #"
b1010 X"
bx Q
bx l
bx t
b1 V
b1 n
b1 s
b1 w
b1 |
b1 W"
b10001 (
b10001 v
b10001 G"
0%
1!
#30
0!
#31
0&
b11111111111111111111111111111111 W
b11111111111111111111111111111111 h
b11111111111111111111111111111111 o
b0 Y
b0 1"
b0 E"
1T
10
0O
b1 K
b1 }
b1 ("
b10 L
b10 x
b10 '"
b110 Z
b110 f
b110 k
b10 H
b10 /"
b10 A"
b10 [
b10 e
b10 ~
b1 \
b1 g
b1 y
b1 '
b1 z
b1 !"
b1 L"
b1 U"
bx :
bx ""
bx K"
b10 -"
b1100 +"
b10 T"
b10011 D"
b100100 9
b100100 H"
b100100 O"
b1010 3
b1010 &"
b1010 V"
b1010 ["
b1 U
b1 N"
b1 Z"
b1011 5
b1011 u
b1011 #"
b1011 X"
b10 V
b10 n
b10 s
b10 w
b10 |
b10 W"
b10101 (
b10101 v
b10101 G"
b1011 +
b1011 $"
b1011 ;"
0.
b1000 4
b1000 q
b1000 9"
b1001000 G
b1001000 d
b1001000 7"
b1001000 J"
b1100000 )
b1100000 b
b1100000 p
b11000 7
b11000 c
b11000 8"
b1 X
b1 j
b1 4"
0S
1M
b1001010000011000010011 E
b1001010000011000010011 >"
b1001010000011000010011 @"
b11100 6
b11100 ."
b11100 ?"
b101000000010000000100011 F
b101000000010000000100011 ="
b101000000010000000100011 C"
b100100 *
b100100 `
b100100 F"
b100000 8
b100000 a
b100000 <"
b100000 B"
b100000 P"
1!
#32
0!
#33
x&
bx W
bx h
bx o
00
1=
b0 H
b0 /"
b0 A"
b10 Z
b10 f
b10 k
b0 K
b0 }
b0 ("
b0 L
b0 x
b0 '"
bx \
bx g
bx y
b10 [
b10 e
b10 ~
b101000 9
b101000 H"
b101000 O"
b1010 -"
b0 ,"
b0 +"
b10 )"
b1 R
b1 0"
b1 R"
b1010 T"
b0 S"
b100011 D"
b10 :
b10 ""
b10 K"
b10 '
b10 z
b10 !"
b10 L"
b10 U"
b10011 F
b10011 ="
b10011 C"
b101000 *
b101000 `
b101000 F"
b100100 8
b100100 a
b100100 <"
b100100 B"
b100100 P"
b101000000010000000100011 E
b101000000010000000100011 >"
b101000000010000000100011 @"
b100000 6
b100000 ."
b100000 ?"
b0 ^
b0 2"
b0 Q"
b10 +
b10 $"
b10 ;"
1.
b1100 4
b1100 q
b1100 9"
b10 G
b10 d
b10 7"
b10 J"
b11110 )
b11110 b
b11110 p
b11100 7
b11100 c
b11100 8"
b0 X
b0 j
b0 4"
1S
0M
0/
b1000 5
b1000 u
b1000 #"
b1000 X"
b11111111111111111111111111111111 V
b11111111111111111111111111111111 n
b11111111111111111111111111111111 s
b11111111111111111111111111111111 w
b11111111111111111111111111111111 |
b11111111111111111111111111111111 W"
b1100000 (
b1100000 v
b1100000 G"
1N
b1011 3
b1011 &"
b1011 V"
b1011 ["
b10 U
b10 N"
b10 Z"
1!
#34
0!
#35
1&
b0 W
b0 h
b0 o
10
0=
b0 [
b0 e
b0 ~
b0 \
b0 g
b0 y
b11111111111111111111111111111111 '
b11111111111111111111111111111111 z
b11111111111111111111111111111111 !"
b11111111111111111111111111111111 L"
b11111111111111111111111111111111 U"
b0 :
b0 ""
b0 K"
b0 -"
b0 )"
b0 R
b0 0"
b0 R"
b0 T"
b10011 D"
b101100 9
b101100 H"
b101100 O"
0-
b1000 3
b1000 &"
b1000 V"
b1000 ["
b11111111111111111111111111111111 U
b11111111111111111111111111111111 N"
b11111111111111111111111111111111 Z"
1/
b1100 5
b1100 u
b1100 #"
b1100 X"
bx V
bx n
bx s
bx w
bx |
bx W"
b11110 (
b11110 v
b11110 G"
0N
x%
b1010 +
b1010 $"
b1010 ;"
b0 ,
b0 %"
b0 :"
0.
b10 J
b10 i
b10 6"
b0 4
b0 q
b0 9"
b0 G
b0 d
b0 7"
b0 J"
b1 P
b1 r
b1 5"
b1 I"
b0 ]
b0 {
b0 3"
b100000 )
b100000 b
b100000 p
b100000 7
b100000 c
b100000 8"
1;
b10011 E
b10011 >"
b10011 @"
b100100 6
b100100 ."
b100100 ?"
b101100 *
b101100 `
b101100 F"
b101000 8
b101000 a
b101000 <"
b101000 B"
b101000 P"
1!
#36
0!
#37
b110000 9
b110000 H"
b110000 O"
bx '
bx z
bx !"
bx L"
bx U"
b110000 *
b110000 `
b110000 F"
b101100 8
b101100 a
b101100 <"
b101100 B"
b101100 P"
b101000 6
b101000 ."
b101000 ?"
b0 +
b0 $"
b0 ;"
1.
b0 J
b0 i
b0 6"
b0 P
b0 r
b0 5"
b0 I"
b100100 )
b100100 b
b100100 p
b100100 7
b100100 c
b100100 8"
0;
0/
b0 5
b0 u
b0 #"
b0 X"
b1 Q
b1 l
b1 t
b0 V
b0 n
b0 s
b0 w
b0 |
b0 W"
b100000 (
b100000 v
b100000 G"
1<
1%
1-
b1100 3
b1100 &"
b1100 V"
b1100 ["
bx U
bx N"
bx Z"
1!
#38
0!
#39
b0 '
b0 z
b0 !"
b0 L"
b0 U"
b110100 9
b110100 H"
b110100 O"
0-
b0 3
b0 &"
b0 V"
b0 ["
b0 U
b0 N"
b0 Z"
1/
b0 Q
b0 l
b0 t
b100100 (
b100100 v
b100100 G"
0<
b101000 )
b101000 b
b101000 p
b101000 7
b101000 c
b101000 8"
b101100 6
b101100 ."
b101100 ?"
b110100 *
b110100 `
b110100 F"
b110000 8
b110000 a
b110000 <"
b110000 B"
b110000 P"
1!
#40
0!
#41
b111000 9
b111000 H"
b111000 O"
b1101010000011010010011 F
b1101010000011010010011 ="
b1101010000011010010011 C"
b111000 *
b111000 `
b111000 F"
b110100 8
b110100 a
b110100 <"
b110100 B"
b110100 P"
b110000 6
b110000 ."
b110000 ?"
b101100 )
b101100 b
b101100 p
b101100 7
b101100 c
b101100 8"
b101000 (
b101000 v
b101000 G"
1-
1!
#42
0!
#43
b11 H
b11 /"
b11 A"
b11 -"
b1010 ,"
b1101 +"
bx R
bx 0"
bx R"
b11 T"
b1 ^
b1 2"
b1 Q"
b1010 S"
b111100 9
b111100 H"
b111100 O"
b101100 (
b101100 v
b101100 G"
b110000 )
b110000 b
b110000 p
b110000 7
b110000 c
b110000 8"
b1101010000011010010011 E
b1101010000011010010011 >"
b1101010000011010010011 @"
b110100 6
b110100 ."
b110100 ?"
b101101101000011100110011 F
b101101101000011100110011 ="
b101101101000011100110011 C"
b111100 *
b111100 `
b111100 F"
b111000 8
b111000 a
b111000 <"
b111000 B"
b111000 P"
1!
#44
0!
#45
0&
b100 W
b100 h
b100 o
b10 Y
b10 1"
b10 E"
0T
b0 H
b0 /"
b0 A"
b11 [
b11 e
b11 ~
b1 \
b1 g
b1 y
b1000000 9
b1000000 H"
b1000000 O"
b1011 -"
b1101 ,"
b1110 +"
b10 R
b10 0"
b10 R"
b1011 T"
bx ^
bx 2"
bx Q"
b1101 S"
b110011 D"
b11 :
b11 ""
b11 K"
b1110000011110010011 F
b1110000011110010011 ="
b1110000011110010011 C"
b1000000 *
b1000000 `
b1000000 F"
b111100 8
b111100 a
b111100 <"
b111100 B"
b111100 P"
b101101101000011100110011 E
b101101101000011100110011 >"
b101101101000011100110011 @"
b111000 6
b111000 ."
b111000 ?"
b11 +
b11 $"
b11 ;"
b1010 ,
b1010 %"
b1010 :"
b1101 4
b1101 q
b1101 9"
b11 G
b11 d
b11 7"
b11 J"
bx P
bx r
bx 5"
bx I"
b1 ]
b1 {
b1 3"
b110111 )
b110111 b
b110111 p
b110100 7
b110100 c
b110100 8"
b110000 (
b110000 v
b110000 G"
1!
#46
0!
#47
0&
b110 W
b110 h
b110 o
b0 Y
b0 1"
b0 E"
1T
b1 L
b1 x
b1 '"
b10 [
b10 e
b10 ~
b100 \
b100 g
b100 y
b10 :
b10 ""
b10 K"
b0 -"
b1110 ,"
b1111 +"
b0 R
b0 0"
b0 R"
b0 T"
b1110 S"
b10011 D"
b1000100 9
b1000100 H"
b1000100 O"
b1101 5
b1101 u
b1101 #"
b1101 X"
bx Q
bx l
bx t
b100 V
b100 n
b100 s
b100 w
b100 |
b100 W"
b110111 (
b110111 v
b110111 G"
0%
b1011 +
b1011 $"
b1011 ;"
b1101 ,
b1101 %"
b1101 :"
b1110 4
b1110 q
b1110 9"
b0 G
b0 d
b0 7"
b0 J"
b10 P
b10 r
b10 5"
b10 I"
bx ]
bx {
bx 3"
b111000 )
b111000 b
b111000 p
b111000 7
b111000 c
b111000 8"
b10 X
b10 j
b10 4"
0S
b1110000011110010011 E
b1110000011110010011 >"
b1110000011110010011 @"
b111100 6
b111100 ."
b111100 ?"
b1000000101101111000100000110011 F
b1000000101101111000100000110011 ="
b1000000101101111000100000110011 C"
b1000100 *
b1000100 `
b1000100 F"
b1000000 8
b1000000 a
b1000000 <"
b1000000 B"
b1000000 P"
1!
#48
0!
#49
b110 W
b110 h
b110 o
b10 Y
b10 1"
b10 E"
0T
b0 [
b0 e
b0 ~
b110 \
b110 g
b110 y
b1001000 9
b1001000 H"
b1001000 O"
b1011 -"
b1111 ,"
b10000 +"
1*"
b10 R
b10 0"
b10 R"
b1011 T"
b1111 S"
b110011 D"
b0 :
b0 ""
b0 K"
b100 '
b100 z
b100 !"
b100 L"
b100 U"
b10000000100010010011 F
b10000000100010010011 ="
b10000000100010010011 C"
b1001000 *
b1001000 `
b1001000 F"
b1000100 8
b1000100 a
b1000100 <"
b1000100 B"
b1000100 P"
b1000000101101111000100000110011 E
b1000000101101111000100000110011 >"
b1000000101101111000100000110011 @"
b1000000 6
b1000000 ."
b1000000 ?"
b0 +
b0 $"
b0 ;"
b1110 ,
b1110 %"
b1110 :"
b1111 4
b1111 q
b1111 9"
b0 P
b0 r
b0 5"
b0 I"
b111100 )
b111100 b
b111100 p
b111100 7
b111100 c
b111100 8"
b0 X
b0 j
b0 4"
1S
b1110 5
b1110 u
b1110 #"
b1110 X"
b10 Q
b10 l
b10 t
b110 V
b110 n
b110 s
b110 w
b110 |
b110 W"
b111000 (
b111000 v
b111000 G"
b1101 3
b1101 &"
b1101 V"
b1101 ["
b100 U
b100 N"
b100 Z"
1!
#50
0!
#51
b100 W
b100 h
b100 o
b0 Y
b0 1"
b0 E"
1T
b110 Z
b110 f
b110 k
b10 [
b10 e
b10 ~
b110 '
b110 z
b110 !"
b110 L"
b110 U"
b10 :
b10 ""
b10 K"
b0 -"
b10000 ,"
b10001 +"
0*"
b0 R
b0 0"
b0 R"
b0 T"
b10000 S"
b10011 D"
b1001100 9
b1001100 H"
b1001100 O"
b1110 3
b1110 &"
b1110 V"
b1110 ["
b110 U
b110 N"
b110 Z"
b1111 5
b1111 u
b1111 #"
b1111 X"
b0 Q
b0 l
b0 t
b111100 (
b111100 v
b111100 G"
b1011 +
b1011 $"
b1011 ;"
b1111 ,
b1111 %"
b1111 :"
1I
b10000 4
b10000 q
b10000 9"
b10 P
b10 r
b10 5"
b10 I"
b1000000 )
b1000000 b
b1000000 p
b1000000 7
b1000000 c
b1000000 8"
b10 X
b10 j
b10 4"
0S
b10000000100010010011 E
b10000000100010010011 >"
b10000000100010010011 @"
b1000100 6
b1000100 ."
b1000100 ?"
b101100000010000000100011 F
b101100000010000000100011 ="
b101100000010000000100011 C"
b1001100 *
b1001100 `
b1001100 F"
b1001000 8
b1001000 a
b1001000 <"
b1001000 B"
b1001000 P"
1!
#52
0!
#53
b100 W
b100 h
b100 o
00
1=
b10 Z
b10 f
b10 k
b0 [
b0 e
b0 ~
b100 \
b100 g
b100 y
b1010000 9
b1010000 H"
b1010000 O"
b1011 -"
b0 ,"
b0 +"
b10 )"
b10 R
b10 0"
b10 R"
b1011 T"
b0 ^
b0 2"
b0 Q"
b0 S"
b100011 D"
b0 :
b0 ""
b0 K"
b10011 F
b10011 ="
b10011 C"
b1010000 *
b1010000 `
b1010000 F"
b1001100 8
b1001100 a
b1001100 <"
b1001100 B"
b1001100 P"
b101100000010000000100011 E
b101100000010000000100011 >"
b101100000010000000100011 @"
b1001000 6
b1001000 ."
b1001000 ?"
b0 +
b0 $"
b0 ;"
b10000 ,
b10000 %"
b10000 :"
0I
b10001 4
b10001 q
b10001 9"
b0 P
b0 r
b0 5"
b0 I"
b1000100 )
b1000100 b
b1000100 p
b1000100 7
b1000100 c
b1000100 8"
b0 X
b0 j
b0 4"
1S
b10000 5
b10000 u
b10000 #"
b10000 X"
b10 Q
b10 l
b10 t
b100 V
b100 n
b100 s
b100 w
b100 |
b100 W"
b1000000 (
b1000000 v
b1000000 G"
b1111 3
b1111 &"
b1111 V"
b1111 ["
1!
#54
0!
#55
1&
b0 W
b0 h
b0 o
b0 \
b0 g
b0 y
10
0=
b0 L
b0 x
b0 '"
b100 '
b100 z
b100 !"
b100 L"
b100 U"
b0 -"
b0 )"
b0 R
b0 0"
b0 R"
b0 T"
b10011 D"
b1010100 9
b1010100 H"
b1010100 O"
b10000 3
b10000 &"
b10000 V"
b10000 ["
b100 U
b100 N"
b100 Z"
b10001 5
b10001 u
b10001 #"
b10001 X"
b0 Q
b0 l
b0 t
b1000100 (
b1000100 v
b1000100 G"
b1011 +
b1011 $"
b1011 ;"
b0 ,
b0 %"
b0 :"
0.
b10 J
b10 i
b10 6"
b0 4
b0 q
b0 9"
b10 P
b10 r
b10 5"
b10 I"
b0 ]
b0 {
b0 3"
b1001000 )
b1001000 b
b1001000 p
b1001000 7
b1001000 c
b1001000 8"
1;
b10011 E
b10011 >"
b10011 @"
b1001100 6
b1001100 ."
b1001100 ?"
b1010100 *
b1010100 `
b1010100 F"
b1010000 8
b1010000 a
b1010000 <"
b1010000 B"
b1010000 P"
1!
#56
0!
