Khizar/vcd/riscv.vcd
$date
	Sat Sep 23 17:05:08 2023
$end
$version
	Icarus Verilog
$end
$timescale
	1s
$end
$scope module riscv_tb $end
$var reg 1 ! clk $end
$var reg 1 " rst $end
$scope module core $end
$var wire 1 ! clk $end
$var wire 1 # overflow $end
$var wire 1 " rst $end
$var wire 1 $ select $end
$var wire 1 % zero $end
$var wire 32 & writedata [31:0] $end
$var wire 32 ' write_out [31:0] $end
$var wire 32 ( sumB [31:0] $end
$var wire 32 ) sumA [31:0] $end
$var wire 1 * regwrite $end
$var wire 32 + readdata [31:0] $end
$var wire 32 , pc_or_rs1 [31:0] $end
$var wire 32 - pc [31:0] $end
$var wire 32 . newpc [31:0] $end
$var wire 32 / mux_out [31:0] $end
$var wire 1 0 memwrite $end
$var wire 1 1 memtoreg $end
$var wire 1 2 memread $end
$var wire 1 3 jal_select $end
$var wire 1 4 islink $end
$var wire 32 5 instruction [31:0] $end
$var wire 32 6 immediate [31:0] $end
$var wire 1 7 branch $end
$var wire 32 8 b [31:0] $end
$var wire 1 9 alusrc $end
$var wire 2 : aluop [1:0] $end
$var wire 4 ; aluctl [3:0] $end
$var wire 32 < alu_out [31:0] $end
$var wire 32 = a [31:0] $end
$scope module adder $end
$var wire 32 > in2 [31:0] $end
$var wire 32 ? out [31:0] $end
$var wire 32 @ in1 [31:0] $end
$upscope $end
$scope module adder2 $end
$var wire 32 A out [31:0] $end
$var wire 32 B in2 [31:0] $end
$var wire 32 C in1 [31:0] $end
$upscope $end
$scope module alu $end
$var wire 1 # overflow $end
$var wire 1 % zero $end
$var wire 32 D b [31:0] $end
$var wire 4 E aluctl [3:0] $end
$var wire 32 F a [31:0] $end
$var reg 32 G out [31:0] $end
$upscope $end
$scope module alucon $end
$var wire 3 H func3 [2:0] $end
$var wire 7 I func7 [6:0] $end
$var wire 2 J aluop [1:0] $end
$var reg 4 K aluctl [3:0] $end
$upscope $end
$scope module datamem $end
$var wire 10 L address [9:0] $end
$var wire 1 ! clk $end
$var wire 32 M writedata [31:0] $end
$var wire 32 N readdata [31:0] $end
$var wire 1 0 memwrite $end
$var wire 1 2 memread $end
$upscope $end
$scope module immgen $end
$var wire 32 O instruction [31:0] $end
$var parameter 7 P I $end
$var parameter 7 Q I_LD $end
$var parameter 7 R J $end
$var parameter 7 S S $end
$var parameter 7 T SB $end
$var reg 32 U result [31:0] $end
$upscope $end
$scope module insmem $end
$var wire 32 V pc [31:0] $end
$var wire 32 W instruction [31:0] $end
$upscope $end
$scope module maincon $end
$var wire 7 X opcode [6:0] $end
$var parameter 7 Y I $end
$var parameter 7 Z I_LD $end
$var parameter 7 [ J $end
$var parameter 7 \ J_R $end
$var parameter 7 ] R $end
$var parameter 7 ^ S $end
$var parameter 7 _ SB $end
$var reg 2 ` aluop [1:0] $end
$var reg 1 9 alusrc $end
$var reg 1 7 branch $end
$var reg 1 3 jal_select $end
$var reg 1 2 memread $end
$var reg 1 1 memtoreg $end
$var reg 1 0 memwrite $end
$var reg 1 * regwrite $end
$upscope $end
$scope module mux1 $end
$var wire 32 a in1 [31:0] $end
$var wire 32 b in2 [31:0] $end
$var wire 1 $ s $end
$var wire 32 c out [31:0] $end
$upscope $end
$scope module mux2 $end
$var wire 32 d in2 [31:0] $end
$var wire 1 3 s $end
$var wire 32 e out [31:0] $end
$var wire 32 f in1 [31:0] $end
$upscope $end
$scope module mux3 $end
$var wire 32 g in2 [31:0] $end
$var wire 1 9 s $end
$var wire 32 h out [31:0] $end
$var wire 32 i in1 [31:0] $end
$upscope $end
$scope module mux4 $end
$var wire 32 j in1 [31:0] $end
$var wire 32 k in2 [31:0] $end
$var wire 1 1 s $end
$var wire 32 l out [31:0] $end
$upscope $end
$scope module pcmod $end
$var wire 1 ! clk $end
$var wire 32 m in [31:0] $end
$var wire 1 " rst $end
$var reg 32 n out [31:0] $end
$upscope $end
$scope module pcrs1 $end
$var wire 32 o in1 [31:0] $end
$var wire 1 4 s $end
$var wire 32 p out [31:0] $end
$var wire 32 q in2 [31:0] $end
$upscope $end
$scope module regfile $end
$var wire 1 ! clk $end
$var wire 5 r rd [4:0] $end
$var wire 32 s readdata1 [31:0] $end
$var wire 32 t readdata2 [31:0] $end
$var wire 1 * regwrite $end
$var wire 5 u rs1 [4:0] $end
$var wire 5 v rs2 [4:0] $end
$var wire 32 w writedata [31:0] $end
$upscope $end
$upscope $end
$upscope $end
$enddefinitions $end
$comment Show the parameter values. $end
$dumpall
b1100011 _
b100011 ^
b110011 ]
b1100111 \
b1101111 [
b11 Z
b10011 Y
b1100011 T
b100011 S
b1101111 R
b11 Q
b10011 P
$end
#0
$dumpvars
bx w
bx v
bx u
bx t
bx s
bx r
bx q
bx p
bx o
bx n
bx m
bx l
bx k
bx j
bx i
bx h
bx g
bx f
bx e
bx d
bx c
bx b
bx a
bx `
bx X
bx W
bx V
bx U
bx O
bx N
bx M
bx L
bx K
bx J
bx I
bx H
bx G
bx F
bx E
bx D
bx C
bx B
bx A
bx @
bx ?
b100 >
bx =
bx <
bx ;
bx :
x9
bx 8
x7
bx 6
bx 5
x4
x3
x2
x1
x0
bx /
bx .
bx -
bx ,
bx +
x*
bx )
bx (
bx '
bx &
x%
x$
z#
x"
0!
$end
#1
b0 +
b0 N
b0 k
0$
b100000000 &
b100000000 e
b100000000 w
b100000000 '
b100000000 f
b100000000 l
b100000000 L
b100000000 /
b100000000 D
b100000000 h
b100 .
b100 c
b100 m
b0 :
b0 J
b0 `
19
01
1*
02
00
07
03
0%
b100000000 <
b100000000 G
b100000000 j
b10 ;
b10 E
b10 K
b100000000 (
b100000000 A
b100000000 b
b100000000 6
b100000000 C
b100000000 U
b100000000 g
b0 ,
b0 B
b0 p
b10011 X
04
b0 H
b11 r
b0 =
b0 F
b0 q
b0 s
b0 u
b1000 I
b0 8
b0 M
b0 i
b0 t
b0 v
b10000000000000000000110010011 5
b10000000000000000000110010011 O
b10000000000000000000110010011 W
b100 )
b100 ?
b100 a
b100 d
b0 -
b0 @
b0 V
b0 n
b0 o
1"
1!
#2
0"
0!
#3
b10100 &
b10100 e
b10100 w
b10100 '
b10100 f
b10100 l
b10100 L
b10100 <
b10100 G
b10100 j
b10100 /
b10100 D
b10100 h
b10100 6
b10100 C
b10100 U
b10100 g
b11000 (
b11000 A
b11000 b
b100 ,
b100 B
b100 p
b100 r
b0 I
bx 8
bx M
bx i
bx t
b10100 v
b1000 .
b1000 c
b1000 m
b1010000000000001000010011 5
b1010000000000001000010011 O
b1010000000000001000010011 W
b1000 )
b1000 ?
b1000 a
b1000 d
b100 -
b100 @
b100 V
b100 n
b100 o
1!
#4
0!
#5
b0 &
b0 e
b0 w
b0 '
b0 f
b0 l
b0 L
1%
b0 <
b0 G
b0 j
b0 /
b0 D
b0 h
b0 6
b0 C
b0 U
b0 g
b1000 (
b1000 A
b1000 b
b1000 ,
b1000 B
b1000 p
b1 r
b0 8
b0 M
b0 i
b0 t
b0 v
b1100 .
b1100 c
b1100 m
b10010011 5
b10010011 O
b10010011 W
b1100 )
b1100 ?
b1100 a
b1100 d
b1000 -
b1000 @
b1000 V
b1000 n
b1000 o
1!
#6
0!
#7
b11111111111111111111111111101100 &
b11111111111111111111111111101100 e
b11111111111111111111111111101100 w
b11111111111111111111111111101100 '
b11111111111111111111111111101100 f
b11111111111111111111111111101100 l
b1111101100 L
0%
b11111111111111111111111111101100 <
b11111111111111111111111111101100 G
b11111111111111111111111111101100 j
b110 ;
b110 E
b110 K
0$
b10100 /
b10100 D
b10100 h
b1 :
b1 J
b1 `
09
0*
17
b11000 6
b11000 C
b11000 U
b11000 g
b100100 (
b100100 A
b100100 b
b1100 ,
b1100 B
b1100 p
b1100011 X
b11000 r
b1 u
b10100 8
b10100 M
b10100 i
b10100 t
b100 v
b10000 .
b10000 c
b10000 m
b10000001000110001100011 5
b10000001000110001100011 O
b10000001000110001100011 W
b10000 )
b10000 ?
b10000 a
b10000 d
b1100 -
b1100 @
b1100 V
b1100 n
b1100 o
1!
#8
0!
#9
b10 ;
b10 E
b10 K
b10 &
b10 e
b10 w
b10 '
b10 f
b10 l
b10 L
0%
b10 <
b10 G
b10 j
b0 :
b0 J
b0 `
19
1*
07
b10 6
b10 C
b10 U
b10 g
b10 /
b10 D
b10 h
b10010 (
b10010 A
b10010 b
b10000 ,
b10000 B
b10000 p
b10011 X
b1 H
b10 r
bx 8
bx M
bx i
bx t
b10 v
b10100 .
b10100 c
b10100 m
b1000001001000100010011 5
b1000001001000100010011 O
b1000001001000100010011 W
b10100 )
b10100 ?
b10100 a
b10100 d
b10000 -
b10000 @
b10000 V
b10000 n
b10000 o
1!
#10
0!
#11
b100000010 &
b100000010 e
b100000010 w
b100000010 '
b100000010 f
b100000010 l
b100000010 L
b100000000 /
b100000000 D
b100000000 h
b10 :
b10 J
b10 `
09
b100000010 <
b100000010 G
b100000010 j
b0 6
b0 C
b0 U
b0 g
b10100 (
b10100 A
b10100 b
b10100 ,
b10100 B
b10100 p
b110011 X
b0 H
b11 v
b10 =
b10 F
b10 q
b10 s
b10 u
b11000 .
b11000 c
b11000 m
b100000000 8
b100000000 M
b100000000 i
b100000000 t
b1100010000000100110011 5
b1100010000000100110011 O
b1100010000000100110011 W
b11000 )
b11000 ?
b11000 a
b11000 d
b10100 -
b10100 @
b10100 V
b10100 n
b10100 o
1!
#12
0!
#13
b100000010 &
b100000010 e
b100000010 w
b100000010 '
b100000010 f
b100000010 l
b100000010 L
0%
b0 :
b0 J
b0 `
19
0*
10
b10 ;
b10 E
b10 K
b100000010 <
b100000010 G
b100000010 j
b0 /
b0 D
b0 h
b11000 (
b11000 A
b11000 b
b11000 ,
b11000 B
b11000 p
b100011 X
b10 H
b0 r
b0 8
b0 M
b0 i
b0 t
b1 v
b11100 .
b11100 c
b11100 m
b100010010000000100011 5
b100010010000000100011 O
b100010010000000100011 W
b11100 )
b11100 ?
b11100 a
b11100 d
b11000 -
b11000 @
b11000 V
b11000 n
b11000 o
b100000010 =
b100000010 F
b100000010 q
b100000010 s
1!
#14
0!
#15
b1 &
b1 e
b1 w
b1 '
b1 f
b1 l
b1 L
b1 /
b1 D
b1 h
1*
00
0%
b1 <
b1 G
b1 j
b1 6
b1 C
b1 U
b1 g
b11101 (
b11101 A
b11101 b
b11100 ,
b11100 B
b11100 p
b1 r
b10011 X
b0 H
b0 =
b0 F
b0 q
b0 s
b1 u
b100000 .
b100000 c
b100000 m
b100001000000010010011 5
b100001000000010010011 O
b100001000000010010011 W
b100000 )
b100000 ?
b100000 a
b100000 d
b11100 -
b11100 @
b11100 V
b11100 n
b11100 o
1!
#16
0!
#17
1$
b100100 &
b100100 e
b100100 w
b11111111111111111111111111101100 /
b11111111111111111111111111101100 D
b11111111111111111111111111101100 h
bx '
bx f
bx l
bx L
b1 :
b1 J
b1 `
17
13
x%
b11111111111111111111111111101100 6
b11111111111111111111111111101100 C
b11111111111111111111111111101100 U
b11111111111111111111111111101100 g
bx <
bx G
bx j
b1100 (
b1100 A
b1100 b
b100000 ,
b100000 B
b100000 p
b0 r
b1101111 X
b111 H
b1101 v
b11111 u
b1111111 I
b1100 .
b1100 c
b1100 m
b11111110110111111111000001101111 5
b11111110110111111111000001101111 O
b11111110110111111111000001101111 W
b100100 )
b100100 ?
b100100 a
b100100 d
b100000 -
b100000 @
b100000 V
b100000 n
b100000 o
bx =
bx F
bx q
bx s
bx 8
bx M
bx i
bx t
1!
#18
0!
#19
0$
b11111111111111111111111111101101 '
b11111111111111111111111111101101 f
b11111111111111111111111111101101 l
b1111101101 L
b10100 /
b10100 D
b10100 h
09
0*
03
0%
b11111111111111111111111111101101 <
b11111111111111111111111111101101 G
b11111111111111111111111111101101 j
b110 ;
b110 E
b110 K
b11000 6
b11000 C
b11000 U
b11000 g
b10000 .
b10000 c
b10000 m
b100100 (
b100100 A
b100100 b
b1100 ,
b1100 B
b1100 p
b1100011 X
b0 H
b11000 r
b10100 8
b10100 M
b10100 i
b10100 t
b100 v
b1 =
b1 F
b1 q
b1 s
b1 u
b0 I
b11111111111111111111111111101101 &
b11111111111111111111111111101101 e
b11111111111111111111111111101101 w
b10000001000110001100011 5
b10000001000110001100011 O
b10000001000110001100011 W
b10000 )
b10000 ?
b10000 a
b10000 d
b1100 -
b1100 @
b1100 V
b1100 n
b1100 o
1!
#20
0!
#21
b10 ;
b10 E
b10 K
b11 &
b11 e
b11 w
b11 '
b11 f
b11 l
b11 L
b11 <
b11 G
b11 j
b0 :
b0 J
b0 `
19
1*
07
b10 6
b10 C
b10 U
b10 g
b10 /
b10 D
b10 h
b10010 (
b10010 A
b10010 b
b10000 ,
b10000 B
b10000 p
b10011 X
b1 H
b10 r
b100000010 8
b100000010 M
b100000010 i
b100000010 t
b10 v
b10100 .
b10100 c
b10100 m
b1000001001000100010011 5
b1000001001000100010011 O
b1000001001000100010011 W
b10100 )
b10100 ?
b10100 a
b10100 d
b10000 -
b10000 @
b10000 V
b10000 n
b10000 o
1!
#22
0!
#23
b100000011 &
b100000011 e
b100000011 w
b100000011 '
b100000011 f
b100000011 l
b100000011 L
b100000000 /
b100000000 D
b100000000 h
b10 :
b10 J
b10 `
09
b100000011 <
b100000011 G
b100000011 j
b0 6
b0 C
b0 U
b0 g
b10100 (
b10100 A
b10100 b
b10100 ,
b10100 B
b10100 p
b110011 X
b0 H
b11 v
b11 =
b11 F
b11 q
b11 s
b10 u
b11000 .
b11000 c
b11000 m
b100000000 8
b100000000 M
b100000000 i
b100000000 t
b1100010000000100110011 5
b1100010000000100110011 O
b1100010000000100110011 W
b11000 )
b11000 ?
b11000 a
b11000 d
b10100 -
b10100 @
b10100 V
b10100 n
b10100 o
1!
#24
0!
#25
0%
b100000011 &
b100000011 e
b100000011 w
b100000011 '
b100000011 f
b100000011 l
b100000011 L
b0 :
b0 J
b0 `
19
0*
10
b10 ;
b10 E
b10 K
b100000011 <
b100000011 G
b100000011 j
b0 /
b0 D
b0 h
b11000 (
b11000 A
b11000 b
b11000 ,
b11000 B
b11000 p
b100011 X
b10 H
b0 r
b1 8
b1 M
b1 i
b1 t
b1 v
b11100 .
b11100 c
b11100 m
b100010010000000100011 5
b100010010000000100011 O
b100010010000000100011 W
b11100 )
b11100 ?
b11100 a
b11100 d
b11000 -
b11000 @
b11000 V
b11000 n
b11000 o
b100000011 =
b100000011 F
b100000011 q
b100000011 s
1!
#26
0!
#27
b10 &
b10 e
b10 w
b10 '
b10 f
b10 l
b10 L
b1 /
b1 D
b1 h
1*
00
b10 <
b10 G
b10 j
b1 6
b1 C
b1 U
b1 g
b11101 (
b11101 A
b11101 b
b11100 ,
b11100 B
b11100 p
b1 r
b10011 X
b0 H
b1 =
b1 F
b1 q
b1 s
b1 u
b100000 .
b100000 c
b100000 m
b100001000000010010011 5
b100001000000010010011 O
b100001000000010010011 W
b100000 )
b100000 ?
b100000 a
b100000 d
b11100 -
b11100 @
b11100 V
b11100 n
b11100 o
1!
#28
0!
#29
1$
b100100 &
b100100 e
b100100 w
b11111111111111111111111111101100 /
b11111111111111111111111111101100 D
b11111111111111111111111111101100 h
bx '
bx f
bx l
bx L
b1 :
b1 J
b1 `
17
13
x%
b11111111111111111111111111101100 6
b11111111111111111111111111101100 C
b11111111111111111111111111101100 U
b11111111111111111111111111101100 g
bx <
bx G
bx j
b1100 (
b1100 A
b1100 b
b100000 ,
b100000 B
b100000 p
b0 r
b1101111 X
b111 H
b1101 v
b11111 u
b1111111 I
b1100 .
b1100 c
b1100 m
b11111110110111111111000001101111 5
b11111110110111111111000001101111 O
b11111110110111111111000001101111 W
b100100 )
b100100 ?
b100100 a
b100100 d
b100000 -
b100000 @
b100000 V
b100000 n
b100000 o
bx =
bx F
bx q
bx s
bx 8
bx M
bx i
bx t
1!
#30
0!
#31
0$
b11111111111111111111111111101110 '
b11111111111111111111111111101110 f
b11111111111111111111111111101110 l
b1111101110 L
b10100 /
b10100 D
b10100 h
09
0*
03
0%
b11111111111111111111111111101110 <
b11111111111111111111111111101110 G
b11111111111111111111111111101110 j
b110 ;
b110 E
b110 K
b11000 6
b11000 C
b11000 U
b11000 g
b10000 .
b10000 c
b10000 m
b100100 (
b100100 A
b100100 b
b1100 ,
b1100 B
b1100 p
b1100011 X
b0 H
b11000 r
b10100 8
b10100 M
b10100 i
b10100 t
b100 v
b10 =
b10 F
b10 q
b10 s
b1 u
b0 I
b11111111111111111111111111101110 &
b11111111111111111111111111101110 e
b11111111111111111111111111101110 w
b10000001000110001100011 5
b10000001000110001100011 O
b10000001000110001100011 W
b10000 )
b10000 ?
b10000 a
b10000 d
b1100 -
b1100 @
b1100 V
b1100 n
b1100 o
1!
#32
0!
#33
0%
b10 ;
b10 E
b10 K
b100 &
b100 e
b100 w
b100 '
b100 f
b100 l
b100 L
b100 <
b100 G
b100 j
b0 :
b0 J
b0 `
19
1*
07
b10 6
b10 C
b10 U
b10 g
b10 /
b10 D
b10 h
b10010 (
b10010 A
b10010 b
b10000 ,
b10000 B
b10000 p
b10011 X
b1 H
b10 r
b100000011 8
b100000011 M
b100000011 i
b100000011 t
b10 v
b10100 .
b10100 c
b10100 m
b1000001001000100010011 5
b1000001001000100010011 O
b1000001001000100010011 W
b10100 )
b10100 ?
b10100 a
b10100 d
b10000 -
b10000 @
b10000 V
b10000 n
b10000 o
1!
#34
0!
#35
b100000100 &
b100000100 e
b100000100 w
b100000100 '
b100000100 f
b100000100 l
b100000100 L
b100000000 /
b100000000 D
b100000000 h
b10 :
b10 J
b10 `
09
b100000100 <
b100000100 G
b100000100 j
b0 6
b0 C
b0 U
b0 g
b10100 (
b10100 A
b10100 b
b10100 ,
b10100 B
b10100 p
b110011 X
b0 H
b11 v
b100 =
b100 F
b100 q
b100 s
b10 u
b11000 .
b11000 c
b11000 m
b100000000 8
b100000000 M
b100000000 i
b100000000 t
b1100010000000100110011 5
b1100010000000100110011 O
b1100010000000100110011 W
b11000 )
b11000 ?
b11000 a
b11000 d
b10100 -
b10100 @
b10100 V
b10100 n
b10100 o
1!
#36
0!
#37
0%
b100000100 &
b100000100 e
b100000100 w
b100000100 '
b100000100 f
b100000100 l
b100000100 L
b0 :
b0 J
b0 `
19
0*
10
b10 ;
b10 E
b10 K
b100000100 <
b100000100 G
b100000100 j
b0 /
b0 D
b0 h
b11000 (
b11000 A
b11000 b
b11000 ,
b11000 B
b11000 p
b100011 X
b10 H
b0 r
b10 8
b10 M
b10 i
b10 t
b1 v
b11100 .
b11100 c
b11100 m
b100010010000000100011 5
b100010010000000100011 O
b100010010000000100011 W
b11100 )
b11100 ?
b11100 a
b11100 d
b11000 -
b11000 @
b11000 V
b11000 n
b11000 o
b100000100 =
b100000100 F
b100000100 q
b100000100 s
1!
#38
0!
#39
b11 &
b11 e
b11 w
b11 '
b11 f
b11 l
b11 L
b1 /
b1 D
b1 h
1*
00
b11 <
b11 G
b11 j
b1 6
b1 C
b1 U
b1 g
b11101 (
b11101 A
b11101 b
b11100 ,
b11100 B
b11100 p
b1 r
b10011 X
b0 H
b10 =
b10 F
b10 q
b10 s
b1 u
b100000 .
b100000 c
b100000 m
b100001000000010010011 5
b100001000000010010011 O
b100001000000010010011 W
b100000 )
b100000 ?
b100000 a
b100000 d
b11100 -
b11100 @
b11100 V
b11100 n
b11100 o
1!
#40
0!
#41
1$
b100100 &
b100100 e
b100100 w
b11111111111111111111111111101100 /
b11111111111111111111111111101100 D
b11111111111111111111111111101100 h
bx '
bx f
bx l
bx L
b1 :
b1 J
b1 `
17
13
x%
b11111111111111111111111111101100 6
b11111111111111111111111111101100 C
b11111111111111111111111111101100 U
b11111111111111111111111111101100 g
bx <
bx G
bx j
b1100 (
b1100 A
b1100 b
b100000 ,
b100000 B
b100000 p
b0 r
b1101111 X
b111 H
b1101 v
b11111 u
b1111111 I
b1100 .
b1100 c
b1100 m
b11111110110111111111000001101111 5
b11111110110111111111000001101111 O
b11111110110111111111000001101111 W
b100100 )
b100100 ?
b100100 a
b100100 d
b100000 -
b100000 @
b100000 V
b100000 n
b100000 o
bx =
bx F
bx q
bx s
bx 8
bx M
bx i
bx t
1!
#42
0!
#43
0$
b11111111111111111111111111101111 '
b11111111111111111111111111101111 f
b11111111111111111111111111101111 l
b1111101111 L
b10100 /
b10100 D
b10100 h
09
0*
03
0%
b11111111111111111111111111101111 <
b11111111111111111111111111101111 G
b11111111111111111111111111101111 j
b110 ;
b110 E
b110 K
b11000 6
b11000 C
b11000 U
b11000 g
b10000 .
b10000 c
b10000 m
b100100 (
b100100 A
b100100 b
b1100 ,
b1100 B
b1100 p
b1100011 X
b0 H
b11000 r
b10100 8
b10100 M
b10100 i
b10100 t
b100 v
b11 =
b11 F
b11 q
b11 s
b1 u
b0 I
b11111111111111111111111111101111 &
b11111111111111111111111111101111 e
b11111111111111111111111111101111 w
b10000001000110001100011 5
b10000001000110001100011 O
b10000001000110001100011 W
b10000 )
b10000 ?
b10000 a
b10000 d
b1100 -
b1100 @
b1100 V
b1100 n
b1100 o
1!
#44
0!
#45
b10 ;
b10 E
b10 K
b101 &
b101 e
b101 w
b101 '
b101 f
b101 l
b101 L
b101 <
b101 G
b101 j
b0 :
b0 J
b0 `
19
1*
07
b10 6
b10 C
b10 U
b10 g
b10 /
b10 D
b10 h
b10010 (
b10010 A
b10010 b
b10000 ,
b10000 B
b10000 p
b10011 X
b1 H
b10 r
b100000100 8
b100000100 M
b100000100 i
b100000100 t
b10 v
b10100 .
b10100 c
b10100 m
b1000001001000100010011 5
b1000001001000100010011 O
b1000001001000100010011 W
b10100 )
b10100 ?
b10100 a
b10100 d
b10000 -
b10000 @
b10000 V
b10000 n
b10000 o
1!
#46
0!
#47
b100000101 &
b100000101 e
b100000101 w
b100000101 '
b100000101 f
b100000101 l
b100000101 L
b100000000 /
b100000000 D
b100000000 h
b10 :
b10 J
b10 `
09
b100000101 <
b100000101 G
b100000101 j
b0 6
b0 C
b0 U
b0 g
b10100 (
b10100 A
b10100 b
b10100 ,
b10100 B
b10100 p
b110011 X
b0 H
b11 v
b101 =
b101 F
b101 q
b101 s
b10 u
b11000 .
b11000 c
b11000 m
b100000000 8
b100000000 M
b100000000 i
b100000000 t
b1100010000000100110011 5
b1100010000000100110011 O
b1100010000000100110011 W
b11000 )
b11000 ?
b11000 a
b11000 d
b10100 -
b10100 @
b10100 V
b10100 n
b10100 o
1!
#48
0!
#49
0%
b100000101 &
b100000101 e
b100000101 w
b100000101 '
b100000101 f
b100000101 l
b100000101 L
b0 :
b0 J
b0 `
19
0*
10
b10 ;
b10 E
b10 K
b100000101 <
b100000101 G
b100000101 j
b0 /
b0 D
b0 h
b11000 (
b11000 A
b11000 b
b11000 ,
b11000 B
b11000 p
b100011 X
b10 H
b0 r
b11 8
b11 M
b11 i
b11 t
b1 v
b11100 .
b11100 c
b11100 m
b100010010000000100011 5
b100010010000000100011 O
b100010010000000100011 W
b11100 )
b11100 ?
b11100 a
b11100 d
b11000 -
b11000 @
b11000 V
b11000 n
b11000 o
b100000101 =
b100000101 F
b100000101 q
b100000101 s
1!
#50
0!
#51
b100 &
b100 e
b100 w
b100 '
b100 f
b100 l
b100 L
b1 /
b1 D
b1 h
1*
00
b100 <
b100 G
b100 j
b1 6
b1 C
b1 U
b1 g
b11101 (
b11101 A
b11101 b
b11100 ,
b11100 B
b11100 p
b1 r
b10011 X
b0 H
b11 =
b11 F
b11 q
b11 s
b1 u
b100000 .
b100000 c
b100000 m
b100001000000010010011 5
b100001000000010010011 O
b100001000000010010011 W
b100000 )
b100000 ?
b100000 a
b100000 d
b11100 -
b11100 @
b11100 V
b11100 n
b11100 o
1!
#52
0!
#53
1$
b100100 &
b100100 e
b100100 w
b11111111111111111111111111101100 /
b11111111111111111111111111101100 D
b11111111111111111111111111101100 h
bx '
bx f
bx l
bx L
b1 :
b1 J
b1 `
17
13
x%
b11111111111111111111111111101100 6
b11111111111111111111111111101100 C
b11111111111111111111111111101100 U
b11111111111111111111111111101100 g
bx <
bx G
bx j
b1100 (
b1100 A
b1100 b
b100000 ,
b100000 B
b100000 p
b0 r
b1101111 X
b111 H
b1101 v
b11111 u
b1111111 I
b1100 .
b1100 c
b1100 m
b11111110110111111111000001101111 5
b11111110110111111111000001101111 O
b11111110110111111111000001101111 W
b100100 )
b100100 ?
b100100 a
b100100 d
b100000 -
b100000 @
b100000 V
b100000 n
b100000 o
bx =
bx F
bx q
bx s
bx 8
bx M
bx i
bx t
1!
#54
0!
#55
0$
b11111111111111111111111111110000 '
b11111111111111111111111111110000 f
b11111111111111111111111111110000 l
b1111110000 L
b10100 /
b10100 D
b10100 h
09
0*
03
0%
b11111111111111111111111111110000 <
b11111111111111111111111111110000 G
b11111111111111111111111111110000 j
b110 ;
b110 E
b110 K
b11000 6
b11000 C
b11000 U
b11000 g
b10000 .
b10000 c
b10000 m
b100100 (
b100100 A
b100100 b
b1100 ,
b1100 B
b1100 p
b1100011 X
b0 H
b11000 r
b10100 8
b10100 M
b10100 i
b10100 t
b100 v
b100 =
b100 F
b100 q
b100 s
b1 u
b0 I
b11111111111111111111111111110000 &
b11111111111111111111111111110000 e
b11111111111111111111111111110000 w
b10000001000110001100011 5
b10000001000110001100011 O
b10000001000110001100011 W
b10000 )
b10000 ?
b10000 a
b10000 d
b1100 -
b1100 @
b1100 V
b1100 n
b1100 o
1!
#56
0!
#57
b10 ;
b10 E
b10 K
b110 &
b110 e
b110 w
b110 '
b110 f
b110 l
b110 L
b110 <
b110 G
b110 j
b0 :
b0 J
b0 `
19
1*
07
b10 6
b10 C
b10 U
b10 g
b10 /
b10 D
b10 h
b10010 (
b10010 A
b10010 b
b10000 ,
b10000 B
b10000 p
b10011 X
b1 H
b10 r
b100000101 8
b100000101 M
b100000101 i
b100000101 t
b10 v
b10100 .
b10100 c
b10100 m
b1000001001000100010011 5
b1000001001000100010011 O
b1000001001000100010011 W
b10100 )
b10100 ?
b10100 a
b10100 d
b10000 -
b10000 @
b10000 V
b10000 n
b10000 o
1!
#58
0!
#59
b100000110 &
b100000110 e
b100000110 w
b100000110 '
b100000110 f
b100000110 l
b100000110 L
b100000000 /
b100000000 D
b100000000 h
b10 :
b10 J
b10 `
09
b100000110 <
b100000110 G
b100000110 j
b0 6
b0 C
b0 U
b0 g
b10100 (
b10100 A
b10100 b
b10100 ,
b10100 B
b10100 p
b110011 X
b0 H
b11 v
b110 =
b110 F
b110 q
b110 s
b10 u
b11000 .
b11000 c
b11000 m
b100000000 8
b100000000 M
b100000000 i
b100000000 t
b1100010000000100110011 5
b1100010000000100110011 O
b1100010000000100110011 W
b11000 )
b11000 ?
b11000 a
b11000 d
b10100 -
b10100 @
b10100 V
b10100 n
b10100 o
1!
#60
0!
#61
0%
b100000110 &
b100000110 e
b100000110 w
b100000110 '
b100000110 f
b100000110 l
b100000110 L
b0 :
b0 J
b0 `
19
0*
10
b10 ;
b10 E
b10 K
b100000110 <
b100000110 G
b100000110 j
b0 /
b0 D
b0 h
b11000 (
b11000 A
b11000 b
b11000 ,
b11000 B
b11000 p
b100011 X
b10 H
b0 r
b100 8
b100 M
b100 i
b100 t
b1 v
b11100 .
b11100 c
b11100 m
b100010010000000100011 5
b100010010000000100011 O
b100010010000000100011 W
b11100 )
b11100 ?
b11100 a
b11100 d
b11000 -
b11000 @
b11000 V
b11000 n
b11000 o
b100000110 =
b100000110 F
b100000110 q
b100000110 s
1!
#62
0!
#63
b101 &
b101 e
b101 w
b101 '
b101 f
b101 l
b101 L
b1 /
b1 D
b1 h
1*
00
b101 <
b101 G
b101 j
b1 6
b1 C
b1 U
b1 g
b11101 (
b11101 A
b11101 b
b11100 ,
b11100 B
b11100 p
b1 r
b10011 X
b0 H
b100 =
b100 F
b100 q
b100 s
b1 u
b100000 .
b100000 c
b100000 m
b100001000000010010011 5
b100001000000010010011 O
b100001000000010010011 W
b100000 )
b100000 ?
b100000 a
b100000 d
b11100 -
b11100 @
b11100 V
b11100 n
b11100 o
1!
#64
0!
#65
1$
b100100 &
b100100 e
b100100 w
b11111111111111111111111111101100 /
b11111111111111111111111111101100 D
b11111111111111111111111111101100 h
bx '
bx f
bx l
bx L
b1 :
b1 J
b1 `
17
13
x%
b11111111111111111111111111101100 6
b11111111111111111111111111101100 C
b11111111111111111111111111101100 U
b11111111111111111111111111101100 g
bx <
bx G
bx j
b1100 (
b1100 A
b1100 b
b100000 ,
b100000 B
b100000 p
b0 r
b1101111 X
b111 H
b1101 v
b11111 u
b1111111 I
b1100 .
b1100 c
b1100 m
b11111110110111111111000001101111 5
b11111110110111111111000001101111 O
b11111110110111111111000001101111 W
b100100 )
b100100 ?
b100100 a
b100100 d
b100000 -
b100000 @
b100000 V
b100000 n
b100000 o
bx =
bx F
bx q
bx s
bx 8
bx M
bx i
bx t
1!
#66
0!
#67
0$
b11111111111111111111111111110001 '
b11111111111111111111111111110001 f
b11111111111111111111111111110001 l
b1111110001 L
b10100 /
b10100 D
b10100 h
09
0*
03
0%
b11111111111111111111111111110001 <
b11111111111111111111111111110001 G
b11111111111111111111111111110001 j
b110 ;
b110 E
b110 K
b11000 6
b11000 C
b11000 U
b11000 g
b10000 .
b10000 c
b10000 m
b100100 (
b100100 A
b100100 b
b1100 ,
b1100 B
b1100 p
b1100011 X
b0 H
b11000 r
b10100 8
b10100 M
b10100 i
b10100 t
b100 v
b101 =
b101 F
b101 q
b101 s
b1 u
b0 I
b11111111111111111111111111110001 &
b11111111111111111111111111110001 e
b11111111111111111111111111110001 w
b10000001000110001100011 5
b10000001000110001100011 O
b10000001000110001100011 W
b10000 )
b10000 ?
b10000 a
b10000 d
b1100 -
b1100 @
b1100 V
b1100 n
b1100 o
1!
#68
0!
