Khizar/vcd/riscv.vcd
$date
	Fri Sep 22 21:35:23 2023
$end
$version
	Icarus Verilog
$end
$timescale
	1s
$end
$scope module riscv_tb $end
$var reg 1 ! clk $end
$var reg 1 " rst $end
$scope module core $end
$var wire 1 ! clk $end
$var wire 1 # overflow $end
$var wire 1 " rst $end
$var wire 1 $ select $end
$var wire 1 % zero $end
$var wire 32 & writedata [31:0] $end
$var wire 32 ' write_out [31:0] $end
$var wire 32 ( sumB [31:0] $end
$var wire 32 ) sumA [31:0] $end
$var wire 1 * regwrite $end
$var wire 32 + readdata [31:0] $end
$var wire 32 , pc_or_rs1 [31:0] $end
$var wire 32 - pc [31:0] $end
$var wire 32 . newpc [31:0] $end
$var wire 32 / mux_out [31:0] $end
$var wire 1 0 memwrite $end
$var wire 1 1 memtoreg $end
$var wire 1 2 memread $end
$var wire 1 3 jal_select $end
$var wire 1 4 islink $end
$var wire 32 5 instruction [31:0] $end
$var wire 32 6 immediate [31:0] $end
$var wire 1 7 branch $end
$var wire 32 8 b [31:0] $end
$var wire 1 9 alusrc $end
$var wire 2 : aluop [1:0] $end
$var wire 4 ; aluctl [3:0] $end
$var wire 32 < alu_out [31:0] $end
$var wire 32 = a [31:0] $end
$scope module adder $end
$var wire 32 > in2 [31:0] $end
$var wire 32 ? out [31:0] $end
$var wire 32 @ in1 [31:0] $end
$upscope $end
$scope module adder2 $end
$var wire 32 A out [31:0] $end
$var wire 32 B in2 [31:0] $end
$var wire 32 C in1 [31:0] $end
$upscope $end
$scope module alu $end
$var wire 1 # overflow $end
$var wire 1 % zero $end
$var wire 32 D b [31:0] $end
$var wire 4 E aluctl [3:0] $end
$var wire 32 F a [31:0] $end
$var reg 32 G out [31:0] $end
$upscope $end
$scope module alucon $end
$var wire 3 H func3 [2:0] $end
$var wire 7 I func7 [6:0] $end
$var wire 2 J aluop [1:0] $end
$var reg 4 K aluctl [3:0] $end
$upscope $end
$scope module datamem $end
$var wire 10 L address [9:0] $end
$var wire 1 ! clk $end
$var wire 32 M writedata [31:0] $end
$var wire 32 N readdata [31:0] $end
$var wire 1 0 memwrite $end
$var wire 1 2 memread $end
$upscope $end
$scope module immgen $end
$var wire 32 O instruction [31:0] $end
$var parameter 7 P I $end
$var parameter 7 Q I_LD $end
$var parameter 7 R J $end
$var parameter 7 S S $end
$var parameter 7 T SB $end
$var reg 32 U result [31:0] $end
$upscope $end
$scope module insmem $end
$var wire 32 V pc [31:0] $end
$var wire 32 W instruction [31:0] $end
$upscope $end
$scope module maincon $end
$var wire 7 X opcode [6:0] $end
$var parameter 7 Y I $end
$var parameter 7 Z I_LD $end
$var parameter 7 [ J $end
$var parameter 7 \ J_R $end
$var parameter 7 ] R $end
$var parameter 7 ^ S $end
$var parameter 7 _ SB $end
$var reg 2 ` aluop [1:0] $end
$var reg 1 9 alusrc $end
$var reg 1 7 branch $end
$var reg 1 3 jal_select $end
$var reg 1 2 memread $end
$var reg 1 1 memtoreg $end
$var reg 1 0 memwrite $end
$var reg 1 * regwrite $end
$upscope $end
$scope module mux1 $end
$var wire 32 a in1 [31:0] $end
$var wire 32 b in2 [31:0] $end
$var wire 1 $ s $end
$var wire 32 c out [31:0] $end
$upscope $end
$scope module mux2 $end
$var wire 32 d in2 [31:0] $end
$var wire 1 3 s $end
$var wire 32 e out [31:0] $end
$var wire 32 f in1 [31:0] $end
$upscope $end
$scope module mux3 $end
$var wire 32 g in2 [31:0] $end
$var wire 1 9 s $end
$var wire 32 h out [31:0] $end
$var wire 32 i in1 [31:0] $end
$upscope $end
$scope module mux4 $end
$var wire 32 j in1 [31:0] $end
$var wire 32 k in2 [31:0] $end
$var wire 1 1 s $end
$var wire 32 l out [31:0] $end
$upscope $end
$scope module pcmod $end
$var wire 1 ! clk $end
$var wire 32 m in [31:0] $end
$var wire 1 " rst $end
$var reg 32 n out [31:0] $end
$upscope $end
$scope module pcrs1 $end
$var wire 32 o in1 [31:0] $end
$var wire 1 4 s $end
$var wire 32 p out [31:0] $end
$var wire 32 q in2 [31:0] $end
$upscope $end
$scope module regfile $end
$var wire 1 ! clk $end
$var wire 5 r rd [4:0] $end
$var wire 32 s readdata1 [31:0] $end
$var wire 32 t readdata2 [31:0] $end
$var wire 1 * regwrite $end
$var wire 5 u rs1 [4:0] $end
$var wire 5 v rs2 [4:0] $end
$var wire 32 w writedata [31:0] $end
$upscope $end
$upscope $end
$upscope $end
$enddefinitions $end
$comment Show the parameter values. $end
$dumpall
b1100011 _
b100011 ^
b110011 ]
b1100111 \
b1101111 [
b11 Z
b10011 Y
b1100011 T
b100011 S
b1101111 R
b11 Q
b10011 P
$end
#0
$dumpvars
bx w
bx v
bx u
bx t
bx s
bx r
bx q
bx p
bx o
bx n
bx m
bx l
bx k
bx j
bx i
bx h
bx g
bx f
bx e
bx d
bx c
bx b
bx a
bx `
bx X
bx W
bx V
bx U
bx O
bx N
bx M
bx L
bx K
bx J
bx I
bx H
bx G
bx F
bx E
bx D
bx C
bx B
bx A
bx @
bx ?
b100 >
bx =
bx <
bx ;
bx :
x9
bx 8
x7
bx 6
bx 5
x4
x3
x2
x1
x0
bx /
bx .
bx -
bx ,
bx +
x*
bx )
bx (
bx '
bx &
x%
x$
z#
x"
0!
$end
#1
b0 +
b0 N
b0 k
0$
b11001000 &
b11001000 e
b11001000 w
b11001000 '
b11001000 f
b11001000 l
b11001000 L
b11001000 /
b11001000 D
b11001000 h
b100 .
b100 c
b100 m
b0 :
b0 J
b0 `
19
01
1*
02
00
07
03
0%
b11001000 <
b11001000 G
b11001000 j
b10 ;
b10 E
b10 K
b11001000 (
b11001000 A
b11001000 b
b11001000 6
b11001000 C
b11001000 U
b11001000 g
b0 ,
b0 B
b0 p
b10011 X
04
b0 H
b10 r
b0 =
b0 F
b0 q
b0 s
b0 u
b110 I
b1000 v
b1100100000000000000100010011 5
b1100100000000000000100010011 O
b1100100000000000000100010011 W
b100 )
b100 ?
b100 a
b100 d
b0 -
b0 @
b0 V
b0 n
b0 o
1"
1!
#2
0"
0!
#3
b11111111111111111111111110010100 '
b11111111111111111111111110010100 f
b11111111111111111111111110010100 l
b1110010100 L
b11111111111111111111111110010100 <
b11111111111111111111111110010100 G
b11111111111111111111111110010100 j
b110 ;
b110 E
b110 K
1$
b1000 &
b1000 e
b1000 w
b1101100 /
b1101100 D
b1101100 h
b1 :
b1 J
b1 `
17
13
b1101100 6
b1101100 C
b1101100 U
b1101100 g
b1110000 (
b1110000 A
b1110000 b
b100 ,
b100 B
b100 p
b1101111 X
b0 r
b1100 v
b11 I
b1110000 .
b1110000 c
b1110000 m
b110110000000000000001101111 5
b110110000000000000001101111 O
b110110000000000000001101111 W
b1000 )
b1000 ?
b1000 a
b1000 d
b100 -
b100 @
b100 V
b100 n
b100 o
1!
#4
0!
#5
b1010 '
b1010 f
b1010 l
b1010 L
b1010 <
b1010 G
b1010 j
b10 ;
b10 E
b10 K
0$
b1010 /
b1010 D
b1010 h
b0 :
b0 J
b0 `
07
03
b1010 6
b1010 C
b1010 U
b1010 g
b1110100 .
b1110100 c
b1110100 m
b1111010 (
b1111010 A
b1111010 b
b1110000 ,
b1110000 B
b1110000 p
b10011 X
b1010 r
b1010 v
b0 I
b1010 &
b1010 e
b1010 w
b101000000000010100010011 5
b101000000000010100010011 O
b101000000000010100010011 W
b1110100 )
b1110100 ?
b1110100 a
b1110100 d
b1110000 -
b1110000 @
b1110000 V
b1110000 n
b1110000 o
1!
#6
0!
#7
1$
b1111000 &
b1111000 e
b1111000 w
bx '
bx f
bx l
bx L
b11111111111111111111111111011000 /
b11111111111111111111111111011000 D
b11111111111111111111111111011000 h
b1 :
b1 J
b1 `
17
13
x%
bx <
bx G
bx j
b11111111111111111111111111011000 6
b11111111111111111111111111011000 C
b11111111111111111111111111011000 U
b11111111111111111111111111011000 g
b1001100 (
b1001100 A
b1001100 b
b1110100 ,
b1110100 B
b1110100 p
b1101111 X
b111 H
b1 r
bx =
bx F
bx q
bx s
b11111 u
b1111110 I
b11001 v
b1001100 .
b1001100 c
b1001100 m
bx 8
bx M
bx i
bx t
b11111101100111111111000011101111 5
b11111101100111111111000011101111 O
b11111101100111111111000011101111 W
b1111000 )
b1111000 ?
b1111000 a
b1111000 d
b1110100 -
b1110100 @
b1110100 V
b1110100 n
b1110100 o
1!
#8
0!
#9
0$
b10111000 '
b10111000 f
b10111000 l
b10111000 L
b11111111111111111111111111110000 /
b11111111111111111111111111110000 D
b11111111111111111111111111110000 h
b0 :
b0 J
b0 `
07
03
0%
b10111000 <
b10111000 G
b10111000 j
b10 ;
b10 E
b10 K
b11111111111111111111111111110000 6
b11111111111111111111111111110000 C
b11111111111111111111111111110000 U
b11111111111111111111111111110000 g
b1010000 .
b1010000 c
b1010000 m
b111100 (
b111100 A
b111100 b
b1001100 ,
b1001100 B
b1001100 p
b10011 X
b0 H
b10 r
b10000 v
b11001000 =
b11001000 F
b11001000 q
b11001000 s
b10 u
b1111111 I
b10111000 &
b10111000 e
b10111000 w
b11111111000000010000000100010011 5
b11111111000000010000000100010011 O
b11111111000000010000000100010011 W
b1010000 )
b1010000 ?
b1010000 a
b1010000 d
b1001100 -
b1001100 @
b1001100 V
b1001100 n
b1001100 o
1!
#10
0!
#11
b11000100 &
b11000100 e
b11000100 w
b11000100 '
b11000100 f
b11000100 l
b11000100 L
b1100 /
b1100 D
b1100 h
0*
10
b11000100 <
b11000100 G
b11000100 j
b1100 6
b1100 C
b1100 U
b1100 g
b1011100 (
b1011100 A
b1011100 b
b1010000 ,
b1010000 B
b1010000 p
b100011 X
b10 H
b1100 r
b0 I
b1111000 8
b1111000 M
b1111000 i
b1111000 t
b1 v
b1010100 .
b1010100 c
b1010100 m
b10111000 =
b10111000 F
b10111000 q
b10111000 s
b100010010011000100011 5
b100010010011000100011 O
b100010010011000100011 W
b1010100 )
b1010100 ?
b1010100 a
b1010100 d
b1010000 -
b1010000 @
b1010000 V
b1010000 n
b1010000 o
1!
#12
0!
#13
b11000000 &
b11000000 e
b11000000 w
b11000000 '
b11000000 f
b11000000 l
b11000000 L
b11000000 <
b11000000 G
b11000000 j
b1000 /
b1000 D
b1000 h
b1000 6
b1000 C
b1000 U
b1000 g
b1011100 (
b1011100 A
b1011100 b
b1010100 ,
b1010100 B
b1010100 p
b1000 r
b0 8
b0 M
b0 i
b0 t
b0 v
b1011000 .
b1011000 c
b1011000 m
b10010010000100011 5
b10010010000100011 O
b10010010000100011 W
b1011000 )
b1011000 ?
b1011000 a
b1011000 d
b1010100 -
b1010100 @
b1010100 V
b1010100 n
b1010100 o
1!
#14
0!
#15
b1 &
b1 e
b1 w
b1 '
b1 f
b1 l
b1 L
b1 /
b1 D
b1 h
1*
00
b1 <
b1 G
b1 j
b1 6
b1 C
b1 U
b1 g
b1011001 (
b1011001 A
b1011001 b
b1011000 ,
b1011000 B
b1011000 p
b10011 X
b0 H
b1011 r
b1111000 8
b1111000 M
b1111000 i
b1111000 t
b1 v
b0 =
b0 F
b0 q
b0 s
b0 u
b1011100 .
b1011100 c
b1011100 m
b100000000010110010011 5
b100000000010110010011 O
b100000000010110010011 W
b1011100 )
b1011100 ?
b1011100 a
b1011100 d
b1011000 -
b1011000 @
b1011000 V
b1011000 n
b1011000 o
1!
#16
0!
#17
b10111100 &
b10111100 e
b10111100 w
b10111100 '
b10111100 f
b10111100 l
b10111100 L
b100 /
b100 D
b100 h
0*
10
b10111100 <
b10111100 G
b10111100 j
b100 6
b100 C
b100 U
b100 g
b1100000 (
b1100000 A
b1100000 b
b1011100 ,
b1011100 B
b1011100 p
b100011 X
b10 H
b100 r
b1 8
b1 M
b1 i
b1 t
b1011 v
b10111000 =
b10111000 F
b10111000 q
b10111000 s
b10 u
b1100000 .
b1100000 c
b1100000 m
b101100010010001000100011 5
b101100010010001000100011 O
b101100010010001000100011 W
b1100000 )
b1100000 ?
b1100000 a
b1100000 d
b1011100 -
b1011100 @
b1011100 V
b1011100 n
b1011100 o
1!
#18
0!
#19
b10 &
b10 e
b10 w
b10 '
b10 f
b10 l
b10 L
b1 /
b1 D
b1 h
1*
00
b10 <
b10 G
b10 j
b1 6
b1 C
b1 U
b1 g
b1100001 (
b1100001 A
b1100001 b
b1100000 ,
b1100000 B
b1100000 p
b10011 X
b0 H
b1011 r
b1111000 8
b1111000 M
b1111000 i
b1111000 t
b1 v
b1 =
b1 F
b1 q
b1 s
b1011 u
b1100100 .
b1100100 c
b1100100 m
b101011000010110010011 5
b101011000010110010011 O
b101011000010110010011 W
b1100100 )
b1100100 ?
b1100100 a
b1100100 d
b1100000 -
b1100000 @
b1100000 V
b1100000 n
b1100000 o
1!
#20
0!
#21
b10111000 &
b10111000 e
b10111000 w
b0 /
b0 D
b0 h
b10111000 '
b10111000 f
b10111000 l
b10111000 L
0*
10
b0 6
b0 C
b0 U
b0 g
b10111000 <
b10111000 G
b10111000 j
b1100100 (
b1100100 A
b1100100 b
b1100100 ,
b1100100 B
b1100100 p
b100011 X
b10 H
b0 r
b10 8
b10 M
b10 i
b10 t
b1011 v
b10 u
b1101000 .
b1101000 c
b1101000 m
b101100010010000000100011 5
b101100010010000000100011 O
b101100010010000000100011 W
b1101000 )
b1101000 ?
b1101000 a
b1101000 d
b1100100 -
b1100100 @
b1100100 V
b1100100 n
b1100100 o
b10111000 =
b10111000 F
b10111000 q
b10111000 s
1!
#22
0!
#23
b11 &
b11 e
b11 w
b11 '
b11 f
b11 l
b11 L
b11 /
b11 D
b11 h
1*
00
0%
b11 <
b11 G
b11 j
b11 6
b11 C
b11 U
b11 g
b1101011 (
b1101011 A
b1101011 b
b1101000 ,
b1101000 B
b1101000 p
b10011 X
b0 H
b1101 r
bx 8
bx M
bx i
bx t
b11 v
b0 =
b0 F
b0 q
b0 s
b0 u
b1101100 .
b1101100 c
b1101100 m
b1100000000011010010011 5
b1100000000011010010011 O
b1100000000011010010011 W
b1101100 )
b1101100 ?
b1101100 a
b1101100 d
b1101000 -
b1101000 @
b1101000 V
b1101000 n
b1101000 o
1!
#24
0!
#25
1$
1%
b111 ;
b111 E
b111 K
b0 &
b0 e
b0 w
b0 '
b0 f
b0 l
b0 L
b1 :
b1 J
b1 `
09
0*
17
b0 <
b0 G
b0 j
b11111111111111111111111110011100 6
b11111111111111111111111110011100 C
b11111111111111111111111110011100 U
b11111111111111111111111110011100 g
b1000 (
b1000 A
b1000 b
b1101100 ,
b1101100 B
b1101100 p
b1100011 X
b101 H
b11101 r
b11 8
b11 M
b11 i
b11 t
b1101 v
b1010 =
b1010 F
b1010 q
b1010 s
b1010 u
b1111100 I
b1000 .
b1000 c
b1000 m
b11111000110101010101111011100011 5
b11111000110101010101111011100011 O
b11111000110101010101111011100011 W
b1110000 )
b1110000 ?
b1110000 a
b1110000 d
b1101100 -
b1101100 @
b1101100 V
b1101100 n
b1101100 o
1!
#26
0!
#27
b10 ;
b10 E
b10 K
b0 &
b0 e
b0 w
b11000000 L
b0 '
b0 f
b0 l
b0 +
b0 N
b0 k
0$
0%
b11000000 <
b11000000 G
b11000000 j
b0 :
b0 J
b0 `
19
11
1*
12
07
b1000 6
b1000 C
b1000 U
b1000 g
b1100 .
b1100 c
b1100 m
b1000 /
b1000 D
b1000 h
b10000 (
b10000 A
b10000 b
b1000 ,
b1000 B
b1000 p
b11 X
b10 H
b1100 r
bx 8
bx M
bx i
bx t
b1000 v
b10111000 =
b10111000 F
b10111000 q
b10111000 s
b10 u
b0 I
b100000010010011000000011 5
b100000010010011000000011 O
b100000010010011000000011 W
b1100 )
b1100 ?
b1100 a
b1100 d
b1000 -
b1000 @
b1000 V
b1000 n
b1000 o
1!
#28
0!
#29
1%
b0 &
b0 e
b0 w
b0 '
b0 f
b0 l
b0 L
b0 /
b0 D
b0 h
b10 :
b10 J
b10 `
09
01
02
b0 <
b0 G
b0 j
b0 6
b0 C
b0 U
b0 g
b1100 (
b1100 A
b1100 b
b1100 ,
b1100 B
b1100 p
b110011 X
b0 H
b1011 r
b0 8
b0 M
b0 i
b0 t
b1100 v
b0 =
b0 F
b0 q
b0 s
b1100 u
b10000 .
b10000 c
b10000 m
b110001100000010110110011 5
b110001100000010110110011 O
b110001100000010110110011 W
b10000 )
b10000 ?
b10000 a
b10000 d
b1100 -
b1100 @
b1100 V
b1100 n
b1100 o
1!
#30
0!
#31
b10000 (
b10000 A
b10000 b
b10000 ,
b10000 B
b10000 p
b1011 u
b10100 .
b10100 c
b10100 m
b110001011000010110110011 5
b110001011000010110110011 O
b110001011000010110110011 W
b10100 )
b10100 ?
b10100 a
b10100 d
b10000 -
b10000 @
b10000 V
b10000 n
b10000 o
1!
#32
0!
#33
b1 &
b1 e
b1 w
b1 '
b1 f
b1 l
b1 +
b1 N
b1 k
b10111100 L
b0 :
b0 J
b0 `
19
11
12
b10 ;
b10 E
b10 K
0%
b10111100 <
b10111100 G
b10111100 j
b100 6
b100 C
b100 U
b100 g
b100 /
b100 D
b100 h
b11000 (
b11000 A
b11000 b
b10100 ,
b10100 B
b10100 p
b11 X
b10 H
b1100 r
bx 8
bx M
bx i
bx t
b100 v
b10111000 =
b10111000 F
b10111000 q
b10111000 s
b10 u
b11000 .
b11000 c
b11000 m
b10000010010011000000011 5
b10000010010011000000011 O
b10000010010011000000011 W
b11000 )
b11000 ?
b11000 a
b11000 d
b10100 -
b10100 @
b10100 V
b10100 n
b10100 o
1!
#34
0!
#35
b1 &
b1 e
b1 w
b1 '
b1 f
b1 l
b0 +
b0 N
b0 k
b1 L
b1 /
b1 D
b1 h
b10 :
b10 J
b10 `
09
01
02
b1 <
b1 G
b1 j
b0 6
b0 C
b0 U
b0 g
b11000 (
b11000 A
b11000 b
b11000 ,
b11000 B
b11000 p
b110011 X
b0 H
b1011 r
b1 8
b1 M
b1 i
b1 t
b1100 v
b0 =
b0 F
b0 q
b0 s
b1011 u
b11100 .
b11100 c
b11100 m
b110001011000010110110011 5
b110001011000010110110011 O
b110001011000010110110011 W
b11100 )
b11100 ?
b11100 a
b11100 d
b11000 -
b11000 @
b11000 V
b11000 n
b11000 o
1!
#36
0!
#37
b10 &
b10 e
b10 w
b10 '
b10 f
b10 l
b10 L
b10 <
b10 G
b10 j
b11100 (
b11100 A
b11100 b
b11100 ,
b11100 B
b11100 p
b100000 .
b100000 c
b100000 m
b100000 )
b100000 ?
b100000 a
b100000 d
b11100 -
b11100 @
b11100 V
b11100 n
b11100 o
b1 =
b1 F
b1 q
b1 s
1!
#38
0!
#39
0%
b10 &
b10 e
b10 w
b10 +
b10 N
b10 k
b10 '
b10 f
b10 l
b10111000 L
b0 :
b0 J
b0 `
19
11
12
b10 ;
b10 E
b10 K
b10111000 <
b10111000 G
b10111000 j
b0 /
b0 D
b0 h
b100000 (
b100000 A
b100000 b
b100000 ,
b100000 B
b100000 p
b11 X
b10 H
b1100 r
b0 8
b0 M
b0 i
b0 t
b0 v
b10 u
b100100 .
b100100 c
b100100 m
b10111000 =
b10111000 F
b10111000 q
b10111000 s
b10010011000000011 5
b10010011000000011 O
b10010011000000011 W
b100100 )
b100100 ?
b100100 a
b100100 d
b100000 -
b100000 @
b100000 V
b100000 n
b100000 o
1!
#40
0!
#41
b100 &
b100 e
b100 w
b100 '
b100 f
b100 l
b10 /
b10 D
b10 h
b0 +
b0 N
b0 k
b100 L
b10 :
b10 J
b10 `
09
01
02
b100 <
b100 G
b100 j
b100100 (
b100100 A
b100100 b
b100100 ,
b100100 B
b100100 p
b110011 X
b0 H
b1011 r
b10 8
b10 M
b10 i
b10 t
b1100 v
b10 =
b10 F
b10 q
b10 s
b1011 u
b101000 .
b101000 c
b101000 m
b110001011000010110110011 5
b110001011000010110110011 O
b110001011000010110110011 W
b101000 )
b101000 ?
b101000 a
b101000 d
b100100 -
b100100 @
b100100 V
b100100 n
b100100 o
1!
#42
0!
#43
0%
b1111000 &
b1111000 e
b1111000 w
b1100 /
b1100 D
b1100 h
b1111000 +
b1111000 N
b1111000 k
b1111000 '
b1111000 f
b1111000 l
b11000100 L
b0 :
b0 J
b0 `
19
11
12
b10 ;
b10 E
b10 K
b11000100 <
b11000100 G
b11000100 j
b1100 6
b1100 C
b1100 U
b1100 g
b110100 (
b110100 A
b110100 b
b101000 ,
b101000 B
b101000 p
b11 X
b10 H
b1110 r
b10 u
b101100 .
b101100 c
b101100 m
b10111000 =
b10111000 F
b10111000 q
b10111000 s
b110000010010011100000011 5
b110000010010011100000011 O
b110000010010011100000011 W
b101100 )
b101100 ?
b101100 a
b101100 d
b101000 -
b101000 @
b101000 V
b101000 n
b101000 o
1!
#44
0!
#45
b11000000 L
b11000000 <
b11000000 G
b11000000 j
b11000000 &
b11000000 e
b11000000 w
b11000000 '
b11000000 f
b11000000 l
b0 +
b0 N
b0 k
b1000 /
b1000 D
b1000 h
01
0*
02
10
b1000 6
b1000 C
b1000 U
b1000 g
b110100 (
b110100 A
b110100 b
b101100 ,
b101100 B
b101100 p
b100011 X
b1000 r
b1111000 8
b1111000 M
b1111000 i
b1111000 t
b1110 v
b110000 .
b110000 c
b110000 m
b111000010010010000100011 5
b111000010010010000100011 O
b111000010010010000100011 W
b110000 )
b110000 ?
b110000 a
b110000 d
b101100 -
b101100 @
b101100 V
b101100 n
b101100 o
1!
#46
0!
#47
b10110100 &
b10110100 e
b10110100 w
b10110100 '
b10110100 f
b10110100 l
b10110100 L
b10110100 <
b10110100 G
b10110100 j
b11111111111111111111111111111100 /
b11111111111111111111111111111100 D
b11111111111111111111111111111100 h
1*
00
b11111111111111111111111111111100 6
b11111111111111111111111111111100 C
b11111111111111111111111111111100 U
b11111111111111111111111111111100 g
b101100 (
b101100 A
b101100 b
b110000 ,
b110000 B
b110000 p
b10011 X
b0 H
b10 r
b1111111 I
bx 8
bx M
bx i
bx t
b11100 v
b110100 .
b110100 c
b110100 m
b11111111110000010000000100010011 5
b11111111110000010000000100010011 O
b11111111110000010000000100010011 W
b110100 )
b110100 ?
b110100 a
b110100 d
b110000 -
b110000 @
b110000 V
b110000 n
b110000 o
1!
#48
0!
#49
b10110100 &
b10110100 e
b10110100 w
b0 /
b0 D
b0 h
b10110100 '
b10110100 f
b10110100 l
b10110100 L
0*
10
b0 6
b0 C
b0 U
b0 g
b10110100 <
b10110100 G
b10110100 j
b110100 (
b110100 A
b110100 b
b110100 ,
b110100 B
b110100 p
b100011 X
b10 H
b0 r
b0 I
b100 8
b100 M
b100 i
b100 t
b1011 v
b111000 .
b111000 c
b111000 m
b101100010010000000100011 5
b101100010010000000100011 O
b101100010010000000100011 W
b111000 )
b111000 ?
b111000 a
b111000 d
b110100 -
b110100 @
b110100 V
b110100 n
b110100 o
b10110100 =
b10110100 F
b10110100 q
b10110100 s
1!
#50
0!
#51
b100 &
b100 e
b100 w
b100 '
b100 f
b100 l
b100 L
b1 /
b1 D
b1 h
1*
00
b100 <
b100 G
b100 j
b1 6
b1 C
b1 U
b1 g
b111001 (
b111001 A
b111001 b
b111000 ,
b111000 B
b111000 p
b10011 X
b0 H
b1101 r
b1111000 8
b1111000 M
b1111000 i
b1111000 t
b1 v
b11 =
b11 F
b11 q
b11 s
b1101 u
b111100 .
b111100 c
b111100 m
b101101000011010010011 5
b101101000011010010011 O
b101101000011010010011 W
b111100 )
b111100 ?
b111100 a
b111100 d
b111000 -
b111000 @
b111000 V
b111000 n
b111000 o
1!
#52
0!
#53
1$
1%
b111 ;
b111 E
b111 K
b0 &
b0 e
b0 w
b100 /
b100 D
b100 h
b0 '
b0 f
b0 l
b0 L
b1 :
b1 J
b1 `
09
0*
17
b11111111111111111111111111001100 6
b11111111111111111111111111001100 C
b11111111111111111111111111001100 U
b11111111111111111111111111001100 g
b0 <
b0 G
b0 j
b1000 (
b1000 A
b1000 b
b111100 ,
b111100 B
b111100 p
b1100011 X
b101 H
b100 8
b100 M
b100 i
b100 t
b1101 v
b1010 u
b1111110 I
b1000 .
b1000 c
b1000 m
b11111100110101010101011011100011 5
b11111100110101010101011011100011 O
b11111100110101010101011011100011 W
b1000000 )
b1000000 ?
b1000000 a
b1000000 d
b111100 -
b111100 @
b111100 V
b111100 n
b111100 o
b1010 =
b1010 F
b1010 q
b1010 s
1!
#54
0!
#55
b10 ;
b10 E
b10 K
b1 &
b1 e
b1 w
b10111100 L
b1 '
b1 f
b1 l
b1 +
b1 N
b1 k
0$
0%
b10111100 <
b10111100 G
b10111100 j
b0 :
b0 J
b0 `
19
11
1*
12
07
b1000 6
b1000 C
b1000 U
b1000 g
b1100 .
b1100 c
b1100 m
b1000 /
b1000 D
b1000 h
b10000 (
b10000 A
b10000 b
b1000 ,
b1000 B
b1000 p
b1100 r
b11 X
b10 H
bx 8
bx M
bx i
bx t
b1000 v
b10110100 =
b10110100 F
b10110100 q
b10110100 s
b10 u
b0 I
b100000010010011000000011 5
b100000010010011000000011 O
b100000010010011000000011 W
b1100 )
b1100 ?
b1100 a
b1100 d
b1000 -
b1000 @
b1000 V
b1000 n
b1000 o
1!
#56
0!
#57
b10 &
b10 e
b10 w
b10 '
b10 f
b10 l
b0 +
b0 N
b0 k
b10 L
b1 /
b1 D
b1 h
b10 :
b10 J
b10 `
09
01
02
b10 <
b10 G
b10 j
b0 6
b0 C
b0 U
b0 g
b1100 (
b1100 A
b1100 b
b1100 ,
b1100 B
b1100 p
b110011 X
b0 H
b1011 r
b1 8
b1 M
b1 i
b1 t
b1100 v
b1 =
b1 F
b1 q
b1 s
b1100 u
b10000 .
b10000 c
b10000 m
b110001100000010110110011 5
b110001100000010110110011 O
b110001100000010110110011 W
b10000 )
b10000 ?
b10000 a
b10000 d
b1100 -
b1100 @
b1100 V
b1100 n
b1100 o
1!
#58
0!
#59
b11 &
b11 e
b11 w
b11 '
b11 f
b11 l
b11 L
b11 <
b11 G
b11 j
b10000 (
b10000 A
b10000 b
b10000 ,
b10000 B
b10000 p
b10 =
b10 F
b10 q
b10 s
b1011 u
b10100 .
b10100 c
b10100 m
b110001011000010110110011 5
b110001011000010110110011 O
b110001011000010110110011 W
b10100 )
b10100 ?
b10100 a
b10100 d
b10000 -
b10000 @
b10000 V
b10000 n
b10000 o
1!
#60
0!
#61
b10 &
b10 e
b10 w
b10 +
b10 N
b10 k
b10 '
b10 f
b10 l
b10111000 L
0%
b0 :
b0 J
b0 `
19
11
12
b10 ;
b10 E
b10 K
b100 6
b100 C
b100 U
b100 g
b10111000 <
b10111000 G
b10111000 j
b100 /
b100 D
b100 h
b11000 (
b11000 A
b11000 b
b10100 ,
b10100 B
b10100 p
b11 X
b10 H
b1100 r
bx 8
bx M
bx i
bx t
b100 v
b10 u
b11000 .
b11000 c
b11000 m
b10000010010011000000011 5
b10000010010011000000011 O
b10000010010011000000011 W
b11000 )
b11000 ?
b11000 a
b11000 d
b10100 -
b10100 @
b10100 V
b10100 n
b10100 o
b10110100 =
b10110100 F
b10110100 q
b10110100 s
1!
#62
0!
#63
b101 &
b101 e
b101 w
b101 '
b101 f
b101 l
b0 +
b0 N
b0 k
b101 L
b10 /
b10 D
b10 h
b10 :
b10 J
b10 `
09
01
02
b101 <
b101 G
b101 j
b0 6
b0 C
b0 U
b0 g
b11000 (
b11000 A
b11000 b
b11000 ,
b11000 B
b11000 p
b110011 X
b0 H
b1011 r
b10 8
b10 M
b10 i
b10 t
b1100 v
b11 =
b11 F
b11 q
b11 s
b1011 u
b11100 .
b11100 c
b11100 m
b110001011000010110110011 5
b110001011000010110110011 O
b110001011000010110110011 W
b11100 )
b11100 ?
b11100 a
b11100 d
b11000 -
b11000 @
b11000 V
b11000 n
b11000 o
1!
#64
0!
#65
b111 &
b111 e
b111 w
b111 '
b111 f
b111 l
b111 L
b111 <
b111 G
b111 j
b11100 (
b11100 A
b11100 b
b11100 ,
b11100 B
b11100 p
b100000 .
b100000 c
b100000 m
b100000 )
b100000 ?
b100000 a
b100000 d
b11100 -
b11100 @
b11100 V
b11100 n
b11100 o
b101 =
b101 F
b101 q
b101 s
1!
#66
0!
#67
0%
b100 &
b100 e
b100 w
b100 +
b100 N
b100 k
b100 '
b100 f
b100 l
b10110100 L
b0 :
b0 J
b0 `
19
11
12
b10 ;
b10 E
b10 K
b10110100 <
b10110100 G
b10110100 j
b0 /
b0 D
b0 h
b100000 (
b100000 A
b100000 b
b100000 ,
b100000 B
b100000 p
b11 X
b10 H
b1100 r
b0 8
b0 M
b0 i
b0 t
b0 v
b10 u
b100100 .
b100100 c
b100100 m
b10110100 =
b10110100 F
b10110100 q
b10110100 s
b10010011000000011 5
b10010011000000011 O
b10010011000000011 W
b100100 )
b100100 ?
b100100 a
b100100 d
b100000 -
b100000 @
b100000 V
b100000 n
b100000 o
1!
#68
0!
#69
b1011 &
b1011 e
b1011 w
b100 /
b100 D
b100 h
b1011 '
b1011 f
b1011 l
b0 +
b0 N
b0 k
b1011 L
b10 :
b10 J
b10 `
09
01
02
b1011 <
b1011 G
b1011 j
b100100 (
b100100 A
b100100 b
b100100 ,
b100100 B
b100100 p
b110011 X
b0 H
b1011 r
b100 8
b100 M
b100 i
b100 t
b1100 v
b111 =
b111 F
b111 q
b111 s
b1011 u
b101000 .
b101000 c
b101000 m
b110001011000010110110011 5
b110001011000010110110011 O
b110001011000010110110011 W
b101000 )
b101000 ?
b101000 a
b101000 d
b100100 -
b100100 @
b100100 V
b100100 n
b100100 o
1!
#70
0!
