Khizar/vcd/riscv.vcd
$date
	Thu Aug  3 03:44:19 2023
$end
$version
	Icarus Verilog
$end
$timescale
	1s
$end
$scope module riscv_tb $end
$var reg 1 ! clk $end
$var reg 1 " rst $end
$scope module core $end
$var wire 1 ! clk $end
$var wire 1 # overflow $end
$var wire 1 " rst $end
$var wire 1 $ select $end
$var wire 1 % zero $end
$var wire 32 & writedata [31:0] $end
$var wire 32 ' write_out [31:0] $end
$var wire 32 ( sumB [31:0] $end
$var wire 32 ) sumA [31:0] $end
$var wire 1 * regwrite $end
$var wire 32 + readdata [31:0] $end
$var wire 32 , pc_or_rs1 [31:0] $end
$var wire 32 - pc [31:0] $end
$var wire 32 . newpc [31:0] $end
$var wire 32 / mux_out [31:0] $end
$var wire 1 0 memwrite $end
$var wire 1 1 memtoreg $end
$var wire 1 2 memread $end
$var wire 1 3 jal_select $end
$var wire 1 4 islink $end
$var wire 32 5 instruction [31:0] $end
$var wire 32 6 immediate [31:0] $end
$var wire 1 7 branch $end
$var wire 32 8 b [31:0] $end
$var wire 1 9 alusrc $end
$var wire 2 : aluop [1:0] $end
$var wire 4 ; aluctl [3:0] $end
$var wire 32 < alu_out [31:0] $end
$var wire 32 = a [31:0] $end
$scope module adder $end
$var wire 32 > in2 [31:0] $end
$var wire 32 ? out [31:0] $end
$var wire 32 @ in1 [31:0] $end
$upscope $end
$scope module adder2 $end
$var wire 32 A out [31:0] $end
$var wire 32 B in2 [31:0] $end
$var wire 32 C in1 [31:0] $end
$upscope $end
$scope module alu $end
$var wire 1 # overflow $end
$var wire 1 % zero $end
$var wire 32 D b [31:0] $end
$var wire 4 E aluctl [3:0] $end
$var wire 32 F a [31:0] $end
$var reg 32 G out [31:0] $end
$upscope $end
$scope module alucon $end
$var wire 3 H func3 [2:0] $end
$var wire 7 I func7 [6:0] $end
$var wire 2 J aluop [1:0] $end
$var reg 4 K aluctl [3:0] $end
$upscope $end
$scope module datamem $end
$var wire 10 L address [9:0] $end
$var wire 1 ! clk $end
$var wire 32 M writedata [31:0] $end
$var wire 32 N readdata [31:0] $end
$var wire 1 0 memwrite $end
$var wire 1 2 memread $end
$upscope $end
$scope module immgen $end
$var wire 32 O instruction [31:0] $end
$var parameter 7 P I $end
$var parameter 7 Q I_LD $end
$var parameter 7 R J $end
$var parameter 7 S S $end
$var parameter 7 T SB $end
$var reg 32 U result [31:0] $end
$upscope $end
$scope module insmem $end
$var wire 32 V pc [31:0] $end
$var wire 32 W instruction [31:0] $end
$upscope $end
$scope module maincon $end
$var wire 7 X opcode [6:0] $end
$var parameter 7 Y I $end
$var parameter 7 Z I_LD $end
$var parameter 7 [ J $end
$var parameter 7 \ J_R $end
$var parameter 7 ] R $end
$var parameter 7 ^ S $end
$var parameter 7 _ SB $end
$var reg 2 ` aluop [1:0] $end
$var reg 1 9 alusrc $end
$var reg 1 7 branch $end
$var reg 1 3 jal_select $end
$var reg 1 2 memread $end
$var reg 1 1 memtoreg $end
$var reg 1 0 memwrite $end
$var reg 1 * regwrite $end
$upscope $end
$scope module mux1 $end
$var wire 32 a in1 [31:0] $end
$var wire 32 b in2 [31:0] $end
$var wire 1 $ s $end
$var wire 32 c out [31:0] $end
$upscope $end
$scope module mux2 $end
$var wire 32 d in2 [31:0] $end
$var wire 1 3 s $end
$var wire 32 e out [31:0] $end
$var wire 32 f in1 [31:0] $end
$upscope $end
$scope module mux3 $end
$var wire 32 g in2 [31:0] $end
$var wire 1 9 s $end
$var wire 32 h out [31:0] $end
$var wire 32 i in1 [31:0] $end
$upscope $end
$scope module mux4 $end
$var wire 32 j in1 [31:0] $end
$var wire 32 k in2 [31:0] $end
$var wire 1 1 s $end
$var wire 32 l out [31:0] $end
$upscope $end
$scope module pcmod $end
$var wire 1 ! clk $end
$var wire 32 m in [31:0] $end
$var wire 1 " rst $end
$var reg 32 n out [31:0] $end
$upscope $end
$scope module pcrs1 $end
$var wire 32 o in1 [31:0] $end
$var wire 1 4 s $end
$var wire 32 p out [31:0] $end
$var wire 32 q in2 [31:0] $end
$upscope $end
$scope module regfile $end
$var wire 1 ! clk $end
$var wire 5 r rd [4:0] $end
$var wire 32 s readdata1 [31:0] $end
$var wire 32 t readdata2 [31:0] $end
$var wire 1 * regwrite $end
$var wire 5 u rs1 [4:0] $end
$var wire 5 v rs2 [4:0] $end
$var wire 32 w writedata [31:0] $end
$upscope $end
$upscope $end
$upscope $end
$enddefinitions $end
$comment Show the parameter values. $end
$dumpall
b1100011 _
b100011 ^
b110011 ]
b1100111 \
b1101111 [
b11 Z
b10011 Y
b1100011 T
b100011 S
b1101111 R
b11 Q
b10011 P
$end
#0
$dumpvars
bx w
bx v
bx u
bx t
bx s
bx r
bx q
bx p
bx o
bx n
bx m
bx l
bx k
bx j
bx i
bx h
bx g
bx f
bx e
bx d
bx c
bx b
bx a
bx `
bx X
bx W
bx V
bx U
bx O
bx N
bx M
bx L
bx K
bx J
bx I
bx H
bx G
bx F
bx E
bx D
bx C
bx B
bx A
bx @
bx ?
b100 >
bx =
bx <
bx ;
bx :
x9
bx 8
x7
bx 6
bx 5
x4
x3
x2
x1
x0
bx /
bx .
bx -
bx ,
bx +
x*
bx )
bx (
bx '
bx &
x%
x$
z#
x"
0!
$end
#1
b0 +
b0 N
b0 k
1$
b100 &
b100 e
b100 w
b11111111111111111111111111011000 '
b11111111111111111111111111011000 f
b11111111111111111111111111011000 l
b1111011000 L
b101000 /
b101000 D
b101000 h
b101000 .
b101000 c
b101000 m
b1 :
b1 J
b1 `
19
01
1*
02
00
17
13
0%
b11111111111111111111111111011000 <
b11111111111111111111111111011000 G
b11111111111111111111111111011000 j
b110 ;
b110 E
b110 K
b101000 (
b101000 A
b101000 b
b101000 6
b101000 C
b101000 U
b101000 g
b0 ,
b0 B
b0 p
b1101111 X
04
b0 H
b1 r
b0 =
b0 F
b0 q
b0 s
b0 u
b1 I
b1000 v
b10100000000000000011101111 5
b10100000000000000011101111 O
b10100000000000000011101111 W
b100 )
b100 ?
b100 a
b100 d
b0 -
b0 @
b0 V
b0 n
b0 o
1"
1!
#2
0"
0!
#3
b1 '
b1 f
b1 l
b1 L
b1 <
b1 G
b1 j
b10 ;
b10 E
b10 K
0$
b1 /
b1 D
b1 h
b0 :
b0 J
b0 `
07
03
b1 6
b1 C
b1 U
b1 g
b101100 .
b101100 c
b101100 m
b101001 (
b101001 A
b101001 b
b101000 ,
b101000 B
b101000 p
b10011 X
b1010 r
b100 8
b100 M
b100 i
b100 t
b1 v
b0 I
b1 &
b1 e
b1 w
b100000000010100010011 5
b100000000010100010011 O
b100000000010100010011 W
b101100 )
b101100 ?
b101100 a
b101100 d
b101000 -
b101000 @
b101000 V
b101000 n
b101000 o
1!
#4
0!
#5
b10 &
b10 e
b10 w
b10 '
b10 f
b10 l
b10 L
b10 <
b10 G
b10 j
b101101 (
b101101 A
b101101 b
b101100 ,
b101100 B
b101100 p
b1011 r
b1 =
b1 F
b1 q
b1 s
b1010 u
b110000 .
b110000 c
b110000 m
b101010000010110010011 5
b101010000010110010011 O
b101010000010110010011 W
b110000 )
b110000 ?
b110000 a
b110000 d
b101100 -
b101100 @
b101100 V
b101100 n
b101100 o
1!
#6
0!
#7
b11 &
b11 e
b11 w
b11 '
b11 f
b11 l
b11 L
b11 <
b11 G
b11 j
b10 /
b10 D
b10 h
b10 6
b10 C
b10 U
b10 g
b110010 (
b110010 A
b110010 b
b110000 ,
b110000 B
b110000 p
b1100 r
bx 8
bx M
bx i
bx t
b10 v
b110100 .
b110100 c
b110100 m
b1001010000011000010011 5
b1001010000011000010011 O
b1001010000011000010011 W
b110100 )
b110100 ?
b110100 a
b110100 d
b110000 -
b110000 @
b110000 V
b110000 n
b110000 o
1!
#8
0!
#9
b100 &
b100 e
b100 w
b100 '
b100 f
b100 l
b100 L
b100 <
b100 G
b100 j
b11 /
b11 D
b11 h
b11 6
b11 C
b11 U
b11 g
b110111 (
b110111 A
b110111 b
b110100 ,
b110100 B
b110100 p
b1101 r
b11 v
b111000 .
b111000 c
b111000 m
b1101010000011010010011 5
b1101010000011010010011 O
b1101010000011010010011 W
b111000 )
b111000 ?
b111000 a
b111000 d
b110100 -
b110100 @
b110100 V
b110100 n
b110100 o
1!
#10
0!
#11
b110 ;
b110 E
b110 K
1$
b111100 &
b111100 e
b111100 w
b100 '
b100 f
b100 l
b100 L
b0 /
b0 D
b0 h
b1 :
b1 J
b1 `
17
13
b100 <
b100 G
b100 j
b0 6
b0 C
b0 U
b0 g
b100 (
b100 A
b100 b
b100 ,
b100 B
b100 p
b1100111 X
14
b0 r
b0 8
b0 M
b0 i
b0 t
b0 v
b100 =
b100 F
b100 q
b100 s
b1 u
b100 .
b100 c
b100 m
b1000000001100111 5
b1000000001100111 O
b1000000001100111 W
b111100 )
b111100 ?
b111100 a
b111100 d
b111000 -
b111000 @
b111000 V
b111000 n
b111000 o
1!
#12
0!
#13
b10 ;
b10 E
b10 K
b1000 .
b1000 c
b1000 m
0$
b0 '
b0 f
b0 l
b0 L
b0 :
b0 J
b0 `
0*
10
07
03
1%
b0 <
b0 G
b0 j
b100011 X
04
b10 H
b0 =
b0 F
b0 q
b0 s
b0 u
b1 8
b1 M
b1 i
b1 t
b1010 v
b0 &
b0 e
b0 w
b101000000010000000100011 5
b101000000010000000100011 O
b101000000010000000100011 W
b1000 )
b1000 ?
b1000 a
b1000 d
b100 -
b100 @
b100 V
b100 n
b100 o
1!
#14
0!
#15
b100 &
b100 e
b100 w
b100 '
b100 f
b100 l
b100 L
0%
b100 <
b100 G
b100 j
b100 /
b100 D
b100 h
b100 6
b100 C
b100 U
b100 g
b1100 (
b1100 A
b1100 b
b1000 ,
b1000 B
b1000 p
b100 r
b10 8
b10 M
b10 i
b10 t
b1011 v
b1100 .
b1100 c
b1100 m
b101100000010001000100011 5
b101100000010001000100011 O
b101100000010001000100011 W
b1100 )
b1100 ?
b1100 a
b1100 d
b1000 -
b1000 @
b1000 V
b1000 n
b1000 o
1!
#16
0!
#17
b1000 &
b1000 e
b1000 w
b1000 '
b1000 f
b1000 l
b1000 L
b1000 <
b1000 G
b1000 j
b1000 /
b1000 D
b1000 h
b1000 6
b1000 C
b1000 U
b1000 g
b10100 (
b10100 A
b10100 b
b1100 ,
b1100 B
b1100 p
b1000 r
b11 8
b11 M
b11 i
b11 t
b1100 v
b10000 .
b10000 c
b10000 m
b110000000010010000100011 5
b110000000010010000100011 O
b110000000010010000100011 W
b10000 )
b10000 ?
b10000 a
b10000 d
b1100 -
b1100 @
b1100 V
b1100 n
b1100 o
1!
#18
0!
#19
b1100 &
b1100 e
b1100 w
b1100 '
b1100 f
b1100 l
b1100 L
b1100 <
b1100 G
b1100 j
b1100 /
b1100 D
b1100 h
b1100 6
b1100 C
b1100 U
b1100 g
b11100 (
b11100 A
b11100 b
b10000 ,
b10000 B
b10000 p
b1100 r
b100 8
b100 M
b100 i
b100 t
b1101 v
b10100 .
b10100 c
b10100 m
b110100000010011000100011 5
b110100000010011000100011 O
b110100000010011000100011 W
b10100 )
b10100 ?
b10100 a
b10100 d
b10000 -
b10000 @
b10000 V
b10000 n
b10000 o
1!
#20
0!
#21
b0 L
1%
b0 <
b0 G
b0 j
b1 &
b1 e
b1 w
b1 '
b1 f
b1 l
b1 +
b1 N
b1 k
b0 /
b0 D
b0 h
11
1*
12
00
b0 6
b0 C
b0 U
b0 g
b10100 (
b10100 A
b10100 b
b10100 ,
b10100 B
b10100 p
b11 X
b110 r
b0 8
b0 M
b0 i
b0 t
b0 v
b11000 .
b11000 c
b11000 m
b10001100000011 5
b10001100000011 O
b10001100000011 W
b11000 )
b11000 ?
b11000 a
b11000 d
b10100 -
b10100 @
b10100 V
b10100 n
b10100 o
1!
#22
0!
#23
b10 &
b10 e
b10 w
b10 '
b10 f
b10 l
b10 +
b10 N
b10 k
b100 L
0%
b100 <
b100 G
b100 j
b100 /
b100 D
b100 h
b100 6
b100 C
b100 U
b100 g
b11100 (
b11100 A
b11100 b
b11000 ,
b11000 B
b11000 p
b111 r
bx 8
bx M
bx i
bx t
b100 v
b11100 .
b11100 c
b11100 m
b10000000010001110000011 5
b10000000010001110000011 O
b10000000010001110000011 W
b11100 )
b11100 ?
b11100 a
b11100 d
b11000 -
b11000 @
b11000 V
b11000 n
b11000 o
1!
#24
0!
#25
b11 &
b11 e
b11 w
b11 '
b11 f
b11 l
b11 +
b11 N
b11 k
b1000 L
b1000 <
b1000 G
b1000 j
b1000 /
b1000 D
b1000 h
b1000 6
b1000 C
b1000 U
b1000 g
b100100 (
b100100 A
b100100 b
b11100 ,
b11100 B
b11100 p
b1000 r
b1000 v
b100000 .
b100000 c
b100000 m
b100000000010010000000011 5
b100000000010010000000011 O
b100000000010010000000011 W
b100000 )
b100000 ?
b100000 a
b100000 d
b11100 -
b11100 @
b11100 V
b11100 n
b11100 o
1!
#26
0!
#27
b100 &
b100 e
b100 w
b100 '
b100 f
b100 l
b100 +
b100 N
b100 k
b1100 L
b1100 <
b1100 G
b1100 j
b1100 /
b1100 D
b1100 h
b1100 6
b1100 C
b1100 U
b1100 g
b101100 (
b101100 A
b101100 b
b100000 ,
b100000 B
b100000 p
b1001 r
b1100 v
b100100 .
b100100 c
b100100 m
b11 8
b11 M
b11 i
b11 t
b110000000010010010000011 5
b110000000010010010000011 O
b110000000010010010000011 W
b100100 )
b100100 ?
b100100 a
b100100 d
b100000 -
b100000 @
b100000 V
b100000 n
b100000 o
1!
#28
0!
#29
b110 ;
b110 E
b110 K
bx '
bx f
bx l
b0 +
b0 N
b0 k
1$
b101000 &
b101000 e
b101000 w
bx L
b11111111111111111111111111011100 /
b11111111111111111111111111011100 D
b11111111111111111111111111011100 h
b1 :
b1 J
b1 `
01
02
17
13
x%
bx <
bx G
bx j
b11111111111111111111111111011100 6
b11111111111111111111111111011100 C
b11111111111111111111111111011100 U
b11111111111111111111111111011100 g
b0 (
b0 A
b0 b
b100100 ,
b100100 B
b100100 p
b1101111 X
b111 H
b0 r
bx =
bx F
bx q
bx s
b11111 u
b1111110 I
bx 8
bx M
bx i
bx t
b11101 v
b0 .
b0 c
b0 m
b11111101110111111111000001101111 5
b11111101110111111111000001101111 O
b11111101110111111111000001101111 W
b101000 )
b101000 ?
b101000 a
b101000 d
b100100 -
b100100 @
b100100 V
b100100 n
b100100 o
1!
#30
0!
#31
b11111111111111111111111111011000 '
b11111111111111111111111111011000 f
b11111111111111111111111111011000 l
b1111011000 L
b101000 /
b101000 D
b101000 h
0%
b11111111111111111111111111011000 <
b11111111111111111111111111011000 G
b11111111111111111111111111011000 j
b101000 6
b101000 C
b101000 U
b101000 g
b101000 .
b101000 c
b101000 m
b101000 (
b101000 A
b101000 b
b0 ,
b0 B
b0 p
b1 r
b0 H
b0 =
b0 F
b0 q
b0 s
b0 u
b1 I
b11 8
b11 M
b11 i
b11 t
b1000 v
b100 &
b100 e
b100 w
b10100000000000000011101111 5
b10100000000000000011101111 O
b10100000000000000011101111 W
b100 )
b100 ?
b100 a
b100 d
b0 -
b0 @
b0 V
b0 n
b0 o
1!
#32
0!
#33
b1 '
b1 f
b1 l
b1 L
b1 <
b1 G
b1 j
b10 ;
b10 E
b10 K
0$
b1 /
b1 D
b1 h
b0 :
b0 J
b0 `
07
03
b1 6
b1 C
b1 U
b1 g
b101100 .
b101100 c
b101100 m
b101001 (
b101001 A
b101001 b
b101000 ,
b101000 B
b101000 p
b10011 X
b1010 r
b100 8
b100 M
b100 i
b100 t
b1 v
b0 I
b1 &
b1 e
b1 w
b100000000010100010011 5
b100000000010100010011 O
b100000000010100010011 W
b101100 )
b101100 ?
b101100 a
b101100 d
b101000 -
b101000 @
b101000 V
b101000 n
b101000 o
1!
#34
0!
#35
b10 &
b10 e
b10 w
b10 '
b10 f
b10 l
b10 L
b10 <
b10 G
b10 j
b101101 (
b101101 A
b101101 b
b101100 ,
b101100 B
b101100 p
b1011 r
b1 =
b1 F
b1 q
b1 s
b1010 u
b110000 .
b110000 c
b110000 m
b101010000010110010011 5
b101010000010110010011 O
b101010000010110010011 W
b110000 )
b110000 ?
b110000 a
b110000 d
b101100 -
b101100 @
b101100 V
b101100 n
b101100 o
1!
#36
0!
#37
b11 &
b11 e
b11 w
b11 '
b11 f
b11 l
b11 L
b11 <
b11 G
b11 j
b10 /
b10 D
b10 h
b10 6
b10 C
b10 U
b10 g
b110010 (
b110010 A
b110010 b
b110000 ,
b110000 B
b110000 p
b1100 r
bx 8
bx M
bx i
bx t
b10 v
b110100 .
b110100 c
b110100 m
b1001010000011000010011 5
b1001010000011000010011 O
b1001010000011000010011 W
b110100 )
b110100 ?
b110100 a
b110100 d
b110000 -
b110000 @
b110000 V
b110000 n
b110000 o
1!
#38
0!
#39
b100 &
b100 e
b100 w
b100 '
b100 f
b100 l
b100 L
b100 <
b100 G
b100 j
b11 /
b11 D
b11 h
b11 6
b11 C
b11 U
b11 g
b110111 (
b110111 A
b110111 b
b110100 ,
b110100 B
b110100 p
b1101 r
b11 v
b111000 .
b111000 c
b111000 m
b1101010000011010010011 5
b1101010000011010010011 O
b1101010000011010010011 W
b111000 )
b111000 ?
b111000 a
b111000 d
b110100 -
b110100 @
b110100 V
b110100 n
b110100 o
1!
#40
0!
#41
b110 ;
b110 E
b110 K
1$
b111100 &
b111100 e
b111100 w
b100 '
b100 f
b100 l
b100 L
b0 /
b0 D
b0 h
b1 :
b1 J
b1 `
17
13
b100 <
b100 G
b100 j
b0 6
b0 C
b0 U
b0 g
b100 (
b100 A
b100 b
b100 ,
b100 B
b100 p
b1100111 X
14
b0 r
b0 8
b0 M
b0 i
b0 t
b0 v
b100 =
b100 F
b100 q
b100 s
b1 u
b100 .
b100 c
b100 m
b1000000001100111 5
b1000000001100111 O
b1000000001100111 W
b111100 )
b111100 ?
b111100 a
b111100 d
b111000 -
b111000 @
b111000 V
b111000 n
b111000 o
1!
#42
0!
#43
b10 ;
b10 E
b10 K
b1000 .
b1000 c
b1000 m
0$
b0 '
b0 f
b0 l
b0 L
b0 :
b0 J
b0 `
0*
10
07
03
1%
b0 <
b0 G
b0 j
b100011 X
04
b10 H
b0 =
b0 F
b0 q
b0 s
b0 u
b1 8
b1 M
b1 i
b1 t
b1010 v
b0 &
b0 e
b0 w
b101000000010000000100011 5
b101000000010000000100011 O
b101000000010000000100011 W
b1000 )
b1000 ?
b1000 a
b1000 d
b100 -
b100 @
b100 V
b100 n
b100 o
1!
#44
0!
#45
b100 &
b100 e
b100 w
b100 '
b100 f
b100 l
b100 L
0%
b100 <
b100 G
b100 j
b100 /
b100 D
b100 h
b100 6
b100 C
b100 U
b100 g
b1100 (
b1100 A
b1100 b
b1000 ,
b1000 B
b1000 p
b100 r
b10 8
b10 M
b10 i
b10 t
b1011 v
b1100 .
b1100 c
b1100 m
b101100000010001000100011 5
b101100000010001000100011 O
b101100000010001000100011 W
b1100 )
b1100 ?
b1100 a
b1100 d
b1000 -
b1000 @
b1000 V
b1000 n
b1000 o
1!
#46
0!
#47
b1000 &
b1000 e
b1000 w
b1000 '
b1000 f
b1000 l
b1000 L
b1000 <
b1000 G
b1000 j
b1000 /
b1000 D
b1000 h
b1000 6
b1000 C
b1000 U
b1000 g
b10100 (
b10100 A
b10100 b
b1100 ,
b1100 B
b1100 p
b1000 r
b11 8
b11 M
b11 i
b11 t
b1100 v
b10000 .
b10000 c
b10000 m
b110000000010010000100011 5
b110000000010010000100011 O
b110000000010010000100011 W
b10000 )
b10000 ?
b10000 a
b10000 d
b1100 -
b1100 @
b1100 V
b1100 n
b1100 o
1!
#48
0!
#49
b1100 &
b1100 e
b1100 w
b1100 '
b1100 f
b1100 l
b1100 L
b1100 <
b1100 G
b1100 j
b1100 /
b1100 D
b1100 h
b1100 6
b1100 C
b1100 U
b1100 g
b11100 (
b11100 A
b11100 b
b10000 ,
b10000 B
b10000 p
b1100 r
b100 8
b100 M
b100 i
b100 t
b1101 v
b10100 .
b10100 c
b10100 m
b110100000010011000100011 5
b110100000010011000100011 O
b110100000010011000100011 W
b10100 )
b10100 ?
b10100 a
b10100 d
b10000 -
b10000 @
b10000 V
b10000 n
b10000 o
1!
#50
0!
#51
b0 L
1%
b0 <
b0 G
b0 j
b1 &
b1 e
b1 w
b1 '
b1 f
b1 l
b1 +
b1 N
b1 k
b0 /
b0 D
b0 h
11
1*
12
00
b0 6
b0 C
b0 U
b0 g
b10100 (
b10100 A
b10100 b
b10100 ,
b10100 B
b10100 p
b11 X
b110 r
b0 8
b0 M
b0 i
b0 t
b0 v
b11000 .
b11000 c
b11000 m
b10001100000011 5
b10001100000011 O
b10001100000011 W
b11000 )
b11000 ?
b11000 a
b11000 d
b10100 -
b10100 @
b10100 V
b10100 n
b10100 o
1!
#52
0!
#53
b10 &
b10 e
b10 w
b10 '
b10 f
b10 l
b10 +
b10 N
b10 k
b100 L
0%
b100 <
b100 G
b100 j
b100 /
b100 D
b100 h
b100 6
b100 C
b100 U
b100 g
b11100 (
b11100 A
b11100 b
b11000 ,
b11000 B
b11000 p
b111 r
bx 8
bx M
bx i
bx t
b100 v
b11100 .
b11100 c
b11100 m
b10000000010001110000011 5
b10000000010001110000011 O
b10000000010001110000011 W
b11100 )
b11100 ?
b11100 a
b11100 d
b11000 -
b11000 @
b11000 V
b11000 n
b11000 o
1!
#54
0!
#55
b11 &
b11 e
b11 w
b11 '
b11 f
b11 l
b11 +
b11 N
b11 k
b1000 L
b1000 <
b1000 G
b1000 j
b1000 /
b1000 D
b1000 h
b1000 6
b1000 C
b1000 U
b1000 g
b100100 (
b100100 A
b100100 b
b11100 ,
b11100 B
b11100 p
b1000 r
b11 8
b11 M
b11 i
b11 t
b1000 v
b100000 .
b100000 c
b100000 m
b100000000010010000000011 5
b100000000010010000000011 O
b100000000010010000000011 W
b100000 )
b100000 ?
b100000 a
b100000 d
b11100 -
b11100 @
b11100 V
b11100 n
b11100 o
1!
#56
0!
#57
b100 &
b100 e
b100 w
b100 '
b100 f
b100 l
b100 +
b100 N
b100 k
b1100 L
b1100 <
b1100 G
b1100 j
b1100 /
b1100 D
b1100 h
b1100 6
b1100 C
b1100 U
b1100 g
b101100 (
b101100 A
b101100 b
b100000 ,
b100000 B
b100000 p
b1001 r
b1100 v
b100100 .
b100100 c
b100100 m
b110000000010010010000011 5
b110000000010010010000011 O
b110000000010010010000011 W
b100100 )
b100100 ?
b100100 a
b100100 d
b100000 -
b100000 @
b100000 V
b100000 n
b100000 o
1!
#58
0!
#59
b110 ;
b110 E
b110 K
bx '
bx f
bx l
b0 +
b0 N
b0 k
1$
b101000 &
b101000 e
b101000 w
bx L
b11111111111111111111111111011100 /
b11111111111111111111111111011100 D
b11111111111111111111111111011100 h
b1 :
b1 J
b1 `
01
02
17
13
x%
bx <
bx G
bx j
b11111111111111111111111111011100 6
b11111111111111111111111111011100 C
b11111111111111111111111111011100 U
b11111111111111111111111111011100 g
b0 (
b0 A
b0 b
b100100 ,
b100100 B
b100100 p
b1101111 X
b111 H
b0 r
bx =
bx F
bx q
bx s
b11111 u
b1111110 I
bx 8
bx M
bx i
bx t
b11101 v
b0 .
b0 c
b0 m
b11111101110111111111000001101111 5
b11111101110111111111000001101111 O
b11111101110111111111000001101111 W
b101000 )
b101000 ?
b101000 a
b101000 d
b100100 -
b100100 @
b100100 V
b100100 n
b100100 o
1!
#60
0!
#61
b11111111111111111111111111011000 '
b11111111111111111111111111011000 f
b11111111111111111111111111011000 l
b1111011000 L
b101000 /
b101000 D
b101000 h
0%
b11111111111111111111111111011000 <
b11111111111111111111111111011000 G
b11111111111111111111111111011000 j
b101000 6
b101000 C
b101000 U
b101000 g
b101000 .
b101000 c
b101000 m
b101000 (
b101000 A
b101000 b
b0 ,
b0 B
b0 p
b1 r
b0 H
b0 =
b0 F
b0 q
b0 s
b0 u
b1 I
b11 8
b11 M
b11 i
b11 t
b1000 v
b100 &
b100 e
b100 w
b10100000000000000011101111 5
b10100000000000000011101111 O
b10100000000000000011101111 W
b100 )
b100 ?
b100 a
b100 d
b0 -
b0 @
b0 V
b0 n
b0 o
1!
#62
0!
#63
b1 '
b1 f
b1 l
b1 L
b1 <
b1 G
b1 j
b10 ;
b10 E
b10 K
0$
b1 /
b1 D
b1 h
b0 :
b0 J
b0 `
07
03
b1 6
b1 C
b1 U
b1 g
b101100 .
b101100 c
b101100 m
b101001 (
b101001 A
b101001 b
b101000 ,
b101000 B
b101000 p
b10011 X
b1010 r
b100 8
b100 M
b100 i
b100 t
b1 v
b0 I
b1 &
b1 e
b1 w
b100000000010100010011 5
b100000000010100010011 O
b100000000010100010011 W
b101100 )
b101100 ?
b101100 a
b101100 d
b101000 -
b101000 @
b101000 V
b101000 n
b101000 o
1!
#64
0!
#65
b10 &
b10 e
b10 w
b10 '
b10 f
b10 l
b10 L
b10 <
b10 G
b10 j
b101101 (
b101101 A
b101101 b
b101100 ,
b101100 B
b101100 p
b1011 r
b1 =
b1 F
b1 q
b1 s
b1010 u
b110000 .
b110000 c
b110000 m
b101010000010110010011 5
b101010000010110010011 O
b101010000010110010011 W
b110000 )
b110000 ?
b110000 a
b110000 d
b101100 -
b101100 @
b101100 V
b101100 n
b101100 o
1!
#66
0!
#67
b11 &
b11 e
b11 w
b11 '
b11 f
b11 l
b11 L
b11 <
b11 G
b11 j
b10 /
b10 D
b10 h
b10 6
b10 C
b10 U
b10 g
b110010 (
b110010 A
b110010 b
b110000 ,
b110000 B
b110000 p
b1100 r
bx 8
bx M
bx i
bx t
b10 v
b110100 .
b110100 c
b110100 m
b1001010000011000010011 5
b1001010000011000010011 O
b1001010000011000010011 W
b110100 )
b110100 ?
b110100 a
b110100 d
b110000 -
b110000 @
b110000 V
b110000 n
b110000 o
1!
#68
0!
#69
b100 &
b100 e
b100 w
b100 '
b100 f
b100 l
b100 L
b100 <
b100 G
b100 j
b11 /
b11 D
b11 h
b11 6
b11 C
b11 U
b11 g
b110111 (
b110111 A
b110111 b
b110100 ,
b110100 B
b110100 p
b1101 r
b11 v
b111000 .
b111000 c
b111000 m
b1101010000011010010011 5
b1101010000011010010011 O
b1101010000011010010011 W
b111000 )
b111000 ?
b111000 a
b111000 d
b110100 -
b110100 @
b110100 V
b110100 n
b110100 o
1!
#70
0!
#71
b110 ;
b110 E
b110 K
1$
b111100 &
b111100 e
b111100 w
b100 '
b100 f
b100 l
b100 L
b0 /
b0 D
b0 h
b1 :
b1 J
b1 `
17
13
b100 <
b100 G
b100 j
b0 6
b0 C
b0 U
b0 g
b100 (
b100 A
b100 b
b100 ,
b100 B
b100 p
b1100111 X
14
b0 r
b0 8
b0 M
b0 i
b0 t
b0 v
b100 =
b100 F
b100 q
b100 s
b1 u
b100 .
b100 c
b100 m
b1000000001100111 5
b1000000001100111 O
b1000000001100111 W
b111100 )
b111100 ?
b111100 a
b111100 d
b111000 -
b111000 @
b111000 V
b111000 n
b111000 o
1!
