Khizar/vcd/riscv_pipeline.vcd
$date
	Sat Aug  5 15:07:54 2023
$end
$version
	Icarus Verilog
$end
$timescale
	1s
$end
$scope module riscv_tb $end
$var reg 1 ! clk $end
$var reg 1 " rst $end
$scope module core $end
$var wire 1 ! clk $end
$var wire 1 # overflow $end
$var wire 1 $ pcsrc $end
$var wire 1 " rst $end
$var wire 1 % zero_ex $end
$var wire 1 & zero $end
$var wire 32 ' writedata [31:0] $end
$var wire 32 ( sumB_ex [31:0] $end
$var wire 32 ) sumB [31:0] $end
$var wire 32 * sumA [31:0] $end
$var wire 5 + rs2_id [4:0] $end
$var wire 5 , rs1_id [4:0] $end
$var wire 1 - regwrite_wb $end
$var wire 1 . regwrite_id $end
$var wire 1 / regwrite_ex $end
$var wire 1 0 regwrite_cn $end
$var wire 1 1 regwrite $end
$var wire 32 2 readdata_wb [31:0] $end
$var wire 32 3 readdata [31:0] $end
$var wire 5 4 rd_wb [4:0] $end
$var wire 5 5 rd_id [4:0] $end
$var wire 5 6 rd_ex [4:0] $end
$var wire 32 7 pc_if [31:0] $end
$var wire 32 8 pc_id [31:0] $end
$var wire 32 9 pc [31:0] $end
$var wire 32 : newpc [31:0] $end
$var wire 32 ; mux_out [31:0] $end
$var wire 1 < memwrite_id $end
$var wire 1 = memwrite_ex $end
$var wire 1 > memwrite_cn $end
$var wire 1 ? memwrite $end
$var wire 1 @ memtoreg_wb $end
$var wire 1 A memtoreg_id $end
$var wire 1 B memtoreg_ex $end
$var wire 1 C memtoreg $end
$var wire 1 D memread_id $end
$var wire 1 E memread_ex $end
$var wire 1 F memread $end
$var wire 32 G ins_if [31:0] $end
$var wire 32 H ins [31:0] $end
$var wire 32 I immediate_id [31:0] $end
$var wire 32 J immediate [31:0] $end
$var wire 1 K func7_id $end
$var wire 3 L func3_id [2:0] $end
$var wire 2 M forwardB [1:0] $end
$var wire 2 N forwardA [1:0] $end
$var wire 1 O enable_pc $end
$var wire 1 P enable_if $end
$var wire 1 Q enable_control $end
$var wire 1 R branch_id $end
$var wire 1 S branch_ex $end
$var wire 1 T branch $end
$var wire 32 U b_id [31:0] $end
$var wire 32 V b_ex [31:0] $end
$var wire 32 W b [31:0] $end
$var wire 1 X alusrc_id $end
$var wire 1 Y alusrc $end
$var wire 32 Z alures_wb [31:0] $end
$var wire 32 [ alures_ex [31:0] $end
$var wire 32 \ alures [31:0] $end
$var wire 2 ] aluop_id [1:0] $end
$var wire 2 ^ aluop [1:0] $end
$var wire 4 _ aluctl [3:0] $end
$var wire 32 ` alu_in2 [31:0] $end
$var wire 32 a alu_in1 [31:0] $end
$var wire 32 b a_id [31:0] $end
$var wire 32 c a [31:0] $end
$scope module adder $end
$var wire 32 d in2 [31:0] $end
$var wire 32 e out [31:0] $end
$var wire 32 f in1 [31:0] $end
$upscope $end
$scope module adder2 $end
$var wire 32 g out [31:0] $end
$var wire 32 h in2 [31:0] $end
$var wire 32 i in1 [31:0] $end
$upscope $end
$scope module alu $end
$var wire 1 # overflow $end
$var wire 1 & zero $end
$var wire 32 j b [31:0] $end
$var wire 4 k aluctl [3:0] $end
$var wire 32 l a [31:0] $end
$var reg 32 m out [31:0] $end
$upscope $end
$scope module alucon $end
$var wire 1 K func7 $end
$var wire 3 n func3 [2:0] $end
$var wire 2 o aluop [1:0] $end
$var reg 4 p aluctl [3:0] $end
$upscope $end
$scope module datamem $end
$var wire 1 ! clk $end
$var wire 32 q writedata [31:0] $end
$var wire 32 r readdata [31:0] $end
$var wire 1 = memwrite $end
$var wire 1 E memread $end
$var wire 32 s address [31:0] $end
$upscope $end
$scope module ex1 $end
$var wire 32 t alures [31:0] $end
$var wire 1 ! clk $end
$var wire 32 u sumB [31:0] $end
$var wire 1 & zero $end
$var wire 1 . regwrite_id $end
$var wire 5 v rd_id [4:0] $end
$var wire 1 < memwrite_id $end
$var wire 1 A memtoreg_id $end
$var wire 1 D memread_id $end
$var wire 1 R branch_id $end
$var wire 32 w b_id [31:0] $end
$var reg 32 x alures_ex [31:0] $end
$var reg 32 y b_ex [31:0] $end
$var reg 1 S branch_ex $end
$var reg 1 E memread_ex $end
$var reg 1 B memtoreg_ex $end
$var reg 1 = memwrite_ex $end
$var reg 5 z rd_ex [4:0] $end
$var reg 1 / regwrite_ex $end
$var reg 32 { sumB_ex [31:0] $end
$var reg 1 % zero_ex $end
$upscope $end
$scope module fwdAmux $end
$var wire 32 | in2 [31:0] $end
$var wire 2 } s [1:0] $end
$var wire 32 ~ out [31:0] $end
$var wire 32 !" in3 [31:0] $end
$var wire 32 "" in1 [31:0] $end
$upscope $end
$scope module fwdBmux $end
$var wire 32 #" in2 [31:0] $end
$var wire 2 $" s [1:0] $end
$var wire 32 %" out [31:0] $end
$var wire 32 &" in3 [31:0] $end
$var wire 32 '" in1 [31:0] $end
$upscope $end
$scope module fwdunit $end
$var wire 5 (" rd_ex [4:0] $end
$var wire 1 / regwrite_ex $end
$var wire 5 )" rs2_id [4:0] $end
$var wire 5 *" rs1_id [4:0] $end
$var wire 1 - regwrite_wb $end
$var wire 5 +" rd_wb [4:0] $end
$var reg 2 ," forwardA [1:0] $end
$var reg 2 -" forwardB [1:0] $end
$upscope $end
$scope module hdetect $end
$var wire 5 ." rs1_if [4:0] $end
$var wire 5 /" rs2_if [4:0] $end
$var wire 5 0" rd_id [4:0] $end
$var wire 1 D memread_id $end
$var reg 1 Q enable_control $end
$var reg 1 P enable_if $end
$var reg 1 O enable_pc $end
$upscope $end
$scope module id1 $end
$var wire 1 ! clk $end
$var wire 3 1" func3 [2:0] $end
$var wire 1 2" func7 $end
$var wire 5 3" rd [4:0] $end
$var wire 5 4" rs1_if [4:0] $end
$var wire 5 5" rs2_if [4:0] $end
$var wire 1 0 regwrite_if $end
$var wire 32 6" pc_if [31:0] $end
$var wire 1 > memwrite_if $end
$var wire 1 C memtoreg_if $end
$var wire 1 F memread_if $end
$var wire 32 7" immediate [31:0] $end
$var wire 1 T branch_if $end
$var wire 32 8" b [31:0] $end
$var wire 1 Y alusrc_if $end
$var wire 2 9" aluop_if [1:0] $end
$var wire 32 :" a [31:0] $end
$var reg 32 ;" a_id [31:0] $end
$var reg 2 <" aluop_id [1:0] $end
$var reg 1 X alusrc_id $end
$var reg 32 =" b_id [31:0] $end
$var reg 1 R branch_id $end
$var reg 3 >" func3_id [2:0] $end
$var reg 1 K func7_id $end
$var reg 32 ?" immediate_id [31:0] $end
$var reg 1 D memread_id $end
$var reg 1 A memtoreg_id $end
$var reg 1 < memwrite_id $end
$var reg 32 @" pc_id [31:0] $end
$var reg 5 A" rd_id [4:0] $end
$var reg 1 . regwrite_id $end
$var reg 5 B" rs1_id [4:0] $end
$var reg 5 C" rs2_id [4:0] $end
$upscope $end
$scope module if1 $end
$var wire 1 ! clk $end
$var wire 1 P enable_if $end
$var wire 32 D" pc [31:0] $end
$var wire 32 E" ins [31:0] $end
$var reg 32 F" ins_if [31:0] $end
$var reg 32 G" pc_if [31:0] $end
$upscope $end
$scope module immgen $end
$var wire 32 H" instruction [31:0] $end
$var parameter 7 I" I $end
$var parameter 7 J" I_LD $end
$var parameter 7 K" S $end
$var parameter 7 L" SB $end
$var reg 32 M" result [31:0] $end
$upscope $end
$scope module insmem $end
$var wire 32 N" pc [31:0] $end
$var wire 32 O" instruction [31:0] $end
$upscope $end
$scope module maincon $end
$var wire 1 P" enable_hazard_control $end
$var wire 7 Q" opcode [6:0] $end
$var parameter 7 R" I $end
$var parameter 7 S" I_LD $end
$var parameter 7 T" R $end
$var parameter 7 U" S $end
$var parameter 7 V" SB $end
$var reg 2 W" aluop [1:0] $end
$var reg 1 Y alusrc $end
$var reg 1 T branch $end
$var reg 1 F memread $end
$var reg 1 C memtoreg $end
$var reg 1 ? memwrite $end
$var reg 1 1 regwrite $end
$upscope $end
$scope module mux1 $end
$var wire 32 X" in1 [31:0] $end
$var wire 32 Y" in2 [31:0] $end
$var wire 1 $ s $end
$var wire 32 Z" out [31:0] $end
$upscope $end
$scope module mux2 $end
$var wire 32 [" in1 [31:0] $end
$var wire 32 \" in2 [31:0] $end
$var wire 1 X s $end
$var wire 32 ]" out [31:0] $end
$upscope $end
$scope module mux3 $end
$var wire 1 @ s $end
$var wire 32 ^" out [31:0] $end
$var wire 32 _" in2 [31:0] $end
$var wire 32 `" in1 [31:0] $end
$upscope $end
$scope module mux4 $end
$var wire 1 a" in1 $end
$var wire 1 1 in2 $end
$var wire 1 Q s $end
$var wire 1 0 out $end
$upscope $end
$scope module mux5 $end
$var wire 1 b" in1 $end
$var wire 1 ? in2 $end
$var wire 1 Q s $end
$var wire 1 > out $end
$upscope $end
$scope module pcmod $end
$var wire 1 ! clk $end
$var wire 1 O enable $end
$var wire 32 c" in [31:0] $end
$var wire 1 " rst $end
$var reg 32 d" out [31:0] $end
$upscope $end
$scope module regfile $end
$var wire 1 ! clk $end
$var wire 5 e" rs1 [4:0] $end
$var wire 5 f" rs2 [4:0] $end
$var wire 32 g" writedata [31:0] $end
$var wire 1 h" x1 $end
$var wire 1 i" x2 $end
$var wire 1 - regwrite $end
$var wire 32 j" readdata2 [31:0] $end
$var wire 32 k" readdata1 [31:0] $end
$var wire 5 l" rd [4:0] $end
$upscope $end
$scope module wb1 $end
$var wire 32 m" alures_ex [31:0] $end
$var wire 1 ! clk $end
$var wire 1 B memtoreg_ex $end
$var wire 5 n" rd_ex [4:0] $end
$var wire 32 o" readdata [31:0] $end
$var wire 1 / regwrite_ex $end
$var reg 32 p" alures_wb [31:0] $end
$var reg 1 @ memtoreg_wb $end
$var reg 5 q" rd_wb [4:0] $end
$var reg 32 r" readdata_wb [31:0] $end
$var reg 1 - regwrite_wb $end
$upscope $end
$upscope $end
$upscope $end
$enddefinitions $end
$comment Show the parameter values. $end
$dumpall
b1100011 V"
b100011 U"
b110011 T"
b11 S"
b10011 R"
b1100011 L"
b100011 K"
b11 J"
b10011 I"
$end
#0
$dumpvars
b0 r"
b0 q"
b0 p"
b0 o"
b0 n"
b0 m"
b0 l"
b0 k"
b0 j"
0i"
0h"
b0 g"
b0 f"
b0 e"
bx d"
bx c"
0b"
0a"
b0 `"
b0 _"
b0 ^"
b0 ]"
b0 \"
b0 ["
bx Z"
b0 Y"
bx X"
b0 W"
b0 Q"
zP"
bx O"
bx N"
b0 M"
b0 H"
b0 G"
b0 F"
bx E"
bx D"
b0 C"
b0 B"
b0 A"
b0 @"
b0 ?"
b0 >"
b0 ="
b0 <"
b0 ;"
b0 :"
b0 9"
b0 8"
b0 7"
b0 6"
b0 5"
b0 4"
b0 3"
02"
b0 1"
b0 0"
b0 /"
b0 ."
b0 -"
b0 ,"
b0 +"
b0 *"
b0 )"
b0 ("
b0 '"
b0 &"
b0 %"
b0 $"
b0 #"
b0 ""
b0 !"
b0 ~
b0 }
b0 |
b0 {
b0 z
b0 y
b0 x
b0 w
b0 v
b0 u
b0 t
b0 s
b0 r
b0 q
b10 p
b0 o
b0 n
b0 m
b0 l
b10 k
b0 j
b0 i
b0 h
b0 g
bx f
bx e
b100 d
b0 c
b0 b
b0 a
b0 `
b10 _
b0 ^
b0 ]
b0 \
b0 [
b0 Z
0Y
0X
b0 W
b0 V
b0 U
0T
0S
0R
1Q
1P
1O
b0 N
b0 M
b0 L
0K
b0 J
b0 I
bx H
b0 G
0F
0E
0D
0C
0B
0A
0@
0?
0>
0=
0<
b0 ;
bx :
bx 9
b0 8
b0 7
b0 6
b0 5
b0 4
b0 3
b0 2
01
00
0/
0.
0-
b0 ,
b0 +
bx *
b0 )
b0 (
b0 '
1&
0%
0$
z#
x"
0!
$end
#1
bx W
bx 8"
bx j"
bx c
bx :"
bx k"
b100 :
b100 Z"
b100 c"
bx 5"
bx 4"
bx 3"
bx 1"
x2"
bx Q"
bx f"
bx e"
bx /"
bx ."
b10011 H
b10011 E"
b10011 O"
b100 *
b100 e
b100 X"
b0 9
b0 f
b0 D"
b0 N"
b0 d"
bx G
bx F"
bx H"
bx 7
bx 6"
bx G"
1%
1"
1!
#2
0!
#3
10
x&
bx \
bx m
bx t
1Y
11
bx `
bx j
bx %"
bx a
bx l
bx ~
b0 W
b0 8"
b0 j"
b0 c
b0 :"
b0 k"
bx ;
bx '"
bx ]"
b0 5"
b0 4"
b0 3"
b0 1"
02"
b10011 Q"
b0 f"
b0 e"
b0 /"
b0 ."
b1000 :
b1000 Z"
b1000 c"
bx +
bx )"
bx C"
bx ,
bx *"
bx B"
xK
bx L
bx n
bx >"
bx 5
bx v
bx 0"
bx A"
bx U
bx w
bx ="
bx ["
bx b
bx ""
bx ;"
bx )
bx g
bx u
bx 8
bx h
bx @"
b10011 G
b10011 F"
b10011 H"
b0 7
b0 6"
b0 G"
b1000 *
b1000 e
b1000 X"
b100 9
b100 f
b100 D"
b100 N"
b100 d"
1!
0"
#4
0!
#5
1&
b0 \
b0 m
b0 t
b0 `
b0 j
b0 %"
b0 a
b0 l
b0 ~
b1100 :
b1100 Z"
b1100 c"
b0 ;
b0 '"
b0 ]"
b1100 *
b1100 e
b1100 X"
b1000 9
b1000 f
b1000 D"
b1000 N"
b1000 d"
b100 7
b100 6"
b100 G"
b0 +
b0 )"
b0 C"
b0 ,
b0 *"
b0 B"
1.
0K
b0 L
b0 n
b0 >"
b0 5
b0 v
b0 0"
b0 A"
b0 U
b0 w
b0 ="
b0 ["
b0 b
b0 ""
b0 ;"
b0 )
b0 g
b0 u
b0 8
b0 h
b0 @"
1X
bx 6
bx z
bx ("
bx n"
bx V
bx q
bx y
bx [
bx s
bx x
bx |
bx #"
bx m"
bx (
bx {
bx Y"
x%
1!
#6
0!
#7
bx '
bx !"
bx &"
bx ^"
bx g"
b10000 :
b10000 Z"
b10000 c"
bx 4
bx +"
bx l"
bx q"
bx Z
bx `"
bx p"
1/
b0 6
b0 z
b0 ("
b0 n"
b0 V
b0 q
b0 y
b0 [
b0 s
b0 x
b0 |
b0 #"
b0 m"
b0 (
b0 {
b0 Y"
1%
b100 )
b100 g
b100 u
b100 8
b100 h
b100 @"
b1000 7
b1000 6"
b1000 G"
b10000 *
b10000 e
b10000 X"
b1100 9
b1100 f
b1100 D"
b1100 N"
b1100 d"
1!
#8
0!
#9
b10100 :
b10100 Z"
b10100 c"
b0 '
b0 !"
b0 &"
b0 ^"
b0 g"
b100000000010100010011 H
b100000000010100010011 E"
b100000000010100010011 O"
b10100 *
b10100 e
b10100 X"
b10000 9
b10000 f
b10000 D"
b10000 N"
b10000 d"
b1100 7
b1100 6"
b1100 G"
b1000 )
b1000 g
b1000 u
b1000 8
b1000 h
b1000 @"
b100 (
b100 {
b100 Y"
1-
b0 4
b0 +"
b0 l"
b0 q"
b0 Z
b0 `"
b0 p"
1!
#10
0!
#11
b1 J
b1 7"
b1 M"
bx W
bx 8"
bx j"
b1 5"
b1010 3"
b1 f"
b1 /"
b11000 :
b11000 Z"
b11000 c"
b1000 (
b1000 {
b1000 Y"
b1100 )
b1100 g
b1100 u
b1100 8
b1100 h
b1100 @"
b100000000010100010011 G
b100000000010100010011 F"
b100000000010100010011 H"
b10000 7
b10000 6"
b10000 G"
b101010000010110010011 H
b101010000010110010011 E"
b101010000010110010011 O"
b11000 *
b11000 e
b11000 X"
b10100 9
b10100 f
b10100 D"
b10100 N"
b10100 d"
1!
#12
0!
#13
0&
b1 \
b1 m
b1 t
b1 `
b1 j
b1 %"
bx c
bx :"
bx k"
b11100 :
b11100 Z"
b11100 c"
b1010 4"
b1011 3"
b1010 e"
b1010 ."
b1 ;
b1 '"
b1 ]"
b10101101010000010001100011 H
b10101101010000010001100011 E"
b10101101010000010001100011 O"
b11100 *
b11100 e
b11100 X"
b11000 9
b11000 f
b11000 D"
b11000 N"
b11000 d"
b101010000010110010011 G
b101010000010110010011 F"
b101010000010110010011 H"
b10100 7
b10100 6"
b10100 G"
b1 +
b1 )"
b1 C"
b1010 5
b1010 v
b1010 0"
b1010 A"
b1 I
b1 i
b1 ?"
b1 \"
bx U
bx w
bx ="
bx ["
b10001 )
b10001 g
b10001 u
b10000 8
b10000 h
b10000 @"
b1100 (
b1100 {
b1100 Y"
1!
#14
0!
#15
00
0&
b10 \
b10 m
b10 t
b1 ^
b1 9"
b1 W"
0Y
01
1T
b1 N
b1 }
b1 ,"
b101000 J
b101000 7"
b101000 M"
b1 a
b1 l
b1 ~
b1011 5"
b1000 3"
b1100011 Q"
b1011 f"
b1011 /"
b100000 :
b100000 Z"
b100000 c"
b1010 6
b1010 z
b1010 ("
b1010 n"
bx V
bx q
bx y
b1 [
b1 s
b1 x
b1 |
b1 #"
b1 m"
b10001 (
b10001 {
b10001 Y"
0%
b1010 ,
b1010 *"
b1010 B"
b1011 5
b1011 v
b1011 0"
b1011 A"
bx b
bx ""
bx ;"
b10101 )
b10101 g
b10101 u
b10100 8
b10100 h
b10100 @"
b10101101010000010001100011 G
b10101101010000010001100011 F"
b10101101010000010001100011 H"
b11000 7
b11000 6"
b11000 G"
b1001010000011000010011 H
b1001010000011000010011 E"
b1001010000011000010011 O"
b100000 *
b100000 e
b100000 X"
b11100 9
b11100 f
b11100 D"
b11100 N"
b11100 d"
1!
#16
0!
#17
10
0&
b11111111111111111111111111111111 \
b11111111111111111111111111111111 m
b11111111111111111111111111111111 t
b0 ^
b0 9"
b0 W"
1Y
11
0T
b10 J
b10 7"
b10 M"
b110 _
b110 k
b110 p
b1 M
b1 $"
b1 -"
b10 N
b10 }
b10 ,"
b10 `
b10 j
b10 %"
b1 c
b1 :"
b1 k"
b1 a
b1 l
b1 ~
1h"
b100100 :
b100100 Z"
b100100 c"
b10 5"
b1100 3"
b10011 Q"
b10 f"
b10 /"
bx ;
bx '"
bx ]"
b1 '
b1 !"
b1 &"
b1 ^"
b1 g"
b101000000010000000100011 H
b101000000010000000100011 E"
b101000000010000000100011 O"
b100100 *
b100100 e
b100100 X"
b100000 9
b100000 f
b100000 D"
b100000 N"
b100000 d"
b1001010000011000010011 G
b1001010000011000010011 F"
b1001010000011000010011 H"
b11100 7
b11100 6"
b11100 G"
b1011 +
b1011 )"
b1011 C"
0.
b1000 5
b1000 v
b1000 0"
b1000 A"
b101000 I
b101000 i
b101000 ?"
b101000 \"
b1000000 )
b1000000 g
b1000000 u
b11000 8
b11000 h
b11000 @"
b1 ]
b1 o
b1 <"
0X
1R
b1011 6
b1011 z
b1011 ("
b1011 n"
b10 [
b10 s
b10 x
b10 |
b10 #"
b10 m"
b10101 (
b10101 {
b10101 Y"
b1010 4
b1010 +"
b1010 l"
b1010 q"
b1 Z
b1 `"
b1 p"
1!
#18
0!
#19
0&
00
1>
b11 \
b11 m
b11 t
01
1?
b0 M
b0 $"
b0 -"
b0 N
b0 }
b0 ,"
b10 _
b10 k
b10 p
b0 J
b0 7"
b0 M"
b1 a
b1 l
b1 ~
0h"
b0 c
b0 :"
b0 k"
b10 `
b10 j
b10 %"
b1 W
b1 8"
b1 j"
b10 '
b10 !"
b10 &"
b10 ^"
b10 g"
b10 ;
b10 '"
b10 ]"
b1010 5"
b0 4"
b0 3"
b10 1"
b100011 Q"
b1010 f"
b0 e"
b1010 /"
b0 ."
b101000 :
b101000 Z"
b101000 c"
b1011 4
b1011 +"
b1011 l"
b1011 q"
b10 Z
b10 `"
b10 p"
0/
b1000 6
b1000 z
b1000 ("
b1000 n"
b11111111111111111111111111111111 [
b11111111111111111111111111111111 s
b11111111111111111111111111111111 x
b11111111111111111111111111111111 |
b11111111111111111111111111111111 #"
b11111111111111111111111111111111 m"
b1000000 (
b1000000 {
b1000000 Y"
1S
b10 +
b10 )"
b10 C"
1.
b1100 5
b1100 v
b1100 0"
b1100 A"
b10 I
b10 i
b10 ?"
b10 \"
b1 b
b1 ""
b1 ;"
b11110 )
b11110 g
b11110 u
b11100 8
b11100 h
b11100 @"
b0 ]
b0 o
b0 <"
1X
0R
b101000000010000000100011 G
b101000000010000000100011 F"
b101000000010000000100011 H"
b100000 7
b100000 6"
b100000 G"
b1101010000011010010011 H
b1101010000011010010011 E"
b1101010000011010010011 O"
b101000 *
b101000 e
b101000 X"
b100100 9
b100100 f
b100100 D"
b100100 N"
b100100 d"
1!
#20
0!
#21
10
0>
1&
b0 \
b0 m
b0 t
11
0?
b11 J
b11 7"
b11 M"
b0 `
b0 j
b0 %"
bx W
bx 8"
bx j"
b1 c
b1 :"
b1 k"
b0 a
b0 l
b0 ~
b101100 :
b101100 Z"
b101100 c"
b11 5"
b1010 4"
b1101 3"
b0 1"
b10011 Q"
b11 f"
b1010 e"
b11 /"
b1010 ."
b0 ;
b0 '"
b0 ]"
b11111111111111111111111111111111 '
b11111111111111111111111111111111 !"
b11111111111111111111111111111111 &"
b11111111111111111111111111111111 ^"
b11111111111111111111111111111111 g"
b101101101000011100110011 H
b101101101000011100110011 E"
b101101101000011100110011 O"
b101100 *
b101100 e
b101100 X"
b101000 9
b101000 f
b101000 D"
b101000 N"
b101000 d"
b1101010000011010010011 G
b1101010000011010010011 F"
b1101010000011010010011 H"
b100100 7
b100100 6"
b100100 G"
b1010 +
b1010 )"
b1010 C"
b0 ,
b0 *"
b0 B"
0.
b10 L
b10 n
b10 >"
b0 5
b0 v
b0 0"
b0 A"
b0 I
b0 i
b0 ?"
b0 \"
b1 U
b1 w
b1 ="
b1 ["
b0 b
b0 ""
b0 ;"
b100000 )
b100000 g
b100000 u
b100000 8
b100000 h
b100000 @"
1<
1/
b1100 6
b1100 z
b1100 ("
b1100 n"
b11 [
b11 s
b11 x
b11 |
b11 #"
b11 m"
b11110 (
b11110 {
b11110 Y"
0S
0-
b1000 4
b1000 +"
b1000 l"
b1000 q"
b11111111111111111111111111111111 Z
b11111111111111111111111111111111 `"
b11111111111111111111111111111111 p"
1!
#22
0!
#23
0&
b100 \
b100 m
b100 t
b10 ^
b10 9"
b10 W"
0Y
b0 J
b0 7"
b0 M"
b11 `
b11 j
b11 %"
b1 a
b1 l
b1 ~
b10 W
b10 8"
b10 j"
bx c
bx :"
bx k"
b11 '
b11 !"
b11 &"
b11 ^"
b11 g"
b11 ;
b11 '"
b11 ]"
b1011 5"
b1101 4"
b1110 3"
b110011 Q"
b1011 f"
b1101 e"
b1011 /"
b1101 ."
b110000 :
b110000 Z"
b110000 c"
1-
b1100 4
b1100 +"
b1100 l"
b1100 q"
b11 Z
b11 `"
b11 p"
0/
b0 6
b0 z
b0 ("
b0 n"
b1 V
b1 q
b1 y
b0 [
b0 s
b0 x
b0 |
b0 #"
b0 m"
b100000 (
b100000 {
b100000 Y"
1=
1%
b11 +
b11 )"
b11 C"
b1010 ,
b1010 *"
b1010 B"
1.
b0 L
b0 n
b0 >"
b1101 5
b1101 v
b1101 0"
b1101 A"
b11 I
b11 i
b11 ?"
b11 \"
bx U
bx w
bx ="
bx ["
b1 b
b1 ""
b1 ;"
b100111 )
b100111 g
b100111 u
b100100 8
b100100 h
b100100 @"
0<
b101101101000011100110011 G
b101101101000011100110011 F"
b101101101000011100110011 H"
b101000 7
b101000 6"
b101000 G"
b1110000011110010011 H
b1110000011110010011 E"
b1110000011110010011 O"
b110000 *
b110000 e
b110000 X"
b101100 9
b101100 f
b101100 D"
b101100 N"
b101100 d"
1!
#24
0!
#25
0&
b110 \
b110 m
b110 t
b0 ^
b0 9"
b0 W"
1Y
b1 N
b1 }
b1 ,"
b10 `
b10 j
b10 %"
b0 W
b0 8"
b0 j"
b100 a
b100 l
b100 ~
b110100 :
b110100 Z"
b110100 c"
b0 5"
b1110 4"
b1111 3"
b10011 Q"
b0 f"
b1110 e"
b0 /"
b1110 ."
b10 ;
b10 '"
b10 ]"
b0 '
b0 !"
b0 &"
b0 ^"
b0 g"
b1000000101101111000100000110011 H
b1000000101101111000100000110011 E"
b1000000101101111000100000110011 O"
b110100 *
b110100 e
b110100 X"
b110000 9
b110000 f
b110000 D"
b110000 N"
b110000 d"
b1110000011110010011 G
b1110000011110010011 F"
b1110000011110010011 H"
b101100 7
b101100 6"
b101100 G"
b1011 +
b1011 )"
b1011 C"
b1101 ,
b1101 *"
b1101 B"
b1110 5
b1110 v
b1110 0"
b1110 A"
b0 I
b0 i
b0 ?"
b0 \"
b10 U
b10 w
b10 ="
b10 ["
bx b
bx ""
bx ;"
b101000 )
b101000 g
b101000 u
b101000 8
b101000 h
b101000 @"
b10 ]
b10 o
b10 <"
0X
1/
b1101 6
b1101 z
b1101 ("
b1101 n"
bx V
bx q
bx y
b100 [
b100 s
b100 x
b100 |
b100 #"
b100 m"
b100111 (
b100111 {
b100111 Y"
0=
0%
0-
b0 4
b0 +"
b0 l"
b0 q"
b0 Z
b0 `"
b0 p"
1!
#26
0!
#27
b10 ^
b10 9"
b10 W"
0Y
b0 `
b0 j
b0 %"
b110 a
b110 l
b110 ~
b10 W
b10 8"
b10 j"
b100 '
b100 !"
b100 &"
b100 ^"
b100 g"
b0 ;
b0 '"
b0 ]"
b1011 5"
b1111 4"
b10000 3"
12"
b110011 Q"
b1011 f"
b1111 e"
b1011 /"
b1111 ."
b111000 :
b111000 Z"
b111000 c"
1-
b1101 4
b1101 +"
b1101 l"
b1101 q"
b100 Z
b100 `"
b100 p"
b1110 6
b1110 z
b1110 ("
b1110 n"
b10 V
b10 q
b10 y
b110 [
b110 s
b110 x
b110 |
b110 #"
b110 m"
b101000 (
b101000 {
b101000 Y"
b0 +
b0 )"
b0 C"
b1110 ,
b1110 *"
b1110 B"
b1111 5
b1111 v
b1111 0"
b1111 A"
b0 U
b0 w
b0 ="
b0 ["
b101100 )
b101100 g
b101100 u
b101100 8
b101100 h
b101100 @"
b0 ]
b0 o
b0 <"
1X
b1000000101101111000100000110011 G
b1000000101101111000100000110011 F"
b1000000101101111000100000110011 H"
b110000 7
b110000 6"
b110000 G"
b10000000100010010011 H
b10000000100010010011 E"
b10000000100010010011 O"
b111000 *
b111000 e
b111000 X"
b110100 9
b110100 f
b110100 D"
b110100 N"
b110100 d"
1!
#28
0!
#29
b100 \
b100 m
b100 t
b0 ^
b0 9"
b0 W"
1Y
b110 _
b110 k
b110 p
b10 `
b10 j
b10 %"
b0 W
b0 8"
b0 j"
b111100 :
b111100 Z"
b111100 c"
b0 5"
b10000 4"
b10001 3"
02"
b10011 Q"
b0 f"
b10000 e"
b0 /"
b10000 ."
b10 ;
b10 '"
b10 ]"
b110 '
b110 !"
b110 &"
b110 ^"
b110 g"
b101100000010000000100011 H
b101100000010000000100011 E"
b101100000010000000100011 O"
b111100 *
b111100 e
b111100 X"
b111000 9
b111000 f
b111000 D"
b111000 N"
b111000 d"
b10000000100010010011 G
b10000000100010010011 F"
b10000000100010010011 H"
b110100 7
b110100 6"
b110100 G"
b1011 +
b1011 )"
b1011 C"
b1111 ,
b1111 *"
b1111 B"
1K
b10000 5
b10000 v
b10000 0"
b10000 A"
b10 U
b10 w
b10 ="
b10 ["
b110000 )
b110000 g
b110000 u
b110000 8
b110000 h
b110000 @"
b10 ]
b10 o
b10 <"
0X
b1111 6
b1111 z
b1111 ("
b1111 n"
b0 V
b0 q
b0 y
b101100 (
b101100 {
b101100 Y"
b1110 4
b1110 +"
b1110 l"
b1110 q"
b110 Z
b110 `"
b110 p"
1!
#30
0!
#31
00
1>
01
1?
b10 _
b10 k
b10 p
b0 `
b0 j
b0 %"
b100 a
b100 l
b100 ~
b10 W
b10 8"
b10 j"
b0 c
b0 :"
b0 k"
b0 ;
b0 '"
b0 ]"
b1011 5"
b0 4"
b0 3"
b10 1"
b100011 Q"
b1011 f"
b0 e"
b1011 /"
b0 ."
b1000000 :
b1000000 Z"
b1000000 c"
b1111 4
b1111 +"
b1111 l"
b1111 q"
b10000 6
b10000 z
b10000 ("
b10000 n"
b10 V
b10 q
b10 y
b100 [
b100 s
b100 x
b100 |
b100 #"
b100 m"
b110000 (
b110000 {
b110000 Y"
b0 +
b0 )"
b0 C"
b10000 ,
b10000 *"
b10000 B"
0K
b10001 5
b10001 v
b10001 0"
b10001 A"
b0 U
b0 w
b0 ="
b0 ["
b110100 )
b110100 g
b110100 u
b110100 8
b110100 h
b110100 @"
b0 ]
b0 o
b0 <"
1X
b101100000010000000100011 G
b101100000010000000100011 F"
b101100000010000000100011 H"
b111000 7
b111000 6"
b111000 G"
b110000000010001000100011 H
b110000000010001000100011 E"
b110000000010001000100011 O"
b1000000 *
b1000000 e
b1000000 X"
b111100 9
b111100 f
b111100 D"
b111100 N"
b111100 d"
1!
#32
0!
#33
1&
b0 \
b0 m
b0 t
b0 a
b0 l
b0 ~
b100 J
b100 7"
b100 M"
b0 N
b0 }
b0 ,"
b11 W
b11 8"
b11 j"
b1000100 :
b1000100 Z"
b1000100 c"
b1100 5"
b100 3"
b1100 f"
b1100 /"
b100 '
b100 !"
b100 &"
b100 ^"
b100 g"
b10000000010100100000011 H
b10000000010100100000011 E"
b10000000010100100000011 O"
b1000100 *
b1000100 e
b1000100 X"
b1000000 9
b1000000 f
b1000000 D"
b1000000 N"
b1000000 d"
b110000000010001000100011 G
b110000000010001000100011 F"
b110000000010001000100011 H"
b111100 7
b111100 6"
b111100 G"
b1011 +
b1011 )"
b1011 C"
b0 ,
b0 *"
b0 B"
0.
b10 L
b10 n
b10 >"
b0 5
b0 v
b0 0"
b0 A"
b10 U
b10 w
b10 ="
b10 ["
b0 b
b0 ""
b0 ;"
b111000 )
b111000 g
b111000 u
b111000 8
b111000 h
b111000 @"
1<
b10001 6
b10001 z
b10001 ("
b10001 n"
b0 V
b0 q
b0 y
b110100 (
b110100 {
b110100 Y"
b10000 4
b10000 +"
b10000 l"
b10000 q"
b100 Z
b100 `"
b100 p"
1!
#34
0!
