Khizar/verilog/single-cycle/vcd/combined_tb.vcd
$date
	Fri Jul 21 00:48:16 2023
$end
$version
	Icarus Verilog
$end
$timescale
	1s
$end
$scope module combined_tb $end
$var wire 1 ! overflow $end
$var wire 1 " zero $end
$var wire 32 # writedata [31:0] $end
$var wire 2 $ state [1:0] $end
$var wire 1 % regwrite $end
$var wire 32 & readdata [31:0] $end
$var wire 32 ' mux_out [31:0] $end
$var wire 1 ( memwrite $end
$var wire 1 ) memtoreg $end
$var wire 1 * memread $end
$var wire 32 + instruction [31:0] $end
$var wire 32 , immediate [31:0] $end
$var wire 1 - branch $end
$var wire 32 . b [31:0] $end
$var wire 1 / alusrc $end
$var wire 2 0 aluop [1:0] $end
$var wire 4 1 aluctl [3:0] $end
$var wire 32 2 alu_out [31:0] $end
$var wire 32 3 a [31:0] $end
$var reg 1 4 clk $end
$var reg 10 5 pc [9:0] $end
$var integer 32 6 i [31:0] $end
$scope module uuAX $end
$var wire 1 4 clk $end
$var reg 2 7 state [1:0] $end
$upscope $end
$scope module uutA $end
$var wire 1 4 clk $end
$var wire 10 8 pc [9:0] $end
$var wire 2 9 state [1:0] $end
$var reg 32 : instruction [31:0] $end
$upscope $end
$scope module uutB $end
$var wire 1 4 clk $end
$var wire 7 ; instruction [6:0] $end
$var wire 2 < state [1:0] $end
$var reg 2 = aluop [1:0] $end
$var reg 1 / alusrc $end
$var reg 1 - branch $end
$var reg 1 * memread $end
$var reg 1 ) memtoreg $end
$var reg 1 ( memwrite $end
$var reg 1 % regwrite $end
$upscope $end
$scope module uutC $end
$var wire 2 > aluop [1:0] $end
$var wire 3 ? func3 [2:0] $end
$var wire 7 @ func7 [6:0] $end
$var reg 4 A aluctl [3:0] $end
$upscope $end
$scope module uutD $end
$var wire 32 B instruction [31:0] $end
$var reg 32 C result [31:0] $end
$upscope $end
$scope module uutE $end
$var wire 32 D in2 [31:0] $end
$var wire 1 / s $end
$var wire 32 E in1 [31:0] $end
$var reg 32 F out [31:0] $end
$upscope $end
$scope module uutF $end
$var wire 1 4 clk $end
$var wire 5 G rd [4:0] $end
$var wire 1 % regwrite $end
$var wire 5 H rs1 [4:0] $end
$var wire 5 I rs2 [4:0] $end
$var wire 2 J state [1:0] $end
$var wire 32 K writedata [31:0] $end
$var reg 32 L readdata1 [31:0] $end
$var reg 32 M readdata2 [31:0] $end
$upscope $end
$scope module uutG $end
$var wire 32 N a [31:0] $end
$var wire 4 O aluctl [3:0] $end
$var wire 32 P b [31:0] $end
$var wire 1 ! overflow $end
$var wire 1 " zero $end
$var reg 32 Q out [31:0] $end
$upscope $end
$scope module uutH $end
$var wire 10 R address [9:0] $end
$var wire 1 4 clk $end
$var wire 1 * memread $end
$var wire 1 ( memwrite $end
$var wire 2 S state [1:0] $end
$var wire 32 T writedata [31:0] $end
$var reg 32 U readdata [31:0] $end
$upscope $end
$scope module uutI $end
$var wire 32 V in1 [31:0] $end
$var wire 32 W in2 [31:0] $end
$var wire 1 ) s $end
$var reg 32 X out [31:0] $end
$upscope $end
$upscope $end
$enddefinitions $end
#0
$dumpvars
bx X
bx W
bx V
bx U
bx T
b11 S
bx R
bx Q
bx P
bx O
bx N
bx M
bx L
bx K
b11 J
bx I
bx H
bx G
bx F
bx E
bx D
bx C
bx B
bx A
bx @
bx ?
bx >
bx =
b11 <
bx ;
bx :
b11 9
b0 8
b11 7
b0 6
b0 5
04
bx 3
bx 2
bx 1
bx 0
x/
bx .
x-
bx ,
bx +
x*
x)
x(
bx '
bx &
x%
b11 $
bx #
x"
z!
$end
#2
b0 $
b0 7
b0 9
b0 <
b0 J
b0 S
14
#4
04
#6
b0 R
1"
b0 2
b0 Q
b0 V
b1 '
b1 F
b1 P
b1 ,
b1 C
b1 D
b1010 G
b1 I
b0 H
b0 ?
b0 @
b10011 ;
b100000000010100010011 +
b100000000010100010011 :
b100000000010100010011 B
b1 $
b1 7
b1 9
b1 <
b1 J
b1 S
14
#8
04
#10
b1 R
0"
b1 2
b1 Q
b1 V
b10 1
b10 A
b10 O
b1 #
b1 K
b1 X
b10 $
b10 7
b10 9
b10 <
b10 J
b10 S
b0 0
b0 =
b0 >
0-
0(
0*
0)
1%
1/
b0 3
b0 L
b0 N
14
#12
04
#14
b11 $
b11 7
b11 9
b11 <
b11 J
b11 S
14
#16
04
b1 5
b1 8
b1 6
#18
b0 $
b0 7
b0 9
b0 <
b0 J
b0 S
14
#20
04
#22
b1011 G
b1010 H
b101010000010110010011 +
b101010000010110010011 :
b101010000010110010011 B
b1 $
b1 7
b1 9
b1 <
b1 J
b1 S
14
#24
04
#26
bx #
bx K
bx X
bx R
x"
bx 2
bx Q
bx V
b10 $
b10 7
b10 9
b10 <
b10 J
b10 S
bx 3
bx L
bx N
14
#28
04
#30
b11 $
b11 7
b11 9
b11 <
b11 J
b11 S
14
#32
04
b10 5
b10 8
b10 6
#34
b0 $
b0 7
b0 9
b0 <
b0 J
b0 S
14
#36
04
#38
b10 '
b10 F
b10 P
b10 ,
b10 C
b10 D
b1100 G
b10 I
b1001010000011000010011 +
b1001010000011000010011 :
b1001010000011000010011 B
b1 $
b1 7
b1 9
b1 <
b1 J
b1 S
14
#40
04
#42
b10 $
b10 7
b10 9
b10 <
b10 J
b10 S
14
#44
04
#46
b11 $
b11 7
b11 9
b11 <
b11 J
b11 S
14
#48
04
b11 5
b11 8
b11 6
#50
b0 $
b0 7
b0 9
b0 <
b0 J
b0 S
14
#52
04
#54
b0 '
b0 F
b0 P
b0 ,
b0 C
b0 D
b0 G
b0 I
b0 H
b0 ;
b0 +
b0 :
b0 B
b1 $
b1 7
b1 9
b1 <
b1 J
b1 S
14
#56
04
#58
b0 #
b0 K
b0 X
b0 R
1"
b0 2
b0 Q
b0 V
b10 $
b10 7
b10 9
b10 <
b10 J
b10 S
0%
0/
b0 .
b0 E
b0 M
b0 T
b0 3
b0 L
b0 N
14
#60
04
#62
b11 $
b11 7
b11 9
b11 <
b11 J
b11 S
14
#64
04
b100 5
b100 8
b100 6
#66
b0 $
b0 7
b0 9
b0 <
b0 J
b0 S
14
#68
04
#70
b1001 ,
b1001 C
b1001 D
b1001 G
b1010 I
b10 ?
b100011 ;
b101000000010010010100011 +
b101000000010010010100011 :
b101000000010010010100011 B
b1 $
b1 7
b1 9
b1 <
b1 J
b1 S
14
#72
04
#74
b1001 #
b1001 K
b1001 X
b1001 R
0"
b1001 2
b1001 Q
b1001 V
b1001 '
b1001 F
b1001 P
b10 $
b10 7
b10 9
b10 <
b10 J
b10 S
1(
1/
bx .
bx E
bx M
bx T
14
#76
04
#78
b11 $
b11 7
b11 9
b11 <
b11 J
b11 S
14
#80
04
b101 5
b101 8
b101 6
#82
b0 $
b0 7
b0 9
b0 <
b0 J
b0 S
14
#84
04
#86
b0 #
b0 K
b0 X
b0 R
1"
b0 2
b0 Q
b0 V
b0 '
b0 F
b0 P
b0 ,
b0 C
b0 D
b0 G
b0 I
b0 ?
b0 ;
b0 +
b0 :
b0 B
b1 $
b1 7
b1 9
b1 <
b1 J
b1 S
14
#88
04
#90
b10 $
b10 7
b10 9
b10 <
b10 J
b10 S
0(
0/
b0 .
b0 E
b0 M
b0 T
14
#92
04
#94
b11 $
b11 7
b11 9
b11 <
b11 J
b11 S
14
#96
04
b110 5
b110 8
b110 6
#98
b0 $
b0 7
b0 9
b0 <
b0 J
b0 S
14
#100
04
#102
b11 ,
b11 C
b11 D
b1101 G
b11 I
b1010 H
b10011 ;
b1101010000011010010011 +
b1101010000011010010011 :
b1101010000011010010011 B
b1 $
b1 7
b1 9
b1 <
b1 J
b1 S
14
#104
04
#106
bx #
bx K
bx X
bx R
b11 '
b11 F
b11 P
x"
bx 2
bx Q
bx V
b10 $
b10 7
b10 9
b10 <
b10 J
b10 S
1%
1/
bx .
bx E
bx M
bx T
bx 3
bx L
bx N
14
#108
04
#110
b11 $
b11 7
b11 9
b11 <
b11 J
b11 S
14
#112
04
b111 5
b111 8
b111 6
#114
b0 $
b0 7
b0 9
b0 <
b0 J
b0 S
14
#116
04
#118
b0 '
b0 F
b0 P
b0 ,
b0 C
b0 D
b1110 G
b1011 I
b1101 H
b110011 ;
b101101101000011100110011 +
b101101101000011100110011 :
b101101101000011100110011 B
b1 $
b1 7
b1 9
b1 <
b1 J
b1 S
14
#120
04
#122
b1 '
b1 F
b1 P
b10 $
b10 7
b10 9
b10 <
b10 J
b10 S
b10 0
b10 =
b10 >
0/
b1 .
b1 E
b1 M
b1 T
14
#124
04
#126
b11 $
b11 7
b11 9
b11 <
b11 J
b11 S
14
#128
04
b1000 5
b1000 8
b1000 6
#130
b0 $
b0 7
b0 9
b0 <
b0 J
b0 S
14
#132
04
#134
b1111 G
b0 I
b1110 H
b10011 ;
b1110000011110010011 +
b1110000011110010011 :
b1110000011110010011 B
b1 $
b1 7
b1 9
b1 <
b1 J
b1 S
14
#136
04
#138
b0 '
b0 F
b0 P
b10 $
b10 7
b10 9
b10 <
b10 J
b10 S
b0 0
b0 =
b0 >
1/
b0 .
b0 E
b0 M
b0 T
14
#140
04
#142
b11 $
b11 7
b11 9
b11 <
b11 J
b11 S
14
#144
04
b1001 5
b1001 8
b1001 6
#146
b0 $
b0 7
b0 9
b0 <
b0 J
b0 S
14
#148
04
#150
b10000 G
b1011 I
b1111 H
b100000 @
b110011 ;
b1000000101101111000100000110011 +
b1000000101101111000100000110011 :
b1000000101101111000100000110011 B
b1 $
b1 7
b1 9
b1 <
b1 J
b1 S
14
#152
04
#154
b110 1
b110 A
b110 O
b1 '
b1 F
b1 P
b10 $
b10 7
b10 9
b10 <
b10 J
b10 S
b10 0
b10 =
b10 >
0/
b1 .
b1 E
b1 M
b1 T
14
#156
04
#158
b11 $
b11 7
b11 9
b11 <
b11 J
b11 S
14
#160
04
b1010 5
b1010 8
b1010 6
#162
b0 $
b0 7
b0 9
b0 <
b0 J
b0 S
14
#164
04
#166
b10 1
b10 A
b10 O
b10001 G
b0 I
b10000 H
b0 @
b10011 ;
b10000000100010010011 +
b10000000100010010011 :
b10000000100010010011 B
b1 $
b1 7
b1 9
b1 <
b1 J
b1 S
14
#168
04
#170
b0 '
b0 F
b0 P
b10 $
b10 7
b10 9
b10 <
b10 J
b10 S
b0 0
b0 =
b0 >
1/
b0 .
b0 E
b0 M
b0 T
14
#172
04
#174
b11 $
b11 7
b11 9
b11 <
b11 J
b11 S
14
#176
04
b1011 5
b1011 8
b1011 6
#178
b0 $
b0 7
b0 9
b0 <
b0 J
b0 S
14
#180
04
#182
b100 '
b100 F
b100 P
b100 ,
b100 C
b100 D
b100 G
b1011 I
b0 H
b10 ?
b100011 ;
b101100000010001000100011 +
b101100000010001000100011 :
b101100000010001000100011 B
b1 $
b1 7
b1 9
b1 <
b1 J
b1 S
14
#184
04
#186
b100 #
b100 K
b100 X
b100 R
0"
b100 2
b100 Q
b100 V
b10 $
b10 7
b10 9
b10 <
b10 J
b10 S
1(
0%
b1 .
b1 E
b1 M
b1 T
b0 3
b0 L
b0 N
14
#188
04
#190
b11 $
b11 7
b11 9
b11 <
b11 J
b11 S
14
#192
04
b1100 5
b1100 8
b1100 6
#194
b0 $
b0 7
b0 9
b0 <
b0 J
b0 S
14
#196
04
#198
b0 #
b0 K
b0 X
b0 R
1"
b0 2
b0 Q
b0 V
b0 '
b0 F
b0 P
b0 ,
b0 C
b0 D
b0 G
b0 I
b0 ?
b0 ;
b0 +
b0 :
b0 B
b1 $
b1 7
b1 9
b1 <
b1 J
b1 S
14
#200
04
#202
b10 $
b10 7
b10 9
b10 <
b10 J
b10 S
0(
0/
b0 .
b0 E
b0 M
b0 T
14
#204
04
#206
b11 $
b11 7
b11 9
b11 <
b11 J
b11 S
14
#208
04
b1101 5
b1101 8
b1101 6
#210
b0 $
b0 7
b0 9
b0 <
b0 J
b0 S
14
#212
04
#214
b101 ,
b101 C
b101 D
b101 G
b1100 I
b10 ?
b100011 ;
b110000000010001010100011 +
b110000000010001010100011 :
b110000000010001010100011 B
b1 $
b1 7
b1 9
b1 <
b1 J
b1 S
14
#216
04
#218
b101 #
b101 K
b101 X
b101 R
0"
b101 2
b101 Q
b101 V
b101 '
b101 F
b101 P
b10 $
b10 7
b10 9
b10 <
b10 J
b10 S
1(
1/
bx .
bx E
bx M
bx T
14
#220
04
#222
b11 $
b11 7
b11 9
b11 <
b11 J
b11 S
14
#224
04
b1110 5
b1110 8
b1110 6
#226
b0 $
b0 7
b0 9
b0 <
b0 J
b0 S
14
#228
04
#230
b0 #
b0 K
b0 X
b0 R
1"
b0 2
b0 Q
b0 V
b0 '
b0 F
b0 P
b0 ,
b0 C
b0 D
b0 G
b0 I
b0 ?
b0 ;
b0 +
b0 :
b0 B
b1 $
b1 7
b1 9
b1 <
b1 J
b1 S
14
#232
04
#234
b10 $
b10 7
b10 9
b10 <
b10 J
b10 S
0(
0/
b0 .
b0 E
b0 M
b0 T
14
#236
04
#238
b11 $
b11 7
b11 9
b11 <
b11 J
b11 S
14
#240
04
b1111 5
b1111 8
b1111 6
#242
b0 $
b0 7
b0 9
b0 <
b0 J
b0 S
14
#244
04
#246
b101 ,
b101 C
b101 D
b10010 G
b101 I
b10 ?
b11 ;
b10100000010100100000011 +
b10100000010100100000011 :
b10100000010100100000011 B
b1 $
b1 7
b1 9
b1 <
b1 J
b1 S
14
#248
04
#250
b101 R
0"
b101 2
b101 Q
b101 V
bx #
bx K
bx X
b101 '
b101 F
b101 P
b10 $
b10 7
b10 9
b10 <
b10 J
b10 S
1*
1%
1)
1/
bx .
bx E
bx M
bx T
14
#252
04
#254
b11 $
b11 7
b11 9
b11 <
b11 J
b11 S
14
#256
04
b10000 5
b10000 8
b10000 6
#258
b0 $
b0 7
b0 9
b0 <
b0 J
b0 S
14
#260
04
#262
b0 R
1"
b0 2
b0 Q
b0 V
b0 '
b0 F
b0 P
b0 ,
b0 C
b0 D
b0 G
b0 I
b0 ?
b0 ;
b0 +
b0 :
b0 B
b1 $
b1 7
b1 9
b1 <
b1 J
b1 S
14
#264
04
#266
b0 #
b0 K
b0 X
b10 $
b10 7
b10 9
b10 <
b10 J
b10 S
0)
0*
0%
0/
b0 .
b0 E
b0 M
b0 T
14
#268
04
#270
b11 $
b11 7
b11 9
b11 <
b11 J
b11 S
14
#272
04
b10001 5
b10001 8
b10001 6
#274
b0 $
b0 7
b0 9
b0 <
b0 J
b0 S
14
#276
04
#278
b10011 G
b10010 H
b10011 ;
b10010000100110010011 +
b10010000100110010011 :
b10010000100110010011 B
b1 $
b1 7
b1 9
b1 <
b1 J
b1 S
14
#280
04
#282
bx #
bx K
bx X
bx R
x"
bx 2
bx Q
bx V
b10 $
b10 7
b10 9
b10 <
b10 J
b10 S
1%
1/
bx 3
bx L
bx N
14
#284
04
#286
b11 $
b11 7
b11 9
b11 <
b11 J
b11 S
14
#288
04
b10010 5
b10010 8
b10010 6
#290
b0 $
b0 7
b0 9
b0 <
b0 J
b0 S
14
#292
04
#294
b10100 G
b1010 I
b111 ?
b110011 ;
b101010010111101000110011 +
b101010010111101000110011 :
b101010010111101000110011 B
b1 $
b1 7
b1 9
b1 <
b1 J
b1 S
14
#296
04
#298
b0 1
b0 A
b0 O
bx '
bx F
bx P
b10 $
b10 7
b10 9
b10 <
b10 J
b10 S
b10 0
b10 =
b10 >
0/
bx .
bx E
bx M
bx T
14
#300
04
#302
b11 $
b11 7
b11 9
b11 <
b11 J
b11 S
14
#304
04
b10011 5
b10011 8
b10011 6
#306
b0 $
b0 7
b0 9
b0 <
b0 J
b0 S
14
#308
04
#310
b10 1
b10 A
b10 O
b10111 G
b0 I
b10100 H
b0 ?
b10011 ;
b10100000101110010011 +
b10100000101110010011 :
b10100000101110010011 B
b1 $
b1 7
b1 9
b1 <
b1 J
b1 S
14
#312
04
#314
b0 '
b0 F
b0 P
b10 $
b10 7
b10 9
b10 <
b10 J
b10 S
b0 0
b0 =
b0 >
1/
b0 .
b0 E
b0 M
b0 T
14
#316
04
#318
b11 $
b11 7
b11 9
b11 <
b11 J
b11 S
14
#320
04
b10100 5
b10100 8
b10100 6
#322
b0 $
b0 7
b0 9
b0 <
b0 J
b0 S
14
#324
04
#326
b10101 G
b1011 I
b10000 H
b110 ?
b110011 ;
b101110000110101010110011 +
b101110000110101010110011 :
b101110000110101010110011 B
b1 $
b1 7
b1 9
b1 <
b1 J
b1 S
14
#328
04
#330
bx1 #
bx1 K
bx1 X
bx1 R
0"
bx1 2
bx1 Q
bx1 V
b1 1
b1 A
b1 O
b1 '
b1 F
b1 P
b10 $
b10 7
b10 9
b10 <
b10 J
b10 S
b10 0
b10 =
b10 >
0/
b1 .
b1 E
b1 M
b1 T
14
#332
04
#334
b11 $
b11 7
b11 9
b11 <
b11 J
b11 S
14
#336
04
b10101 5
b10101 8
b10101 6
#338
b0 $
b0 7
b0 9
b0 <
b0 J
b0 S
14
#340
04
#342
bx #
bx K
bx X
bx R
x"
bx 2
bx Q
bx V
b10 1
b10 A
b10 O
b11000 G
b0 I
b10101 H
b0 ?
b10011 ;
b10101000110000010011 +
b10101000110000010011 :
b10101000110000010011 B
b1 $
b1 7
b1 9
b1 <
b1 J
b1 S
14
#344
04
#346
b0 '
b0 F
b0 P
b10 $
b10 7
b10 9
b10 <
b10 J
b10 S
b0 0
b0 =
b0 >
1/
b0 .
b0 E
b0 M
b0 T
14
#348
04
#350
b11 $
b11 7
b11 9
b11 <
b11 J
b11 S
14
#352
04
b10110 5
b10110 8
b10110 6
#354
b0 $
b0 7
b0 9
b0 <
b0 J
b0 S
14
#356
04
#358
b10110 G
b1110 I
b10001 H
b100 ?
b110011 ;
b111010001100101100110011 +
b111010001100101100110011 :
b111010001100101100110011 B
b1 $
b1 7
b1 9
b1 <
b1 J
b1 S
14
#360
04
#362
b1100 1
b1100 A
b1100 O
bx '
bx F
bx P
b10 $
b10 7
b10 9
b10 <
b10 J
b10 S
b10 0
b10 =
b10 >
0/
bx .
bx E
bx M
bx T
14
#364
04
#366
b11 $
b11 7
b11 9
b11 <
b11 J
b11 S
14
#368
04
b10111 5
b10111 8
b10111 6
#370
b0 $
b0 7
b0 9
b0 <
b0 J
b0 S
14
#372
04
#374
b10 1
b10 A
b10 O
b11001 G
b0 I
b10110 H
b0 ?
b10011 ;
b10110000110010010011 +
b10110000110010010011 :
b10110000110010010011 B
b1 $
b1 7
b1 9
b1 <
b1 J
b1 S
14
#376
04
#378
b0 '
b0 F
b0 P
b10 $
b10 7
b10 9
b10 <
b10 J
b10 S
b0 0
b0 =
b0 >
1/
b0 .
b0 E
b0 M
b0 T
14
#380
04
#382
b11 $
b11 7
b11 9
b11 <
b11 J
b11 S
14
#384
04
b11000 5
b11000 8
b11000 6
#386
b0 $
b0 7
b0 9
b0 <
b0 J
b0 S
14
#388
04
#390
b0 G
b0 H
b0 ;
b0 +
b0 :
b0 B
b1 $
b1 7
b1 9
b1 <
b1 J
b1 S
14
#392
04
#394
b0 #
b0 K
b0 X
b0 R
1"
b0 2
b0 Q
b0 V
b10 $
b10 7
b10 9
b10 <
b10 J
b10 S
0%
0/
b0 3
b0 L
b0 N
14
#396
04
#398
b11 $
b11 7
b11 9
b11 <
b11 J
b11 S
14
#400
04
b11001 5
b11001 8
b11001 6
#402
b0 $
b0 7
b0 9
b0 <
b0 J
b0 S
14
#404
04
#406
b100 ,
b100 C
b100 D
b11010 G
b100 I
b10 ?
b11 ;
b10000000010110100000011 +
b10000000010110100000011 :
b10000000010110100000011 B
b1 $
b1 7
b1 9
b1 <
b1 J
b1 S
14
#408
04
#410
b100 R
0"
b100 2
b100 Q
b100 V
bx #
bx K
bx X
b100 '
b100 F
b100 P
b10 $
b10 7
b10 9
b10 <
b10 J
b10 S
1*
1%
1)
1/
bx .
bx E
bx M
bx T
14
#412
b1 #
b1 K
b1 X
b1 &
b1 U
b1 W
04
#414
b11 $
b11 7
b11 9
b11 <
b11 J
b11 S
14
#416
04
b11010 5
b11010 8
b11010 6
#418
b0 $
b0 7
b0 9
b0 <
b0 J
b0 S
14
#420
04
#422
b0 R
1"
b0 2
b0 Q
b0 V
b0 '
b0 F
b0 P
b0 ,
b0 C
b0 D
b11011 G
b0 I
b11010 H
b0 ?
b10011 ;
b11010000110110010011 +
b11010000110110010011 :
b11010000110110010011 B
b1 $
b1 7
b1 9
b1 <
b1 J
b1 S
14
#424
04
#426
bx R
bx #
bx K
bx X
x"
bx 2
bx Q
bx V
b10 $
b10 7
b10 9
b10 <
b10 J
b10 S
0*
0)
b0 .
b0 E
b0 M
b0 T
bx 3
bx L
bx N
14
#428
04
#430
b11 $
b11 7
b11 9
b11 <
b11 J
b11 S
14
#432
04
b11011 5
b11011 8
b11011 6
#434
b0 $
b0 7
b0 9
b0 <
b0 J
b0 S
14
#436
04
#438
b0 G
b0 H
b0 ;
b0 +
b0 :
b0 B
b1 $
b1 7
b1 9
b1 <
b1 J
b1 S
14
#440
04
#442
b0 #
b0 K
b0 X
b0 R
1"
b0 2
b0 Q
b0 V
b10 $
b10 7
b10 9
b10 <
b10 J
b10 S
0%
0/
b0 3
b0 L
b0 N
14
#444
04
#446
b11 $
b11 7
b11 9
b11 <
b11 J
b11 S
14
#448
04
b11100 5
b11100 8
b11100 6
#450
b0 $
b0 7
b0 9
b0 <
b0 J
b0 S
14
#452
04
#454
b1001 ,
b1001 C
b1001 D
b11110 G
b1001 I
b10 ?
b11 ;
b100100000010111100000011 +
b100100000010111100000011 :
b100100000010111100000011 B
b1 $
b1 7
b1 9
b1 <
b1 J
b1 S
14
#456
04
#458
b1001 R
0"
b1001 2
b1001 Q
b1001 V
b1 #
b1 K
b1 X
b1001 '
b1001 F
b1001 P
b10 $
b10 7
b10 9
b10 <
b10 J
b10 S
1*
1%
1)
1/
bx .
bx E
bx M
bx T
14
#460
bx #
bx K
bx X
bx &
bx U
bx W
04
#462
b11 $
b11 7
b11 9
b11 <
b11 J
b11 S
14
#464
04
b11101 5
b11101 8
b11101 6
#466
b0 $
b0 7
b0 9
b0 <
b0 J
b0 S
14
#468
04
#470
b0 R
1"
b0 2
b0 Q
b0 V
b0 '
b0 F
b0 P
b0 ,
b0 C
b0 D
b0 G
b0 I
b0 ?
b0 ;
b0 +
b0 :
b0 B
b1 $
b1 7
b1 9
b1 <
b1 J
b1 S
14
#472
04
#474
b0 #
b0 K
b0 X
b10 $
b10 7
b10 9
b10 <
b10 J
b10 S
0)
0*
0%
0/
b0 .
b0 E
b0 M
b0 T
14
#476
04
#478
b11 $
b11 7
b11 9
b11 <
b11 J
b11 S
14
#480
04
b11110 5
b11110 8
b11110 6
#482
b0 $
b0 7
b0 9
b0 <
b0 J
b0 S
14
#484
04
#486
b11111 G
b11110 H
b10011 ;
b11110000111110010011 +
b11110000111110010011 :
b11110000111110010011 B
b1 $
b1 7
b1 9
b1 <
b1 J
b1 S
14
#488
04
#490
bx #
bx K
bx X
bx R
x"
bx 2
bx Q
bx V
b10 $
b10 7
b10 9
b10 <
b10 J
b10 S
1%
1/
bx 3
bx L
bx N
14
#492
04
#494
b11 $
b11 7
b11 9
b11 <
b11 J
b11 S
14
#496
04
b11111 6
#498
b0 $
b0 7
b0 9
b0 <
b0 J
b0 S
14
#500
04
#502
b1 $
b1 7
b1 9
b1 <
b1 J
b1 S
14
#504
04
#506
b10 $
b10 7
b10 9
b10 <
b10 J
b10 S
14
#508
04
#510
b11 $
b11 7
b11 9
b11 <
b11 J
b11 S
14
#512
04
#514
b0 $
b0 7
b0 9
b0 <
b0 J
b0 S
14
#516
04
#518
b1 $
b1 7
b1 9
b1 <
b1 J
b1 S
14
#520
04
#522
b10 $
b10 7
b10 9
b10 <
b10 J
b10 S
14
#524
04
#526
b11 $
b11 7
b11 9
b11 <
b11 J
b11 S
14
#528
04
#530
b0 $
b0 7
b0 9
b0 <
b0 J
b0 S
14
#532
04
#534
b1 $
b1 7
b1 9
b1 <
b1 J
b1 S
14
#536
04
#538
b10 $
b10 7
b10 9
b10 <
b10 J
b10 S
14
#540
04
#542
b11 $
b11 7
b11 9
b11 <
b11 J
b11 S
14
#544
04
#546
b0 $
b0 7
b0 9
b0 <
b0 J
b0 S
14
#548
04
#550
b1 $
b1 7
b1 9
b1 <
b1 J
b1 S
14
#552
04
#554
b10 $
b10 7
b10 9
b10 <
b10 J
b10 S
14
#556
04
#558
b11 $
b11 7
b11 9
b11 <
b11 J
b11 S
14
#560
04
#562
b0 $
b0 7
b0 9
b0 <
b0 J
b0 S
14
#564
04
#566
b1 $
b1 7
b1 9
b1 <
b1 J
b1 S
14
#568
04
#570
b10 $
b10 7
b10 9
b10 <
b10 J
b10 S
14
#572
04
#574
b11 $
b11 7
b11 9
b11 <
b11 J
b11 S
14
#576
04
#578
b0 $
b0 7
b0 9
b0 <
b0 J
b0 S
14
#580
04
#582
b1 $
b1 7
b1 9
b1 <
b1 J
b1 S
14
#584
04
#586
b10 $
b10 7
b10 9
b10 <
b10 J
b10 S
14
#588
04
#590
b11 $
b11 7
b11 9
b11 <
b11 J
b11 S
14
#592
04
#594
b0 $
b0 7
b0 9
b0 <
b0 J
b0 S
14
#596
04
#598
b1 $
b1 7
b1 9
b1 <
b1 J
b1 S
14
#600
04
#602
b10 $
b10 7
b10 9
b10 <
b10 J
b10 S
14
#604
04
#606
b11 $
b11 7
b11 9
b11 <
b11 J
b11 S
14
#608
04
#610
b0 $
b0 7
b0 9
b0 <
b0 J
b0 S
14
#612
04
#614
b1 $
b1 7
b1 9
b1 <
b1 J
b1 S
14
#616
04
#618
b10 $
b10 7
b10 9
b10 <
b10 J
b10 S
14
#620
04
#622
b11 $
b11 7
b11 9
b11 <
b11 J
b11 S
14
#624
04
#626
b0 $
b0 7
b0 9
b0 <
b0 J
b0 S
14
#628
04
#630
b1 $
b1 7
b1 9
b1 <
b1 J
b1 S
14
#632
04
#634
b10 $
b10 7
b10 9
b10 <
b10 J
b10 S
14
#636
04
#638
b11 $
b11 7
b11 9
b11 <
b11 J
b11 S
14
#640
04
#642
b0 $
b0 7
b0 9
b0 <
b0 J
b0 S
14
#644
04
#646
b1 $
b1 7
b1 9
b1 <
b1 J
b1 S
14
#648
04
#650
b10 $
b10 7
b10 9
b10 <
b10 J
b10 S
14
#652
04
#654
b11 $
b11 7
b11 9
b11 <
b11 J
b11 S
14
