Khizar/verilog/single-cycle/vcd/riscv.vcd
$date
	Wed Jul 26 17:47:57 2023
$end
$version
	Icarus Verilog
$end
$timescale
	1s
$end
$scope module riscv_tb $end
$var reg 1 ! clk $end
$var reg 1 " rst $end
$scope module core $end
$var wire 1 ! clk $end
$var wire 1 # overflow $end
$var wire 1 " rst $end
$var wire 1 $ zero $end
$var wire 32 % writedata [31:0] $end
$var wire 32 & sumB [31:0] $end
$var wire 32 ' sumA [31:0] $end
$var wire 1 ( select $end
$var wire 1 ) regwrite $end
$var wire 32 * readdata [31:0] $end
$var wire 32 + pc [31:0] $end
$var wire 32 , newpc [31:0] $end
$var wire 32 - mux_out [31:0] $end
$var wire 1 . memwrite $end
$var wire 1 / memtoreg $end
$var wire 1 0 memread $end
$var wire 32 1 instruction [31:0] $end
$var wire 32 2 immediate [31:0] $end
$var wire 1 3 branch $end
$var wire 32 4 b [31:0] $end
$var wire 1 5 alusrc $end
$var wire 2 6 aluop [1:0] $end
$var wire 4 7 aluctl [3:0] $end
$var wire 32 8 alu_out [31:0] $end
$var wire 32 9 a [31:0] $end
$upscope $end
$upscope $end
$enddefinitions $end
#0
$dumpvars
bx 9
bx 8
bx 7
bx 6
x5
bx 4
x3
bx 2
bx 1
x0
x/
x.
bx -
bx ,
bx +
bx *
x)
x(
bx '
bx &
bx %
x$
z#
x"
x!
$end
#1
0!
#2
0(
b0 *
b1 %
b1 -
b100 ,
b0 6
15
0/
1)
00
0.
03
0$
b1 8
b10 7
b1 &
b1 2
b0 9
b100 '
b100000000010100010011 1
b0 +
1"
1!
#3
0!
#4
1!
#5
0!
0"
#6
b10 %
b10 8
b1000 ,
b1 9
b101 &
b1000 '
b101010000010110010011 1
b100 +
1!
#7
0!
#8
b11 %
b11 8
b10 -
b10 2
b1100 ,
b1010 &
b1100 '
b1001010000011000010011 1
b1000 +
1!
#9
0!
#10
1$
b0 %
b0 -
b0 8
b0 2
b10000 ,
b0 4
b0 9
b1100 &
b10000 '
b10011 1
b1100 +
1!
#11
0!
#12
0)
1.
b10100 ,
b1 4
b10000 &
b10100 '
b101000000010000000100011 1
b10000 +
1!
#13
0!
#14
1)
0.
b11000 ,
b0 4
b10100 &
b11000 '
b10011 1
b10100 +
1!
#15
0!
#16
b100 %
b11 -
0$
b100 8
b11 2
b11100 ,
bx 4
b1 9
b11011 &
b11100 '
b1101010000011010010011 1
b11000 +
1!
#17
0!
#18
b110 %
b10 -
b10 6
05
b110 8
b0 2
b100000 ,
b10 4
b100 9
b11100 &
b100000 '
b101101101000011100110011 1
b11100 +
1!
#19
0!
#20
b0 6
15
b110 8
b0 -
b100100 ,
b0 4
b110 9
b100000 &
b100100 '
b1110000011110010011 1
b100000 +
1!
#21
0!
#22
b100 %
b100 8
b110 7
b10 -
b10 6
05
b101000 ,
b10 4
b100100 &
b101000 '
b1000000101101111000100000110011 1
b100100 +
1!
#23
0!
#24
b0 6
15
b100 8
b10 7
b0 -
b101100 ,
b0 4
b100 9
b101000 &
b101100 '
b10000000100010010011 1
b101000 +
1!
#25
0!
#26
b0 %
0)
1.
1$
b0 8
b110000 ,
b10 4
b0 9
b101100 &
b110000 '
b101100000010000000100011 1
b101100 +
1!
#27
0!
#28
1)
0.
b110100 ,
b0 4
b110000 &
b110100 '
b10011 1
b110000 +
1!
#29
0!
#30
b100 %
0$
b100 8
b100 -
0)
1.
b100 2
b111000 ,
b11 4
b111000 &
b111000 '
b110000000010001000100011 1
b110100 +
1!
#31
0!
#32
b0 %
1$
b0 8
b0 -
1)
0.
b0 2
b111100 ,
b0 4
b111000 &
b111100 '
b10011 1
b111000 +
1!
#33
0!
#34
0$
b100 8
b11 %
b11 *
b100 -
1/
10
b100 2
b1000000 ,
bx 4
b1000000 &
b1000000 '
b10000000010100100000011 1
b111100 +
1!
#35
0!
#36
1$
b0 8
b0 %
b0 *
b0 -
0/
00
b0 2
b1000100 ,
b0 4
b1000000 &
b1000100 '
b10011 1
b1000000 +
1!
#37
0!
#38
b11 %
0$
b11 8
b1001000 ,
b11 9
b1000100 &
b1001000 '
b10010000100110010011 1
b1000100 +
1!
#39
0!
#40
b0 7
b11 -
b1 %
b10 6
05
b1 8
b1001100 ,
b1 9
b11 4
b1001000 &
b1001100 '
b1001001010111101000110011 1
b1001000 +
1!
#41
0!
#42
b1 %
0$
b1 8
b0 6
15
b10 7
b0 -
b1010000 ,
b0 4
b1001100 &
b1010000 '
b10100000101110010011 1
b1001100 +
1!
#43
0!
#44
b1 7
b100 -
b110 %
b10 6
05
b110 8
b1010100 ,
b10 9
b100 4
b1010000 &
b1010100 '
b1000001011110101010110011 1
b1010000 +
1!
#45
0!
#46
b0 6
15
b10 7
b0 -
b1011000 ,
b110 9
b0 4
b1010100 &
b1011000 '
b10101000110000010011 1
b1010100 +
1!
#47
0!
#48
b10 %
b10 8
b1100 7
b100 -
b10 6
05
b1011100 ,
b100 4
b1011000 &
b1011100 '
b1000101110100101100110011 1
b1011000 +
1!
#49
0!
#50
b0 6
15
b10 7
b0 -
b1100000 ,
b10 9
b0 4
b1011100 &
b1100000 '
b10110000110010010011 1
b1011100 +
1!
#51
0!
#52
b0 %
1$
b0 8
b1100100 ,
b0 9
b1100000 &
b1100100 '
b10011 1
b1100000 +
1!
#53
0!
#54
0$
b100 8
b11 %
b11 *
b100 -
1/
10
b100 2
b1101000 ,
bx 4
b1101000 &
b1101000 '
b10000000010110100000011 1
b1100100 +
1!
#55
0!
#56
b11 %
b0 *
b0 -
0/
00
b11 8
b0 2
b1101100 ,
b0 4
b11 9
b1101000 &
b1101100 '
b11010000110110010011 1
b1101000 +
1!
#57
0!
#58
b0 %
1$
b0 8
b1110000 ,
b0 9
b1101100 &
b1110000 '
b10011 1
b1101100 +
1!
#59
0!
#60
b10 %
b10 *
1/
10
b1110100 ,
b1110000 &
b1110100 '
b10111100000011 1
b1110000 +
1!
#61
0!
#62
b0 %
b0 *
0/
00
b1111000 ,
b1110100 &
b1111000 '
b10011 1
b1110100 +
1!
#63
0!
#64
b10 %
0$
b10 8
b1111100 ,
b10 9
b1111000 &
b1111100 '
b11110000111110010011 1
b1111000 +
1!
#65
0!
#66
b1100 %
b1000 -
0)
1.
b1100 8
b1000 2
b10000000 ,
b100 9
b110 4
b10000100 &
b10000000 '
b1100010000010010000100011 1
b1111100 +
1!
#67
0!
#68
b10000 %
b10000 8
b1100 -
b1100 2
b10000100 ,
b10 4
b10001100 &
b10000100 '
b1100110001010011000100011 1
b10000000 +
1!
#69
0!
#70
b10100 %
b10011 -
b10100 8
b10011 2
b10001000 ,
b11 4
b1 9
b10010111 &
b10001000 '
b1001101010010100110100011 1
b10000100 +
1!
#71
0!
#72
b11000 %
b10101 -
b11000 8
b10101 2
b10001100 ,
b10 4
b11 9
b10011101 &
b10001100 '
b1111010010010101010100011 1
b10001000 +
1!
#73
0!
#74
b110 *
b110 %
b1010 -
1/
1)
10
0.
b1100 8
b1010 2
b10010000 ,
b10 9
b1 4
b10010110 &
b10010000 '
b101001011010001010000011 1
b10001100 +
1!
#75
0!
#76
b10 %
b10 *
b1101 -
b10000 8
b1101 2
b10010100 ,
b100 4
b11 9
b10011101 &
b10010100 '
b110101100010001100000011 1
b10010000 +
1!
#77
0!
#78
b11 %
b11 *
b1110 -
b10100 8
b1110 2
b10011000 ,
b110 4
b110 9
b10100010 &
b10011000 '
b111001111010001110000011 1
b10010100 +
1!
#79
0!
#80
b10 %
b10 *
b10110 -
b11000 8
b10110 2
b10011100 ,
b10 9
b10 4
b10101110 &
b10011100 '
b1011011001010010000000011 1
b10011000 +
1!
#81
0!
#82
b110 %
b0 *
b0 -
0/
00
b110 8
b0 2
b10100000 ,
b110 9
b0 4
b10011100 &
b10100000 '
b101000001000010011 1
b10011100 +
1!
#83
0!
#84
b10 %
b10 8
b10100100 ,
b10 9
b10100000 &
b10100100 '
b110000001000010011 1
b10100000 +
1!
#85
0!
#86
b11 %
b11 8
b10101000 ,
b11 9
b10100100 &
b10101000 '
b111000001000010011 1
b10100100 +
1!
#87
0!
#88
b10 %
b10 8
b10101100 ,
b10 9
b10101000 &
b10101100 '
b1000000001000010011 1
b10101000 +
1!
#89
0!
#90
bx -
bx %
05
0)
x$
bx 8
b10110000 ,
bx 9
bx 4
b10101100 &
b10110000 '
bx 1
b10101100 +
1!
#91
0!
#92
b10110100 ,
b10110000 &
b10110100 '
b10110000 +
1!
#93
0!
#94
b10111000 ,
b10110100 &
b10111000 '
b10110100 +
1!
#95
0!
#96
b10111100 ,
b10111000 &
b10111100 '
b10111000 +
1!
#97
0!
#98
b11000000 ,
b10111100 &
b11000000 '
b10111100 +
1!
#99
0!
#100
b11000100 ,
b11000000 &
b11000100 '
b11000000 +
1!
#101
0!
#102
b11001000 ,
b11000100 &
b11001000 '
b11000100 +
1!
#103
0!
#104
b11001100 ,
b11001000 &
b11001100 '
b11001000 +
1!
#105
0!
#106
b11010000 ,
b11001100 &
b11010000 '
b11001100 +
1!
#107
0!
#108
b11010100 ,
b11010000 &
b11010100 '
b11010000 +
1!
#109
0!
#110
b11011000 ,
b11010100 &
b11011000 '
b11010100 +
1!
#111
0!
#112
b11011100 ,
b11011000 &
b11011100 '
b11011000 +
1!
#113
0!
#114
b11100000 ,
b11011100 &
b11100000 '
b11011100 +
1!
#115
0!
#116
b11100100 ,
b11100000 &
b11100100 '
b11100000 +
1!
#117
0!
#118
b11101000 ,
b11100100 &
b11101000 '
b11100100 +
1!
#119
0!
#120
b11101100 ,
b11101000 &
b11101100 '
b11101000 +
1!
#121
0!
#122
b11110000 ,
b11101100 &
b11110000 '
b11101100 +
1!
#123
0!
#124
b11110100 ,
b11110000 &
b11110100 '
b11110000 +
1!
#125
0!
#126
b11111000 ,
b11110100 &
b11111000 '
b11110100 +
1!
#127
0!
#128
b11111100 ,
b11111000 &
b11111100 '
b11111000 +
1!
#129
0!
#130
b100000000 ,
b11111100 &
b100000000 '
b11111100 +
1!
#131
0!
#132
b100000100 ,
b100000000 &
b100000100 '
b100000000 +
1!
#133
0!
#134
b100001000 ,
b100000100 &
b100001000 '
b100000100 +
1!
#135
0!
#136
b100001100 ,
b100001000 &
b100001100 '
b100001000 +
1!
#137
0!
#138
b100010000 ,
b100001100 &
b100010000 '
b100001100 +
1!
#139
0!
#140
b100010100 ,
b100010000 &
b100010100 '
b100010000 +
1!
#141
0!
#142
b100011000 ,
b100010100 &
b100011000 '
b100010100 +
1!
#143
0!
#144
b100011100 ,
b100011000 &
b100011100 '
b100011000 +
1!
#145
0!
#146
b100100000 ,
b100011100 &
b100100000 '
b100011100 +
1!
#147
0!
#148
b100100100 ,
b100100000 &
b100100100 '
b100100000 +
1!
#149
0!
#150
b100101000 ,
b100100100 &
b100101000 '
b100100100 +
1!
#151
0!
#152
b100101100 ,
b100101000 &
b100101100 '
b100101000 +
1!
#153
0!
#154
b100110000 ,
b100101100 &
b100110000 '
b100101100 +
1!
#155
0!
#156
b100110100 ,
b100110000 &
b100110100 '
b100110000 +
1!
#157
0!
#158
b100111000 ,
b100110100 &
b100111000 '
b100110100 +
1!
#159
0!
#160
b100111100 ,
b100111000 &
b100111100 '
b100111000 +
1!
#161
0!
#162
b101000000 ,
b100111100 &
b101000000 '
b100111100 +
1!
#163
0!
#164
b101000100 ,
b101000000 &
b101000100 '
b101000000 +
1!
#165
0!
#166
b101001000 ,
b101000100 &
b101001000 '
b101000100 +
1!
#167
0!
#168
b101001100 ,
b101001000 &
b101001100 '
b101001000 +
1!
#169
0!
#170
b101010000 ,
b101001100 &
b101010000 '
b101001100 +
1!
#171
0!
#172
b101010100 ,
b101010000 &
b101010100 '
b101010000 +
1!
#173
0!
#174
b101011000 ,
b101010100 &
b101011000 '
b101010100 +
1!
#175
0!
#176
b101011100 ,
b101011000 &
b101011100 '
b101011000 +
1!
#177
0!
#178
b101100000 ,
b101011100 &
b101100000 '
b101011100 +
1!
#179
0!
#180
b101100100 ,
b101100000 &
b101100100 '
b101100000 +
1!
#181
0!
#182
b101101000 ,
b101100100 &
b101101000 '
b101100100 +
1!
#183
0!
#184
b101101100 ,
b101101000 &
b101101100 '
b101101000 +
1!
#185
0!
#186
b101110000 ,
b101101100 &
b101110000 '
b101101100 +
1!
#187
0!
#188
b101110100 ,
b101110000 &
b101110100 '
b101110000 +
1!
#189
0!
#190
b101111000 ,
b101110100 &
b101111000 '
b101110100 +
1!
#191
0!
#192
b101111100 ,
b101111000 &
b101111100 '
b101111000 +
1!
#193
0!
#194
b110000000 ,
b101111100 &
b110000000 '
b101111100 +
1!
#195
0!
#196
b110000100 ,
b110000000 &
b110000100 '
b110000000 +
1!
#197
0!
#198
b110001000 ,
b110000100 &
b110001000 '
b110000100 +
1!
#199
0!
#200
b110001100 ,
b110001000 &
b110001100 '
b110001000 +
1!
#201
0!
#202
b110010000 ,
b110001100 &
b110010000 '
b110001100 +
1!
#203
0!
#204
b110010100 ,
b110010000 &
b110010100 '
b110010000 +
1!
