Khizar/verilog/single-cycle/vcd/tb_automate_pc_1.vcd
$date
	Fri Jul 21 20:22:59 2023
$end
$version
	Icarus Verilog
$end
$timescale
	1s
$end
$scope module combined_tb $end
$var wire 1 ! overflow $end
$var wire 1 " zero $end
$var wire 32 # writedata [31:0] $end
$var wire 1 $ regwrite $end
$var wire 32 % readdata [31:0] $end
$var wire 32 & mux_out [31:0] $end
$var wire 1 ' memwrite $end
$var wire 1 ( memtoreg $end
$var wire 1 ) memread $end
$var wire 32 * instruction [31:0] $end
$var wire 32 + immediate [31:0] $end
$var wire 1 , branch $end
$var wire 32 - b [31:0] $end
$var wire 1 . alusrc $end
$var wire 2 / aluop [1:0] $end
$var wire 4 0 aluctl [3:0] $end
$var wire 32 1 alu_out [31:0] $end
$var wire 32 2 a [31:0] $end
$var reg 1 3 clk $end
$var reg 10 4 pc [9:0] $end
$var reg 2 5 state [1:0] $end
$var integer 32 6 i [31:0] $end
$scope module uutA $end
$var wire 1 3 clk $end
$var wire 10 7 pc [9:0] $end
$var reg 32 8 instruction [31:0] $end
$upscope $end
$scope module uutB $end
$var wire 7 9 instruction [6:0] $end
$var wire 2 : state [1:0] $end
$var reg 2 ; aluop [1:0] $end
$var reg 1 . alusrc $end
$var reg 1 , branch $end
$var reg 1 ) memread $end
$var reg 1 ( memtoreg $end
$var reg 1 ' memwrite $end
$var reg 1 $ regwrite $end
$upscope $end
$scope module uutC $end
$var wire 2 < aluop [1:0] $end
$var wire 3 = func3 [2:0] $end
$var wire 7 > func7 [6:0] $end
$var reg 4 ? aluctl [3:0] $end
$upscope $end
$scope module uutD $end
$var wire 32 @ instruction [31:0] $end
$var reg 32 A result [31:0] $end
$upscope $end
$scope module uutE $end
$var wire 32 B in2 [31:0] $end
$var wire 1 . s $end
$var wire 32 C in1 [31:0] $end
$var reg 32 D out [31:0] $end
$upscope $end
$scope module uutF $end
$var wire 1 3 clk $end
$var wire 5 E rd [4:0] $end
$var wire 1 $ regwrite $end
$var wire 5 F rs1 [4:0] $end
$var wire 5 G rs2 [4:0] $end
$var wire 32 H writedata [31:0] $end
$var reg 32 I readdata1 [31:0] $end
$var reg 32 J readdata2 [31:0] $end
$upscope $end
$scope module uutG $end
$var wire 32 K a [31:0] $end
$var wire 4 L aluctl [3:0] $end
$var wire 32 M b [31:0] $end
$var wire 1 ! overflow $end
$var wire 1 " zero $end
$var reg 32 N out [31:0] $end
$upscope $end
$scope module uutH $end
$var wire 10 O address [9:0] $end
$var wire 1 3 clk $end
$var wire 1 ) memread $end
$var wire 1 ' memwrite $end
$var wire 32 P writedata [31:0] $end
$var reg 32 Q readdata [31:0] $end
$upscope $end
$scope module uutI $end
$var wire 32 R in1 [31:0] $end
$var wire 32 S in2 [31:0] $end
$var wire 1 ( s $end
$var reg 32 T out [31:0] $end
$upscope $end
$upscope $end
$enddefinitions $end
#0
$dumpvars
bx T
bx S
bx R
bx Q
bx P
bx O
bx N
bx M
b10 L
bx K
bx J
bx I
bx H
bx G
bx F
bx E
bx D
bx C
bx B
bx A
bx @
b10 ?
bx >
bx =
b0 <
b0 ;
b0 :
bx 9
bx 8
b1111111111 7
b101100 6
b0 5
b1111111111 4
03
bx 2
bx 1
b10 0
b0 /
0.
bx -
0,
bx +
bx *
0)
0(
0'
bx &
bx %
0$
bx #
x"
z!
$end
#1
0$
0.
b1 +
b1 A
b1 B
b0 =
b0 >
b1010 E
b1 G
b0 F
b10011 9
b100000000010100010011 *
b100000000010100010011 8
b100000000010100010011 @
b1 5
b1 :
b0 4
b0 7
13
#2
03
#3
b1 #
b1 H
b1 T
b1 O
0"
b1 1
b1 N
b1 R
b1 &
b1 D
b1 M
1$
1.
b0 2
b0 I
b0 K
b10 5
b10 :
13
#4
03
#5
b11 5
b11 :
13
#6
03
#7
bx #
bx H
bx T
bx O
x"
bx 1
bx N
bx R
bx &
bx D
bx M
0$
0.
b0 5
b0 :
13
#8
03
#9
b1011 E
b1010 F
0$
0.
b101010000010110010011 *
b101010000010110010011 8
b101010000010110010011 @
b1 5
b1 :
b1 4
b1 7
13
#10
03
#11
b10 #
b10 H
b10 T
b10 O
0"
b10 1
b10 N
b10 R
b1 &
b1 D
b1 M
1$
1.
b1 2
b1 I
b1 K
b10 5
b10 :
13
#12
03
#13
b11 5
b11 :
13
#14
03
#15
bx #
bx H
bx T
bx O
x"
bx 1
bx N
bx R
bx &
bx D
bx M
0$
0.
b0 5
b0 :
13
#16
03
#17
b10 +
b10 A
b10 B
b1100 E
b10 G
0$
0.
b1001010000011000010011 *
b1001010000011000010011 8
b1001010000011000010011 @
b1 5
b1 :
b10 4
b10 7
13
#18
03
#19
b11 #
b11 H
b11 T
b11 O
0"
b11 1
b11 N
b11 R
b10 &
b10 D
b10 M
1$
1.
b10 5
b10 :
13
#20
03
#21
b11 5
b11 :
13
#22
03
#23
bx #
bx H
bx T
bx O
x"
bx 1
bx N
bx R
bx &
bx D
bx M
0$
0.
b0 5
b0 :
13
#24
03
#25
b0 +
b0 A
b0 B
b0 E
b0 G
b0 F
b0 9
0$
0.
b0 *
b0 8
b0 @
b1 5
b1 :
b11 4
b11 7
13
#26
03
#27
b0 #
b0 H
b0 T
b0 O
1"
b0 1
b0 N
b0 R
b0 &
b0 D
b0 M
b0 -
b0 C
b0 J
b0 P
b0 2
b0 I
b0 K
b10 5
b10 :
13
#28
03
#29
b11 5
b11 :
13
#30
03
#31
b0 5
b0 :
13
#32
03
#33
0'
0.
b1001 +
b1001 A
b1001 B
b10 =
b1001 E
b1010 G
b100011 9
b101000000010010010100011 *
b101000000010010010100011 8
b101000000010010010100011 @
b1 5
b1 :
b100 4
b100 7
13
#34
03
#35
b1001 #
b1001 H
b1001 T
b1001 O
0"
b1001 1
b1001 N
b1001 R
b1001 &
b1001 D
b1001 M
1'
1.
b1 -
b1 C
b1 J
b1 P
b10 5
b10 :
13
#36
03
#37
b11 5
b11 :
13
#38
03
#39
b1 #
b1 H
b1 T
b1 O
b1 1
b1 N
b1 R
b1 &
b1 D
b1 M
0'
0.
b0 5
b0 :
13
#40
03
#41
b0 +
b0 A
b0 B
b0 =
b0 E
b0 G
b0 9
0'
0.
b0 *
b0 8
b0 @
b1 5
b1 :
b101 4
b101 7
13
#42
03
#43
b0 #
b0 H
b0 T
b0 O
1"
b0 1
b0 N
b0 R
b0 &
b0 D
b0 M
b0 -
b0 C
b0 J
b0 P
b10 5
b10 :
13
#44
03
#45
b11 5
b11 :
13
#46
03
#47
b0 5
b0 :
13
#48
03
#49
0$
0.
b11 +
b11 A
b11 B
b1101 E
b11 G
b1010 F
b10011 9
b1101010000011010010011 *
b1101010000011010010011 8
b1101010000011010010011 @
b1 5
b1 :
b110 4
b110 7
13
#50
03
#51
b100 #
b100 H
b100 T
b100 O
b11 &
b11 D
b11 M
0"
b100 1
b100 N
b100 R
1$
1.
bx -
bx C
bx J
bx P
b1 2
b1 I
b1 K
b10 5
b10 :
13
#52
03
#53
b11 5
b11 :
13
#54
03
#55
bx #
bx H
bx T
bx O
x"
bx 1
bx N
bx R
bx &
bx D
bx M
0$
0.
b0 5
b0 :
13
#56
03
#57
b0 /
b0 ;
b0 <
b0 +
b0 A
b0 B
b1110 E
b1011 G
b1101 F
b110011 9
0$
0.
b101101101000011100110011 *
b101101101000011100110011 8
b101101101000011100110011 @
b1 5
b1 :
b111 4
b111 7
13
#58
03
#59
b110 #
b110 H
b110 T
b110 O
0"
b110 1
b110 N
b110 R
b10 &
b10 D
b10 M
b10 /
b10 ;
b10 <
1$
b10 -
b10 C
b10 J
b10 P
b100 2
b100 I
b100 K
b10 5
b10 :
13
#60
03
#61
b11 5
b11 :
13
#62
03
#63
b0 /
b0 ;
b0 <
0$
b0 5
b0 :
13
#64
03
#65
0.
b1111 E
b0 G
b1110 F
b10011 9
b0 /
b0 ;
b0 <
0$
b1110000011110010011 *
b1110000011110010011 8
b1110000011110010011 @
b1 5
b1 :
b1000 4
b1000 7
13
#66
03
#67
b110 #
b110 H
b110 T
b110 O
b0 &
b0 D
b0 M
b110 1
b110 N
b110 R
1$
1.
b0 -
b0 C
b0 J
b0 P
b110 2
b110 I
b110 K
b10 5
b10 :
13
#68
03
#69
b11 5
b11 :
13
#70
03
#71
0$
0.
b0 5
b0 :
13
#72
03
#73
b0 /
b0 ;
b0 <
b100000 >
b10000 E
b1011 G
b1111 F
b110011 9
0$
0.
b1000000101101111000100000110011 *
b1000000101101111000100000110011 8
b1000000101101111000100000110011 @
b1 5
b1 :
b1001 4
b1001 7
13
#74
03
#75
b100 #
b100 H
b100 T
b100 O
b100 1
b100 N
b100 R
b110 0
b110 ?
b110 L
b10 &
b10 D
b10 M
b10 /
b10 ;
b10 <
1$
b10 -
b10 C
b10 J
b10 P
b10 5
b10 :
13
#76
03
#77
b11 5
b11 :
13
#78
03
#79
b1000 #
b1000 H
b1000 T
b1000 O
b1000 1
b1000 N
b1000 R
b10 0
b10 ?
b10 L
b0 /
b0 ;
b0 <
0$
b0 5
b0 :
13
#80
03
#81
0.
b0 >
b10001 E
b0 G
b10000 F
b10011 9
b0 /
b0 ;
b0 <
0$
b10000000100010010011 *
b10000000100010010011 8
b10000000100010010011 @
b1 5
b1 :
b1010 4
b1010 7
13
#82
03
#83
b100 #
b100 H
b100 T
b100 O
b0 &
b0 D
b0 M
b100 1
b100 N
b100 R
1$
1.
b0 -
b0 C
b0 J
b0 P
b100 2
b100 I
b100 K
b10 5
b10 :
13
#84
03
#85
b11 5
b11 :
13
#86
03
#87
0$
0.
b0 5
b0 :
13
#88
03
#89
0'
b100 +
b100 A
b100 B
b10 =
b100 E
b1011 G
b0 F
b100011 9
0$
0.
b101100000010001000100011 *
b101100000010001000100011 8
b101100000010001000100011 @
b1 5
b1 :
b1011 4
b1011 7
13
#90
03
#91
b100 #
b100 H
b100 T
b100 O
b100 &
b100 D
b100 M
0"
b100 1
b100 N
b100 R
1'
1.
b10 -
b10 C
b10 J
b10 P
b0 2
b0 I
b0 K
b10 5
b10 :
13
#92
03
#93
b11 5
b11 :
13
#94
03
#95
b10 #
b10 H
b10 T
b10 O
b10 1
b10 N
b10 R
b10 &
b10 D
b10 M
0'
0.
b0 5
b0 :
13
#96
03
#97
b0 +
b0 A
b0 B
b0 =
b0 E
b0 G
b0 9
0'
0.
b0 *
b0 8
b0 @
b1 5
b1 :
b1100 4
b1100 7
13
#98
03
#99
b0 #
b0 H
b0 T
b0 O
1"
b0 1
b0 N
b0 R
b0 &
b0 D
b0 M
b0 -
b0 C
b0 J
b0 P
b10 5
b10 :
13
#100
03
#101
b11 5
b11 :
13
#102
03
#103
b0 5
b0 :
13
#104
03
#105
0'
0.
b101 +
b101 A
b101 B
b10 =
b101 E
b1100 G
b100011 9
b110000000010001010100011 *
b110000000010001010100011 8
b110000000010001010100011 @
b1 5
b1 :
b1101 4
b1101 7
13
#106
03
#107
b101 #
b101 H
b101 T
b101 O
0"
b101 1
b101 N
b101 R
b101 &
b101 D
b101 M
1'
1.
b11 -
b11 C
b11 J
b11 P
b10 5
b10 :
13
#108
03
#109
b11 5
b11 :
13
#110
03
#111
b11 #
b11 H
b11 T
b11 O
b11 1
b11 N
b11 R
b11 &
b11 D
b11 M
0'
0.
b0 5
b0 :
13
#112
03
#113
b0 +
b0 A
b0 B
b0 =
b0 E
b0 G
b0 9
0'
0.
b0 *
b0 8
b0 @
b1 5
b1 :
b1110 4
b1110 7
13
#114
03
#115
b0 #
b0 H
b0 T
b0 O
1"
b0 1
b0 N
b0 R
b0 &
b0 D
b0 M
b0 -
b0 C
b0 J
b0 P
b10 5
b10 :
13
#116
03
#117
b11 5
b11 :
13
#118
03
#119
b0 5
b0 :
13
#120
03
#121
0)
0$
0(
0.
b101 +
b101 A
b101 B
b10 =
b10010 E
b101 G
b11 9
b10100000010100100000011 *
b10100000010100100000011 8
b10100000010100100000011 @
b1 5
b1 :
b1111 4
b1111 7
13
#122
03
#123
b101 O
0"
b101 1
b101 N
b101 R
bx #
bx H
bx T
b101 &
b101 D
b101 M
1)
1$
1(
1.
bx -
bx C
bx J
bx P
b10 5
b10 :
13
#124
03
#125
b11 #
b11 H
b11 T
b11 %
b11 Q
b11 S
b11 5
b11 :
13
#126
03
#127
bx O
x"
bx 1
bx N
bx R
bx #
bx H
bx T
bx &
bx D
bx M
0(
0)
0$
0.
b0 5
b0 :
13
#128
03
#129
b0 +
b0 A
b0 B
b0 =
b0 E
b0 G
b0 9
0)
0$
0(
0.
b0 *
b0 8
b0 @
b1 5
b1 :
b10000 4
b10000 7
13
#130
03
#131
b0 #
b0 H
b0 T
b0 O
1"
b0 1
b0 N
b0 R
b0 &
b0 D
b0 M
b0 -
b0 C
b0 J
b0 P
b10 5
b10 :
13
#132
03
#133
b11 5
b11 :
13
#134
03
#135
b0 5
b0 :
13
#136
03
#137
0$
0.
b10011 E
b10010 F
b10011 9
b10010000100110010011 *
b10010000100110010011 8
b10010000100110010011 @
b1 5
b1 :
b10001 4
b10001 7
13
#138
03
#139
b11 #
b11 H
b11 T
b11 O
0"
b11 1
b11 N
b11 R
1$
1.
b11 2
b11 I
b11 K
b10 5
b10 :
13
#140
03
#141
b11 5
b11 :
13
#142
03
#143
0$
0.
b0 5
b0 :
13
#144
03
#145
b0 /
b0 ;
b0 <
b111 =
b10100 E
b1010 G
b110011 9
0$
0.
b101010010111101000110011 *
b101010010111101000110011 8
b101010010111101000110011 @
b1 5
b1 :
b10010 4
b10010 7
13
#146
03
#147
b1 #
b1 H
b1 T
b1 O
b1 1
b1 N
b1 R
b0 0
b0 ?
b0 L
b1 &
b1 D
b1 M
b10 /
b10 ;
b10 <
1$
b1 -
b1 C
b1 J
b1 P
b10 5
b10 :
13
#148
03
#149
b11 5
b11 :
13
#150
03
#151
b100 #
b100 H
b100 T
b100 O
b100 1
b100 N
b100 R
b10 0
b10 ?
b10 L
b0 /
b0 ;
b0 <
0$
b0 5
b0 :
13
#152
03
#153
0.
b0 =
b10111 E
b0 G
b10100 F
b10011 9
b0 /
b0 ;
b0 <
0$
b10100000101110010011 *
b10100000101110010011 8
b10100000101110010011 @
b1 5
b1 :
b10011 4
b10011 7
13
#154
03
#155
b1 #
b1 H
b1 T
b1 O
b0 &
b0 D
b0 M
b1 1
b1 N
b1 R
1$
1.
b0 -
b0 C
b0 J
b0 P
b1 2
b1 I
b1 K
b10 5
b10 :
13
#156
03
#157
b11 5
b11 :
13
#158
03
#159
0$
0.
b0 5
b0 :
13
#160
03
#161
b0 /
b0 ;
b0 <
b110 =
b10101 E
b1011 G
b10000 F
b110011 9
0$
0.
b101110000110101010110011 *
b101110000110101010110011 8
b101110000110101010110011 @
b1 5
b1 :
b10100 4
b10100 7
13
#162
03
#163
b110 #
b110 H
b110 T
b110 O
b1 0
b1 ?
b1 L
b10 &
b10 D
b10 M
b110 1
b110 N
b110 R
b10 /
b10 ;
b10 <
1$
b10 -
b10 C
b10 J
b10 P
b100 2
b100 I
b100 K
b10 5
b10 :
13
#164
03
#165
b11 5
b11 :
13
#166
03
#167
b10 0
b10 ?
b10 L
b0 /
b0 ;
b0 <
0$
b0 5
b0 :
13
#168
03
#169
0.
b0 =
b11000 E
b0 G
b10101 F
b10011 9
b0 /
b0 ;
b0 <
0$
b10101000110000010011 *
b10101000110000010011 8
b10101000110000010011 @
b1 5
b1 :
b10101 4
b10101 7
13
#170
03
#171
b110 #
b110 H
b110 T
b110 O
b0 &
b0 D
b0 M
b110 1
b110 N
b110 R
1$
1.
b0 -
b0 C
b0 J
b0 P
b110 2
b110 I
b110 K
b10 5
b10 :
13
#172
03
#173
b11 5
b11 :
13
#174
03
#175
0$
0.
b0 5
b0 :
13
#176
03
#177
b0 /
b0 ;
b0 <
b100 =
b10110 E
b1110 G
b10001 F
b110011 9
0$
0.
b111010001100101100110011 *
b111010001100101100110011 8
b111010001100101100110011 @
b1 5
b1 :
b10110 4
b10110 7
13
#178
03
#179
b10 #
b10 H
b10 T
b10 O
b1100 0
b1100 ?
b1100 L
b110 &
b110 D
b110 M
b10 1
b10 N
b10 R
b10 /
b10 ;
b10 <
1$
b110 -
b110 C
b110 J
b110 P
b100 2
b100 I
b100 K
b10 5
b10 :
13
#180
03
#181
b11 5
b11 :
13
#182
03
#183
b1010 #
b1010 H
b1010 T
b1010 O
b1010 1
b1010 N
b1010 R
b10 0
b10 ?
b10 L
b0 /
b0 ;
b0 <
0$
b0 5
b0 :
13
#184
03
#185
0.
b0 =
b11001 E
b0 G
b10110 F
b10011 9
b0 /
b0 ;
b0 <
0$
b10110000110010010011 *
b10110000110010010011 8
b10110000110010010011 @
b1 5
b1 :
b10111 4
b10111 7
13
#186
03
#187
b10 #
b10 H
b10 T
b10 O
b0 &
b0 D
b0 M
b10 1
b10 N
b10 R
1$
1.
b0 -
b0 C
b0 J
b0 P
b10 2
b10 I
b10 K
b10 5
b10 :
13
#188
03
#189
b11 5
b11 :
13
#190
03
#191
0$
0.
b0 5
b0 :
13
#192
03
#193
b0 E
b0 F
b0 9
0$
0.
b0 *
b0 8
b0 @
b1 5
b1 :
b11000 4
b11000 7
13
#194
03
#195
b0 #
b0 H
b0 T
b0 O
1"
b0 1
b0 N
b0 R
b0 2
b0 I
b0 K
b10 5
b10 :
13
#196
03
#197
b11 5
b11 :
13
#198
03
#199
b0 5
b0 :
13
#200
03
#201
0)
0$
0(
0.
b100 +
b100 A
b100 B
b10 =
b11010 E
b100 G
b11 9
b10000000010110100000011 *
b10000000010110100000011 8
b10000000010110100000011 @
b1 5
b1 :
b11001 4
b11001 7
13
#202
03
#203
b100 O
0"
b100 1
b100 N
b100 R
b11 #
b11 H
b11 T
b100 &
b100 D
b100 M
1)
1$
1(
1.
bx -
bx C
bx J
bx P
b10 5
b10 :
13
#204
03
#205
b10 #
b10 H
b10 T
b10 %
b10 Q
b10 S
b11 5
b11 :
13
#206
03
#207
bx O
x"
bx 1
bx N
bx R
bx #
bx H
bx T
bx &
bx D
bx M
0(
0)
0$
0.
b0 5
b0 :
13
#208
03
#209
b0 +
b0 A
b0 B
b0 =
b11011 E
b0 G
b11010 F
b10011 9
0)
0$
0(
0.
b11010000110110010011 *
b11010000110110010011 8
b11010000110110010011 @
b1 5
b1 :
b11010 4
b11010 7
13
#210
03
#211
b10 #
b10 H
b10 T
b10 O
0"
b10 1
b10 N
b10 R
b0 &
b0 D
b0 M
1$
1.
b0 -
b0 C
b0 J
b0 P
b10 2
b10 I
b10 K
b10 5
b10 :
13
#212
03
#213
b11 5
b11 :
13
#214
03
#215
0$
0.
b0 5
b0 :
13
#216
03
#217
b0 E
b0 F
b0 9
0$
0.
b0 *
b0 8
b0 @
b1 5
b1 :
b11011 4
b11011 7
13
#218
03
#219
b0 #
b0 H
b0 T
b0 O
1"
b0 1
b0 N
b0 R
b0 2
b0 I
b0 K
b10 5
b10 :
13
#220
03
#221
b11 5
b11 :
13
#222
03
#223
b0 5
b0 :
13
#224
03
#225
0)
0$
0(
0.
b1001 +
b1001 A
b1001 B
b10 =
b11110 E
b1001 G
b11 9
b100100000010111100000011 *
b100100000010111100000011 8
b100100000010111100000011 @
b1 5
b1 :
b11100 4
b11100 7
13
#226
03
#227
b1001 O
0"
b1001 1
b1001 N
b1001 R
b10 #
b10 H
b10 T
b1001 &
b1001 D
b1001 M
1)
1$
1(
1.
bx -
bx C
bx J
bx P
b10 5
b10 :
13
#228
03
#229
b1 #
b1 H
b1 T
b1 %
b1 Q
b1 S
b11 5
b11 :
13
#230
03
#231
bx O
x"
bx 1
bx N
bx R
bx #
bx H
bx T
bx &
bx D
bx M
0(
0)
0$
0.
b0 5
b0 :
13
#232
03
#233
b0 +
b0 A
b0 B
b0 =
b0 E
b0 G
b0 9
0)
0$
0(
0.
b0 *
b0 8
b0 @
b1 5
b1 :
b11101 4
b11101 7
13
#234
03
#235
b0 #
b0 H
b0 T
b0 O
1"
b0 1
b0 N
b0 R
b0 &
b0 D
b0 M
b0 -
b0 C
b0 J
b0 P
b10 5
b10 :
13
#236
03
#237
b11 5
b11 :
13
#238
03
#239
b0 5
b0 :
13
#240
03
#241
0$
0.
b11111 E
b11110 F
b10011 9
b11110000111110010011 *
b11110000111110010011 8
b11110000111110010011 @
b1 5
b1 :
b11110 4
b11110 7
13
#242
03
#243
b1 #
b1 H
b1 T
b1 O
0"
b1 1
b1 N
b1 R
1$
1.
b1 2
b1 I
b1 K
b10 5
b10 :
13
#244
03
#245
b11 5
b11 :
13
#246
03
#247
0$
0.
b0 5
b0 :
13
#248
03
#249
0'
b1000 +
b1000 A
b1000 B
b10 =
b1000 E
b11000 G
b10000 F
b100011 9
0$
0.
b1100010000010010000100011 *
b1100010000010010000100011 8
b1100010000010010000100011 @
b1 5
b1 :
b11111 4
b11111 7
13
#250
03
#251
b1100 #
b1100 H
b1100 T
b1100 O
b1000 &
b1000 D
b1000 M
b1100 1
b1100 N
b1100 R
1'
1.
b110 -
b110 C
b110 J
b110 P
b100 2
b100 I
b100 K
b10 5
b10 :
13
#252
03
#253
b11 5
b11 :
13
#254
03
#255
b1010 #
b1010 H
b1010 T
b1010 O
b1010 1
b1010 N
b1010 R
b110 &
b110 D
b110 M
0'
0.
b0 5
b0 :
13
#256
03
#257
b1001 +
b1001 A
b1001 B
b1001 E
b11001 G
b10001 F
0'
0.
b1100110001010010010100011 *
b1100110001010010010100011 8
b1100110001010010010100011 @
b1 5
b1 :
b100000 4
b100000 7
13
#258
03
#259
b1101 #
b1101 H
b1101 T
b1101 O
b1101 1
b1101 N
b1101 R
b1001 &
b1001 D
b1001 M
1'
1.
b10 -
b10 C
b10 J
b10 P
b10 5
b10 :
13
#260
03
#261
b11 5
b11 :
13
#262
03
#263
b110 #
b110 H
b110 T
b110 O
b110 1
b110 N
b110 R
b10 &
b10 D
b10 M
0'
0.
b0 5
b0 :
13
#264
03
#265
b1101 +
b1101 A
b1101 B
b1101 E
b10011 G
b1010 F
0'
0.
b1001101010010011010100011 *
b1001101010010011010100011 8
b1001101010010011010100011 @
b1 5
b1 :
b100001 4
b100001 7
13
#266
03
#267
b1110 #
b1110 H
b1110 T
b1110 O
b1101 &
b1101 D
b1101 M
b1110 1
b1110 N
b1110 R
1'
1.
b11 -
b11 C
b11 J
b11 P
b1 2
b1 I
b1 K
b10 5
b10 :
13
#268
03
#269
b11 5
b11 :
13
#270
03
#271
b100 #
b100 H
b100 T
b100 O
b100 1
b100 N
b100 R
b11 &
b11 D
b11 M
0'
0.
b0 5
b0 :
13
#272
03
#273
b1100 +
b1100 A
b1100 B
b1100 E
b11110 G
b10010 F
0'
0.
b1111010010010011000100011 *
b1111010010010011000100011 8
b1111010010010011000100011 @
b1 5
b1 :
b100010 4
b100010 7
13
#274
03
#275
b1111 #
b1111 H
b1111 T
b1111 O
b1100 &
b1100 D
b1100 M
b1111 1
b1111 N
b1111 R
1'
1.
b1 -
b1 C
b1 J
b1 P
b11 2
b11 I
b11 K
b10 5
b10 :
13
#276
03
#277
b11 5
b11 :
13
#278
03
#279
b100 #
b100 H
b100 T
b100 O
b100 1
b100 N
b100 R
b1 &
b1 D
b1 M
0'
0.
b0 5
b0 :
13
#280
03
#281
0)
0$
0(
b1010 +
b1010 A
b1010 B
b101 E
b1010 G
b1011 F
b11 9
0'
0.
b101001011010001010000011 *
b101001011010001010000011 8
b101001011010001010000011 @
b1 5
b1 :
b100011 4
b100011 7
13
#282
03
#283
b1100 O
b1 #
b1 H
b1 T
b1010 &
b1010 D
b1010 M
b1100 1
b1100 N
b1100 R
1)
1$
1(
1.
b10 2
b10 I
b10 K
b10 5
b10 :
13
#284
03
#285
b110 #
b110 H
b110 T
b110 %
b110 Q
b110 S
b11 5
b11 :
13
#286
03
#287
b11 O
b11 1
b11 N
b11 R
b11 #
b11 H
b11 T
b1 &
b1 D
b1 M
0(
0)
0$
0.
b0 5
b0 :
13
#288
03
#289
b110 E
b1100 F
0)
0$
0(
0.
b101001100010001100000011 *
b101001100010001100000011 8
b101001100010001100000011 @
b1 5
b1 :
b100100 4
b100100 7
13
#290
03
#291
b1101 O
b110 #
b110 H
b110 T
b1010 &
b1010 D
b1010 M
b1101 1
b1101 N
b1101 R
1)
1$
1(
1.
b11 2
b11 I
b11 K
b10 5
b10 :
13
#292
03
#293
b10 #
b10 H
b10 T
b10 %
b10 Q
b10 S
b11 5
b11 :
13
#294
03
#295
b100 O
b100 1
b100 N
b100 R
b100 #
b100 H
b100 T
b1 &
b1 D
b1 M
0(
0)
0$
0.
b0 5
b0 :
13
#296
03
#297
b1000 +
b1000 A
b1000 B
b111 E
b1000 G
b1111 F
0)
0$
0(
0.
b100001111010001110000011 *
b100001111010001110000011 8
b100001111010001110000011 @
b1 5
b1 :
b100101 4
b100101 7
13
#298
03
#299
b1110 O
b10 #
b10 H
b10 T
b1000 &
b1000 D
b1000 M
b1110 1
b1110 N
b1110 R
1)
1$
1(
1.
bx -
bx C
bx J
bx P
b110 2
b110 I
b110 K
b10 5
b10 :
13
#300
03
#301
b11 #
b11 H
b11 T
b11 %
b11 Q
b11 S
b11 5
b11 :
13
#302
03
#303
bx O
x"
bx 1
bx N
bx R
bx #
bx H
bx T
bx &
bx D
bx M
0(
0)
0$
0.
b0 5
b0 :
13
#304
03
#305
b1101 +
b1101 A
b1101 B
b1000 E
b1101 G
b11001 F
0)
0$
0(
0.
b110111001010010000000011 *
b110111001010010000000011 8
b110111001010010000000011 @
b1 5
b1 :
b100110 4
b100110 7
13
#306
03
#307
b1111 O
0"
b1111 1
b1111 N
b1111 R
b11 #
b11 H
b11 T
b1101 &
b1101 D
b1101 M
1)
1$
1(
1.
b100 -
b100 C
b100 J
b100 P
b10 2
b10 I
b10 K
b10 5
b10 :
13
#308
03
#309
b1 #
b1 H
b1 T
b1 %
b1 Q
b1 S
b11 5
b11 :
13
#310
03
#311
b110 O
b110 1
b110 N
b110 R
b110 #
b110 H
b110 T
b100 &
b100 D
b100 M
0(
0)
0$
0.
b0 5
b0 :
13
#312
03
#313
b0 +
b0 A
b0 B
b0 =
b100 E
b0 G
b101 F
b10011 9
0)
0$
0(
0.
b101000001000010011 *
b101000001000010011 8
b101000001000010011 @
b1 5
b1 :
b100111 4
b100111 7
13
#314
03
#315
b110 #
b110 H
b110 T
b110 O
b0 &
b0 D
b0 M
b110 1
b110 N
b110 R
1$
1.
b0 -
b0 C
b0 J
b0 P
b110 2
b110 I
b110 K
b10 5
b10 :
13
#316
03
#317
b11 5
b11 :
13
#318
03
#319
0$
0.
b0 5
b0 :
13
#320
03
#321
b110 F
0$
0.
b110000001000010011 *
b110000001000010011 8
b110000001000010011 @
b1 5
b1 :
b101000 4
b101000 7
13
#322
03
#323
b10 #
b10 H
b10 T
b10 O
b10 1
b10 N
b10 R
1$
1.
b10 2
b10 I
b10 K
b10 5
b10 :
13
#324
03
#325
b11 5
b11 :
13
#326
03
#327
0$
0.
b0 5
b0 :
13
#328
03
#329
b111 F
0$
0.
b111000001000010011 *
b111000001000010011 8
b111000001000010011 @
b1 5
b1 :
b101001 4
b101001 7
13
#330
03
#331
b11 #
b11 H
b11 T
b11 O
b11 1
b11 N
b11 R
1$
1.
b11 2
b11 I
b11 K
b10 5
b10 :
13
#332
03
#333
b11 5
b11 :
13
#334
03
#335
0$
0.
b0 5
b0 :
13
#336
03
#337
b1000 F
0$
0.
b1000000001000010011 *
b1000000001000010011 8
b1000000001000010011 @
b1 5
b1 :
b101010 4
b101010 7
13
#338
03
#339
b1 #
b1 H
b1 T
b1 O
b1 1
b1 N
b1 R
1$
1.
b1 2
b1 I
b1 K
b10 5
b10 :
13
#340
03
#341
b11 5
b11 :
13
#342
03
#343
0$
0.
b0 5
b0 :
13
#344
03
#345
bx =
bx >
bx E
bx G
bx F
bx 9
0$
0.
bx *
bx 8
bx @
b1 5
b1 :
b101011 4
b101011 7
13
#346
03
#347
bx #
bx H
bx T
bx O
bx &
bx D
bx M
x"
bx 1
bx N
bx R
bx -
bx C
bx J
bx P
bx 2
bx I
bx K
b10 5
b10 :
13
#348
03
#349
b11 5
b11 :
13
#350
03
#351
b0 5
b0 :
13
#352
03
#353
b1 5
b1 :
b101100 4
b101100 7
13
#354
03
#355
b10 5
b10 :
13
#356
03
#357
b11 5
b11 :
13
#358
03
#359
b0 5
b0 :
13
#360
03
#361
b1 5
b1 :
b101101 4
b101101 7
13
#362
03
#363
b10 5
b10 :
13
#364
03
#365
b11 5
b11 :
13
#366
03
#367
b0 5
b0 :
13
#368
03
#369
b1 5
b1 :
b101110 4
b101110 7
13
#370
03
#371
b10 5
b10 :
13
#372
03
#373
b11 5
b11 :
13
#374
03
#375
b0 5
b0 :
13
#376
03
#377
b1 5
b1 :
b101111 4
b101111 7
13
#378
03
#379
b10 5
b10 :
13
#380
03
#381
b11 5
b11 :
13
#382
03
#383
b0 5
b0 :
13
#384
03
#385
b1 5
b1 :
b110000 4
b110000 7
13
#386
03
#387
b10 5
b10 :
13
#388
03
#389
b11 5
b11 :
13
#390
03
#391
b0 5
b0 :
13
#392
03
#393
b1 5
b1 :
b110001 4
b110001 7
13
#394
03
#395
b10 5
b10 :
13
#396
03
#397
b11 5
b11 :
13
#398
03
#399
b0 5
b0 :
13
