Khizar/verilog/singleImplem/vcd/combined_tb.vcd
$date
	Sun Jul 16 21:41:08 2023
$end
$version
	Icarus Verilog
$end
$timescale
	1s
$end
$scope module combined_tb $end
$var wire 1 ! overflow $end
$var wire 1 " zero $end
$var wire 32 # writedata [31:0] $end
$var wire 1 $ regwrite $end
$var wire 32 % readdata [31:0] $end
$var wire 32 & mux_out [31:0] $end
$var wire 1 ' memwrite $end
$var wire 1 ( memtoreg $end
$var wire 1 ) memread $end
$var wire 32 * instruction [31:0] $end
$var wire 32 + immediate [31:0] $end
$var wire 1 , branch $end
$var wire 32 - b [31:0] $end
$var wire 1 . alusrc $end
$var wire 2 / aluop [1:0] $end
$var wire 4 0 aluctl [3:0] $end
$var wire 32 1 alu_out [31:0] $end
$var wire 32 2 a [31:0] $end
$var reg 10 3 pc [9:0] $end
$var integer 32 4 i [31:0] $end
$scope module uutA $end
$var wire 10 5 pc [9:0] $end
$var reg 32 6 instruction [31:0] $end
$upscope $end
$scope module uutB $end
$var wire 7 7 instruction [6:0] $end
$var reg 2 8 aluop [1:0] $end
$var reg 1 . alusrc $end
$var reg 1 , branch $end
$var reg 1 ) memread $end
$var reg 1 ( memtoreg $end
$var reg 1 ' memwrite $end
$var reg 1 $ regwrite $end
$upscope $end
$scope module uutC $end
$var wire 2 9 aluop [1:0] $end
$var wire 3 : func3 [2:0] $end
$var wire 7 ; func7 [6:0] $end
$var reg 4 < aluctl [3:0] $end
$upscope $end
$scope module uutD $end
$var wire 32 = instruction [31:0] $end
$var reg 32 > result [31:0] $end
$upscope $end
$scope module uutE $end
$var wire 32 ? in2 [31:0] $end
$var wire 1 . s $end
$var wire 32 @ in1 [31:0] $end
$var reg 32 A out [31:0] $end
$upscope $end
$scope module uutF $end
$var wire 5 B rd [4:0] $end
$var wire 1 $ regwrite $end
$var wire 5 C rs1 [4:0] $end
$var wire 5 D rs2 [4:0] $end
$var wire 32 E writedata [31:0] $end
$var reg 32 F readdata1 [31:0] $end
$var reg 32 G readdata2 [31:0] $end
$upscope $end
$scope module uutG $end
$var wire 32 H a [31:0] $end
$var wire 4 I aluctl [3:0] $end
$var wire 32 J b [31:0] $end
$var wire 1 ! overflow $end
$var wire 1 " zero $end
$var reg 32 K out [31:0] $end
$upscope $end
$scope module uutH $end
$var wire 10 L address [9:0] $end
$var wire 1 ) memread $end
$var wire 1 ' memwrite $end
$var wire 32 M writedata [31:0] $end
$var reg 32 N readdata [31:0] $end
$upscope $end
$scope module uutI $end
$var wire 32 O in1 [31:0] $end
$var wire 32 P in2 [31:0] $end
$var wire 1 ( s $end
$var reg 32 Q out [31:0] $end
$upscope $end
$upscope $end
$enddefinitions $end
#0
$dumpvars
bx Q
bx P
bx O
bx N
bx M
bx L
bx K
bx J
bx I
bx H
bx G
bx F
bx E
bx D
bx C
bx B
bx A
bx @
bx ?
bx >
bx =
bx <
bx ;
bx :
bx 9
bx 8
bx 7
bx 6
bx 5
b0 4
bx 3
bx 2
bx 1
bx 0
bx /
x.
bx -
x,
bx +
bx *
x)
x(
x'
bx &
bx %
x$
bx #
x"
z!
$end
#1
b1 #
b1 E
b1 Q
b1 L
0"
b1 1
b1 K
b1 O
b10 0
b10 <
b10 I
b0 2
b0 F
b0 H
b1 &
b1 A
b1 J
b0 /
b0 8
b0 9
0,
0'
0)
0(
1$
1.
b1 +
b1 >
b1 ?
b1010 B
b1 D
b0 C
b0 :
b0 ;
b10011 7
b100000000010100010011 *
b100000000010100010011 6
b100000000010100010011 =
b0 3
b0 5
#2
b1 4
#3
b10 #
b10 E
b10 Q
b10 L
b10 1
b10 K
b10 O
b1 2
b1 F
b1 H
b1011 B
b1010 C
b101010000010110010011 *
b101010000010110010011 6
b101010000010110010011 =
b1 3
b1 5
#4
b10 4
#5
b11 #
b11 E
b11 Q
b11 L
b11 1
b11 K
b11 O
b10 &
b10 A
b10 J
b10 +
b10 >
b10 ?
b1100 B
b10 D
b1001010000011000010011 *
b1001010000011000010011 6
b1001010000011000010011 =
b10 3
b10 5
#6
b11 4
#7
b0 #
b0 E
b0 Q
1"
b0 L
b0 1
b0 K
b0 O
b0 &
b0 A
b0 J
b0 -
b0 @
b0 G
b0 M
b0 2
b0 F
b0 H
0$
0.
b0 +
b0 >
b0 ?
b0 B
b0 D
b0 C
b0 7
b0 *
b0 6
b0 =
b11 3
b11 5
#8
b100 4
#9
b1001 #
b1001 E
b1001 Q
b1001 L
0"
b1001 1
b1001 K
b1001 O
b1001 &
b1001 A
b1001 J
b1 -
b1 @
b1 G
b1 M
1'
1.
b1001 +
b1001 >
b1001 ?
b1001 B
b1010 D
b10 :
b100011 7
b101000000010010010100011 *
b101000000010010010100011 6
b101000000010010010100011 =
b100 3
b100 5
#10
b101 4
#11
b0 #
b0 E
b0 Q
b0 L
1"
b0 1
b0 K
b0 O
b0 &
b0 A
b0 J
b0 -
b0 @
b0 G
b0 M
0'
0.
b0 +
b0 >
b0 ?
b0 B
b0 D
b0 :
b0 7
b0 *
b0 6
b0 =
b101 3
b101 5
#12
b110 4
#13
b100 #
b100 E
b100 Q
b100 L
0"
b100 1
b100 K
b100 O
b11 &
b11 A
b11 J
bx -
bx @
bx G
bx M
b1 2
b1 F
b1 H
1$
1.
b11 +
b11 >
b11 ?
b1101 B
b11 D
b1010 C
b10011 7
b1101010000011010010011 *
b1101010000011010010011 6
b1101010000011010010011 =
b110 3
b110 5
#14
b111 4
#15
b110 #
b110 E
b110 Q
b110 L
b110 1
b110 K
b110 O
b10 &
b10 A
b10 J
b10 -
b10 @
b10 G
b10 M
b100 2
b100 F
b100 H
b10 /
b10 8
b10 9
0.
b0 +
b0 >
b0 ?
b1110 B
b1011 D
b1101 C
b110011 7
b101101101000011100110011 *
b101101101000011100110011 6
b101101101000011100110011 =
b111 3
b111 5
#16
b1000 4
#17
b110 #
b110 E
b110 Q
b110 L
b110 1
b110 K
b110 O
b0 &
b0 A
b0 J
b0 -
b0 @
b0 G
b0 M
b110 2
b110 F
b110 H
b0 /
b0 8
b0 9
1.
b1111 B
b0 D
b1110 C
b10011 7
b1110000011110010011 *
b1110000011110010011 6
b1110000011110010011 =
b1000 3
b1000 5
#18
b1001 4
#19
b100 #
b100 E
b100 Q
b100 L
b100 1
b100 K
b100 O
b110 0
b110 <
b110 I
b10 &
b10 A
b10 J
b10 -
b10 @
b10 G
b10 M
b10 /
b10 8
b10 9
0.
b10000 B
b1011 D
b1111 C
b100000 ;
b110011 7
b1000000101101111000100000110011 *
b1000000101101111000100000110011 6
b1000000101101111000100000110011 =
b1001 3
b1001 5
#20
b1010 4
#21
b100 #
b100 E
b100 Q
b100 L
b100 1
b100 K
b100 O
b0 &
b0 A
b0 J
b0 -
b0 @
b0 G
b0 M
b100 2
b100 F
b100 H
b10 0
b10 <
b10 I
b0 /
b0 8
b0 9
1.
b10001 B
b0 D
b10000 C
b0 ;
b10011 7
b10000000100010010011 *
b10000000100010010011 6
b10000000100010010011 =
b1010 3
b1010 5
#22
b1011 4
#23
b100 #
b100 E
b100 Q
b100 L
0"
b100 1
b100 K
b100 O
b100 &
b100 A
b100 J
b10 -
b10 @
b10 G
b10 M
b0 2
b0 F
b0 H
1'
0$
b100 +
b100 >
b100 ?
b100 B
b1011 D
b0 C
b10 :
b100011 7
b101100000010001000100011 *
b101100000010001000100011 6
b101100000010001000100011 =
b1011 3
b1011 5
#24
b1100 4
#25
b0 #
b0 E
b0 Q
b0 L
1"
b0 1
b0 K
b0 O
b0 &
b0 A
b0 J
b0 -
b0 @
b0 G
b0 M
0'
0.
b0 +
b0 >
b0 ?
b0 B
b0 D
b0 :
b0 7
b0 *
b0 6
b0 =
b1100 3
b1100 5
#26
b1101 4
#27
b101 #
b101 E
b101 Q
b101 L
0"
b101 1
b101 K
b101 O
b101 &
b101 A
b101 J
b11 -
b11 @
b11 G
b11 M
1'
1.
b101 +
b101 >
b101 ?
b101 B
b1100 D
b10 :
b100011 7
b110000000010001010100011 *
b110000000010001010100011 6
b110000000010001010100011 =
b1101 3
b1101 5
#28
b1110 4
#29
b0 #
b0 E
b0 Q
b0 L
1"
b0 1
b0 K
b0 O
b0 &
b0 A
b0 J
b0 -
b0 @
b0 G
b0 M
0'
0.
b0 +
b0 >
b0 ?
b0 B
b0 D
b0 :
b0 7
b0 *
b0 6
b0 =
b1110 3
b1110 5
#30
b1111 4
#31
b101 L
0"
b101 1
b101 K
b101 O
b11 %
b11 N
b11 P
b11 #
b11 E
b11 Q
b101 &
b101 A
b101 J
bx -
bx @
bx G
bx M
1)
1$
1(
1.
b101 +
b101 >
b101 ?
b10010 B
b101 D
b10 :
b11 7
b10100000010100100000011 *
b10100000010100100000011 6
b10100000010100100000011 =
b1111 3
b1111 5
#32
b10000 4
#33
b0 L
1"
b0 1
b0 K
b0 O
b0 #
b0 E
b0 Q
b0 &
b0 A
b0 J
b0 -
b0 @
b0 G
b0 M
0(
0)
0$
0.
b0 +
b0 >
b0 ?
b0 B
b0 D
b0 :
b0 7
b0 *
b0 6
b0 =
b10000 3
b10000 5
#34
b10001 4
#35
b11 #
b11 E
b11 Q
b11 L
0"
b11 1
b11 K
b11 O
b11 2
b11 F
b11 H
1$
1.
b10011 B
b10010 C
b10011 7
b10010000100110010011 *
b10010000100110010011 6
b10010000100110010011 =
b10001 3
b10001 5
#36
b10010 4
#37
b1 #
b1 E
b1 Q
b1 L
b1 1
b1 K
b1 O
b0 0
b0 <
b0 I
b1 &
b1 A
b1 J
b1 -
b1 @
b1 G
b1 M
b10 /
b10 8
b10 9
0.
b10100 B
b1010 D
b111 :
b110011 7
b101010010111101000110011 *
b101010010111101000110011 6
b101010010111101000110011 =
b10010 3
b10010 5
#38
b10011 4
#39
b1 #
b1 E
b1 Q
b1 L
b1 1
b1 K
b1 O
b0 &
b0 A
b0 J
b0 -
b0 @
b0 G
b0 M
b1 2
b1 F
b1 H
b10 0
b10 <
b10 I
b0 /
b0 8
b0 9
1.
b10111 B
b0 D
b10100 C
b0 :
b10011 7
b10100000101110010011 *
b10100000101110010011 6
b10100000101110010011 =
b10011 3
b10011 5
#40
b10100 4
#41
b110 #
b110 E
b110 Q
b110 L
b110 1
b110 K
b110 O
b1 0
b1 <
b1 I
b10 &
b10 A
b10 J
b10 -
b10 @
b10 G
b10 M
b100 2
b100 F
b100 H
b10 /
b10 8
b10 9
0.
b10101 B
b1011 D
b10000 C
b110 :
b110011 7
b101110000110101010110011 *
b101110000110101010110011 6
b101110000110101010110011 =
b10100 3
b10100 5
#42
b10101 4
#43
b110 #
b110 E
b110 Q
b110 L
b110 1
b110 K
b110 O
b0 &
b0 A
b0 J
b0 -
b0 @
b0 G
b0 M
b110 2
b110 F
b110 H
b10 0
b10 <
b10 I
b0 /
b0 8
b0 9
1.
b11000 B
b0 D
b10101 C
b0 :
b10011 7
b10101000110000010011 *
b10101000110000010011 6
b10101000110000010011 =
b10101 3
b10101 5
#44
b10110 4
#45
b10 #
b10 E
b10 Q
b10 L
b10 1
b10 K
b10 O
b1100 0
b1100 <
b1100 I
b110 &
b110 A
b110 J
b110 -
b110 @
b110 G
b110 M
b100 2
b100 F
b100 H
b10 /
b10 8
b10 9
0.
b10110 B
b1110 D
b10001 C
b100 :
b110011 7
b111010001100101100110011 *
b111010001100101100110011 6
b111010001100101100110011 =
b10110 3
b10110 5
#46
b10111 4
#47
b10 #
b10 E
b10 Q
b10 L
b10 1
b10 K
b10 O
b0 &
b0 A
b0 J
b0 -
b0 @
b0 G
b0 M
b10 2
b10 F
b10 H
b10 0
b10 <
b10 I
b0 /
b0 8
b0 9
1.
b11001 B
b0 D
b10110 C
b0 :
b10011 7
b10110000110010010011 *
b10110000110010010011 6
b10110000110010010011 =
b10111 3
b10111 5
#48
b11000 4
#49
b0 #
b0 E
b0 Q
b0 L
1"
b0 1
b0 K
b0 O
b0 2
b0 F
b0 H
0$
0.
b0 B
b0 C
b0 7
b0 *
b0 6
b0 =
b11000 3
b11000 5
#50
b11001 4
#51
b10 %
b10 N
b10 P
b100 L
0"
b100 1
b100 K
b100 O
b10 #
b10 E
b10 Q
b100 &
b100 A
b100 J
b100 -
b100 @
b100 G
b100 M
1)
1$
1(
1.
b100 +
b100 >
b100 ?
b11010 B
b100 D
b10 :
b11 7
b10000000010110100000011 *
b10000000010110100000011 6
b10000000010110100000011 =
b11001 3
b11001 5
#52
b11010 4
#53
b10 L
b10 1
b10 K
b10 O
b10 #
b10 E
b10 Q
b0 &
b0 A
b0 J
b0 -
b0 @
b0 G
b0 M
b10 2
b10 F
b10 H
0)
0(
b0 +
b0 >
b0 ?
b11011 B
b0 D
b11010 C
b0 :
b10011 7
b11010000110110010011 *
b11010000110110010011 6
b11010000110110010011 =
b11010 3
b11010 5
#54
b11011 4
#55
b0 #
b0 E
b0 Q
b0 L
1"
b0 1
b0 K
b0 O
b0 2
b0 F
b0 H
0$
0.
b0 B
b0 C
b0 7
b0 *
b0 6
b0 =
b11011 3
b11011 5
#56
b11100 4
#57
b1001 L
0"
b1001 1
b1001 K
b1001 O
b1 %
b1 N
b1 P
b1 #
b1 E
b1 Q
b1001 &
b1001 A
b1001 J
bx -
bx @
bx G
bx M
1)
1$
1(
1.
b1001 +
b1001 >
b1001 ?
b11110 B
b1001 D
b10 :
b11 7
b100100000010111100000011 *
b100100000010111100000011 6
b100100000010111100000011 =
b11100 3
b11100 5
#58
b11101 4
#59
b0 L
1"
b0 1
b0 K
b0 O
b0 #
b0 E
b0 Q
b0 &
b0 A
b0 J
b0 -
b0 @
b0 G
b0 M
0(
0)
0$
0.
b0 +
b0 >
b0 ?
b0 B
b0 D
b0 :
b0 7
b0 *
b0 6
b0 =
b11101 3
b11101 5
#60
b11110 4
#61
b1 #
b1 E
b1 Q
b1 L
0"
b1 1
b1 K
b1 O
b1 2
b1 F
b1 H
1$
1.
b11111 B
b11110 C
b10011 7
b11110000111110010011 *
b11110000111110010011 6
b11110000111110010011 =
b11110 3
b11110 5
#62
b11111 4
